1562831991888090;32,53

1562831992138100;32,53

1562831992388110;32,53

1562831992638120;32,53

1562831992888130;32,53

1562831993138140;32,53

1562831993388160;32,53

1562831993638170;32,53

1562831993888180;32,55

1562831994138190;32,55

1562831994388200;32,55

1562831994638210;32,55

1562831994888230;32,55

1562831995138240;32,55

1562831995388250;32,55

1562831995638260;32,55

1562831995888270;32,55

1562831996138280;32,55

1562831996388290;32,55

1562831996638310;32,55

1562831996888320;32,57

1562831997138330;32,57

1562831997388340;32,57

1562831997638350;32,57

1562831997888360;32,57

1562831998138380;32,57

1562831998388390;32,57

1562831998638400;32,57

1562831998888410;32,55

1562831999138420;32,55

1562831999388430;32,55

1562831999638450;32,55

1562831999888460;32,57

1562832000138470;32,57

1562832000388480;32,57

1562832000638490;32,57

1562832000888500;32,55

1562832001138510;32,55

1562832001388530;32,55

1562832001638540;32,55

1562832001888550;32,57

1562832002138560;32,57

1562832002388570;32,57

1562832002638580;32,57

1562832002888600;32,55

1562832003138610;32,55

1562832003388620;32,55

1562832003638630;32,55

1562832003888640;32,57

1562832004138650;32,57

1562832004388660;32,57

1562832004638680;32,57

1562832004888690;32,57

1562832005138700;32,57

1562832005388710;32,57

1562832005638720;32,57

1562832005888730;32,59

1562832006138750;32,59

1562832006388760;32,59

1562832006638770;32,59

1562832006888780;32,57

1562832007138790;32,57

1562832007388800;32,57

1562832007638820;32,57

1562832007888830;32,57

1562832008138840;32,57

1562832008388850;32,57

1562832008638860;32,57

1562832008888870;32,59

1562832009138880;32,59

1562832009388900;32,59

1562832009638910;32,59

1562832009888920;32,57

1562832010138930;32,57

1562832010388940;32,57

1562832010638950;32,57

1562832010888970;32,63

1562832011138980;32,63

1562832011388990;32,63

1562832011639000;32,63

1562832011889010;32,61

1562832012139020;32,61

1562832012389040;32,61

1562832012639050;32,61

1562832012889060;32,61

1562832013139070;32,61

1562832013389080;32,61

1562832013639090;32,61

1562832013889100;32,61

1562832014139120;32,61

1562832014389130;32,61

1562832014639140;32,61

1562832014889150;32,63

1562832015139160;32,63

1562832015389170;32,63

1562832015639190;32,63

1562832015889200;32,63

1562832016139210;32,63

1562832016389220;32,63

1562832016639230;32,63

1562832016889240;32,63

1562832017139260;32,63

1562832017389270;32,63

1562832017639280;32,63

1562832017889290;32,65

1562832018139300;32,65

1562832018389310;32,65

1562832018639320;32,65

1562832018889340;32,63

1562832019139350;32,63

1562832019389360;32,63

1562832019639370;32,63

1562832019889380;32,61

1562832020139390;32,61

1562832020389410;32,61

1562832020639420;32,61

1562832020889430;32,63

1562832021139440;32,63

1562832021389450;32,63

1562832021639460;32,63

1562832021889480;32,63

1562832022139490;32,63

1562832022389500;32,63

1562832022639510;32,63

1562832022889520;32,65

1562832023139530;32,65

1562832023389540;32,65

1562832023639560;32,65

1562832023889570;32,61

1562832024139580;32,61

1562832024389590;32,61

1562832024639600;32,61

1562832024889610;32,63

1562832025139630;32,63

1562832025389640;32,63

1562832025639650;32,63

1562832025889660;32,63

1562832026139670;32,63

1562832026389680;32,63

1562832026639700;32,63

1562832026889710;32,65

1562832027139720;32,65

1562832027389730;32,65

1562832027639740;32,65

1562832027889750;32,67

1562832028139760;32,67

1562832028389780;32,67

1562832028639790;32,67

1562832028889800;32,63

1562832029139810;32,63

1562832029389820;32,63

1562832029639830;32,63

1562832029889850;32,67

1562832030139860;32,67

1562832030389870;32,67

1562832030639880;32,67

1562832030889890;32,65

1562832031139900;32,65

1562832031389910;32,65

1562832031639930;32,65

1562832031889940;32,67

1562832032139950;32,67

1562832032389960;32,67

1562832032639970;32,67

1562832032889980;32,67

1562832033140000;32,67

1562832033390010;32,67

1562832033640020;32,67

1562832033890030;32,67

1562832034140040;32,67

1562832034390050;32,67

1562832034640070;32,67

1562832034890080;32,67

1562832035140090;32,67

1562832035390100;32,67

1562832035640110;32,67

1562832035890120;32,67

1562832036140140;32,67

1562832036390150;32,67

1562832036640160;32,67

1562832036890170;32,67

1562832037140180;32,67

1562832037390190;32,67

1562832037640200;32,67

1562832037890220;32,67

1562832038140230;32,67

1562832038390240;32,67

1562832038640250;32,67

1562832038890260;32,67

1562832039140270;32,67

1562832039390290;32,67

1562832039640300;32,67

1562832039890310;32,69

1562832040140320;32,69

1562832040390330;32,69

1562832040640340;32,69

1562832040890350;32,67

1562832041140370;32,67

1562832041390380;32,67

1562832041640390;32,67

1562832041890400;32,67

1562832042140410;32,67

1562832042390420;32,67

1562832042640440;32,67

1562832042890450;32,67

1562832043140460;32,67

1562832043390470;32,67

1562832043640480;32,67

1562832043890490;32,67

1562832044140510;32,67

1562832044390520;32,67

1562832044640530;32,67

1562832044890540;32,69

1562832045140550;32,69

1562832045390560;32,69

1562832045640570;32,69

1562832045890590;32,69

1562832046140600;32,69

1562832046390610;32,69

1562832046640620;32,69

1562832046890630;32,71

1562832047140640;32,71

1562832047390660;32,71

1562832047640670;32,71

1562832047890680;32,69

1562832048140690;32,69

1562832048390700;32,69

1562832048640710;32,69

1562832048890730;32,71

1562832049140740;32,71

1562832049390750;32,71

1562832049640760;32,71

1562832049890770;32,73

1562832050140780;32,73

1562832050390790;32,73

1562832050640810;32,73

1562832050890820;32,71

1562832051140830;32,71

1562832051390840;32,71

1562832051640850;32,71

1562832051890860;32,69

1562832052140880;32,69

1562832052390890;32,69

1562832052640900;32,69

1562832052890910;32,69

1562832053140920;32,69

1562832053390930;32,69

1562832053640950;32,69

1562832053890960;32,69

1562832054140970;32,69

1562832054390980;32,69

1562832054640990;32,69

1562832054891000;32,71

1562832055141010;32,71

1562832055391030;32,71

1562832055641040;32,71

1562832055891050;32,71

1562832056141060;32,71

1562832056391070;32,71

1562832056641080;32,71

1562832056891100;32,71

1562832057141110;32,71

1562832057391120;32,71

1562832057641130;32,71

1562832057891140;32,71

1562832058141150;32,71

1562832058391170;32,71

1562832058641180;32,71

1562832058891190;32,71

1562832059141200;32,71

1562832059391210;32,71

1562832059641220;32,71

1562832059891230;32,71

1562832060141250;32,71

1562832060391260;32,71

1562832060641270;32,71

1562832060891280;32,73

1562832061141290;32,73

1562832061391300;32,73

1562832061641320;32,73

1562832061891330;32,73

1562832062141340;32,73

1562832062391350;32,73

1562832062641360;32,73

1562832062891370;32,69

1562832063141390;32,69

1562832063391400;32,69

1562832063641410;32,69

1562832063891420;32,73

1562832064141430;32,73

1562832064391440;32,73

1562832064641450;32,73

1562832064891470;32,75

1562832065141480;32,75

1562832065391490;32,75

1562832065641500;32,75

1562832065891510;32,75

1562832066141520;32,75

1562832066391540;32,75

1562832066641550;32,75

1562832066891560;32,73

1562832067141570;32,73

1562832067391580;32,73

1562832067641590;32,73

1562832067891600;32,71

1562832068141620;32,71

1562832068391630;32,71

1562832068641640;32,71

1562832068891650;32,73

1562832069141660;32,73

1562832069391670;32,73

1562832069641690;32,73

1562832069891700;32,73

1562832070141710;32,73

1562832070391720;32,73

1562832070641730;32,73

1562832070891740;32,75

1562832071141760;32,75

1562832071391770;32,75

1562832071641780;32,75

1562832071891790;32,73

1562832072141800;32,73

1562832072391810;32,73

1562832072641820;32,73

1562832072891840;32,77

1562832073141850;32,77

1562832073391860;32,77

1562832073641870;32,77

1562832073891880;32,75

1562832074141890;32,75

1562832074391910;32,75

1562832074641920;32,75

1562832074891930;32,73

1562832075141940;32,73

1562832075391950;32,73

1562832075641960;32,73

1562832075891980;32,75

1562832076141990;32,75

1562832076392000;32,75

1562832076642010;32,75

1562832076892020;32,75

1562832077142030;32,75

1562832077392040;32,75

1562832077642060;32,75

1562832077892070;32,77

1562832078142080;32,77

1562832078392090;32,77

1562832078642100;32,77

1562832078892110;32,77

1562832079142130;32,77

1562832079392140;32,77

1562832079642150;32,77

1562832079892160;32,75

1562832080142170;32,75

1562832080392180;32,75

1562832080642200;32,75

1562832080892210;32,75

1562832081142220;32,75

1562832081392230;32,75

1562832081642240;32,75

1562832081892250;32,75

1562832082142260;32,75

1562832082392280;32,75

1562832082642290;32,75

1562832082892300;32,75

1562832083142310;32,75

1562832083392320;32,75

1562832083642330;32,75

1562832083892350;32,77

1562832084142360;32,77

1562832084392370;32,77

1562832084642380;32,77

1562832084892390;32,75

1562832085142400;32,75

1562832085392420;32,75

1562832085642430;32,75

1562832085892440;32,77

1562832086142450;32,77

1562832086392460;32,77

1562832086642470;32,77

1562832086892480;32,77

1562832087142500;32,77

1562832087392510;32,77

1562832087642520;32,77

1562832087892530;32,75

1562832088142540;32,75

1562832088392550;32,75

1562832088642570;32,75

1562832088892580;32,79

1562832089142590;32,79

1562832089392600;32,79

1562832089642610;32,79

1562832089892620;32,79

1562832090142640;32,79

1562832090392650;32,79

1562832090642660;32,79

1562832090892670;32,79

1562832091142680;32,79

1562832091392690;32,79

1562832091642700;32,79

1562832091892720;32,79

1562832092142730;32,79

1562832092392740;32,79

1562832092642750;32,79

1562832092892760;32,79

1562832093142770;32,79

1562832093392790;32,79

1562832093642800;32,79

1562832093892810;32,79

1562832094142820;32,79

1562832094392830;32,79

1562832094642840;32,79

1562832094892850;32,79

1562832095142870;32,79

1562832095392880;32,79

1562832095642890;32,79

1562832095892900;32,79

1562832096142910;32,79

1562832096392920;32,79

1562832096642940;32,79

1562832096892950;32,79

1562832097142960;32,79

1562832097392970;32,79

1562832097642980;32,79

1562832097892990;32,79

1562832098143010;32,79

1562832098393020;32,79

1562832098643030;32,79

1562832098893040;32,77

1562832099143050;32,77

1562832099393060;32,77

1562832099643070;32,77

1562832099893090;32,79

1562832100143100;32,79

1562832100393110;32,79

1562832100643120;32,79

1562832100893130;32,77

1562832101143140;32,77

1562832101393160;32,77

1562832101643170;32,77

1562832101893180;32,79

1562832102143190;32,79

1562832102393200;32,79

1562832102643210;32,79

1562832102893230;32,77

1562832103143240;32,77

1562832103393250;32,77

1562832103643260;32,77

1562832103893270;32,79

1562832104143280;32,79

1562832104393290;32,79

1562832104643310;32,79

1562832104893320;32,77

1562832105143330;32,77

1562832105393340;32,77

1562832105643350;32,77

1562832105893360;32,81

1562832106143380;32,81

1562832106393390;32,81

1562832106643400;32,81

1562832106893410;32,79

1562832107143420;32,79

1562832107393430;32,79

1562832107643450;32,79

1562832107893460;32,81

1562832108143470;32,81

1562832108393480;32,81

1562832108643490;32,81

1562832108893500;32,79

1562832109143510;32,79

1562832109393530;32,79

1562832109643540;32,79

1562832109893550;32,79

1562832110143560;32,79

1562832110393570;32,79

1562832110643580;32,79

1562832110893600;32,79

1562832111143610;32,79

1562832111393620;32,79

1562832111643630;32,79

1562832111893640;32,79

1562832112143650;32,79

1562832112393670;32,79

1562832112643680;32,79

1562832112893690;32,77

1562832113143700;32,77

1562832113393710;32,77

1562832113643720;32,77

1562832113893730;32,79

1562832114143750;32,79

1562832114393760;32,79

1562832114643770;32,79

1562832114893780;32,79

1562832115143790;32,79

1562832115393800;32,79

1562832115643820;32,79

1562832115893830;32,81

1562832116143840;32,81

1562832116393850;32,81

1562832116643860;32,81

1562832116893870;32,79

1562832117143890;32,79

1562832117393900;32,79

1562832117643910;32,79

1562832117893920;32,79

1562832118143930;32,79

1562832118393940;32,79

1562832118643950;32,79

1562832118893970;32,79

1562832119143980;32,79

1562832119393990;32,79

1562832119644000;32,79

1562832119894010;32,77

1562832120144020;32,77

1562832120394040;32,77

1562832120644050;32,77

1562832120894060;32,81

1562832121144070;32,81

1562832121394080;32,81

1562832121644090;32,81

1562832121894110;32,81

1562832122144120;32,81

1562832122394130;32,81

1562832122644140;32,81

1562832122894150;32,81

1562832123144160;32,81

1562832123394170;32,81

1562832123644190;32,81

1562832123894200;32,81

1562832124144210;32,81

1562832124394220;32,81

1562832124644230;32,81

1562832124894240;32,83

1562832125144260;32,83

1562832125394270;32,83

1562832125644280;32,83

1562832125894290;32,81

1562832126144300;32,81

1562832126394310;32,81

1562832126644330;32,81

1562832126894340;32,81

1562832127144350;32,81

1562832127394360;32,81

1562832127644370;32,81

1562832127894380;32,81

1562832128144390;32,81

1562832128394410;32,81

1562832128644420;32,81

1562832128894430;32,81

1562832129144440;32,81

1562832129394450;32,81

1562832129644460;32,81

1562832129894480;32,79

1562832130144490;32,79

1562832130394500;32,79

1562832130644510;32,79

1562832130894520;32,81

1562832131144530;32,81

1562832131394540;32,81

1562832131644560;32,81

1562832131894570;32,83

1562832132144580;32,83

1562832132394590;32,83

1562832132644600;32,83

1562832132894610;32,77

1562832133144630;32,77

1562832133394640;32,77

1562832133644650;32,77

1562832133894660;32,77

1562832134144670;32,77

1562832134394680;32,77

1562832134644700;32,77

1562832134894710;32,79

1562832135144720;32,79

1562832135394730;32,79

1562832135644740;32,79

1562832135894750;32,79

1562832136144760;32,79

1562832136394780;32,79

1562832136644790;32,79

1562832136894800;32,77

1562832137144810;32,77

1562832137394820;32,77

1562832137644830;32,77

1562832137894850;32,79

1562832138144860;32,79

1562832138394870;32,79

1562832138644880;32,79

1562832138894890;32,79

1562832139144900;32,79

1562832139394920;32,79

1562832139644930;32,79

1562832139894940;32,79

1562832140144950;32,79

1562832140394960;32,79

1562832140644970;32,79

1562832140894980;32,79

1562832141145000;32,79

1562832141395010;32,79

1562832141645020;32,79

1562832141895030;32,79

1562832142145040;32,79

1562832142395050;32,79

1562832142645070;32,79

1562832142895080;32,79

1562832143145090;32,79

1562832143395100;32,79

1562832143645110;32,79

1562832143895120;32,79

1562832144145140;32,79

1562832144395150;32,79

1562832144645160;32,79

1562832144895170;32,81

1562832145145180;32,81

1562832145395190;32,81

1562832145645200;32,81

1562832145895220;32,79

1562832146145230;32,79

1562832146395240;32,79

1562832146645250;32,79

1562832146895260;32,81

1562832147145270;32,81

1562832147395290;32,81

1562832147645300;32,81

1562832147895310;32,83

1562832148145320;32,83

1562832148395330;32,83

1562832148645340;32,83

1562832148895360;32,81

1562832149145370;32,81

1562832149395380;32,81

1562832149645390;32,81

1562832149895400;32,81

1562832150145410;32,81

1562832150395420;32,81

1562832150645440;32,81

1562832150895450;32,81

1562832151145460;32,81

1562832151395470;32,81

1562832151645480;32,81

1562832151895490;32,81

1562832152145510;32,81

1562832152395520;32,81

1562832152645530;32,81

1562832152895540;32,79

1562832153145550;32,79

1562832153395560;32,79

1562832153645580;32,79

1562832153895590;32,81

1562832154145600;32,81

1562832154395610;32,81

1562832154645620;32,81

1562832154895630;32,81

1562832155145640;32,81

1562832155395660;32,81

1562832155645670;32,81

1562832155895680;32,79

1562832156145690;32,79

1562832156395700;32,79

1562832156645710;32,79

1562832156895730;32,79

1562832157145740;32,79

1562832157395750;32,79

1562832157645760;32,79

1562832157895770;32,81

1562832158145780;32,81

1562832158395800;32,81

1562832158645810;32,81

1562832158895820;32,83

1562832159145830;32,83

1562832159395840;32,83

1562832159645850;32,83

1562832159895860;32,81

1562832160145880;32,81

1562832160395890;32,81

1562832160645900;32,81

1562832160895910;32,81

1562832161145920;32,81

1562832161395930;32,81

1562832161645950;32,81

1562832161895960;32,81

1562832162145970;32,81

1562832162395980;32,81

1562832162645990;32,81

1562832162896000;32,83

1562832163146010;32,83

1562832163396030;32,83

1562832163646040;32,83

1562832163896050;32,83

1562832164146060;32,83

1562832164396070;32,83

1562832164646080;32,83

1562832164896100;32,81

1562832165146110;32,81

1562832165396120;32,81

1562832165646130;32,81

1562832165896140;32,83

1562832166146150;32,83

1562832166396170;32,83

1562832166646180;32,83

1562832166896190;32,83

1562832167146200;32,83

1562832167396210;32,83

1562832167646220;32,83

1562832167896230;32,81

1562832168146250;32,81

1562832168396260;32,81

1562832168646270;32,81

1562832168896280;32,81

1562832169146290;32,81

1562832169396300;32,81

1562832169646320;32,81

1562832169896330;32,81

1562832170146340;32,81

1562832170396350;32,81

1562832170646360;32,81

1562832170896370;32,83

1562832171146390;32,83

1562832171396400;32,83

1562832171646410;32,83

1562832171896420;32,83

1562832172146430;32,83

1562832172396440;32,83

1562832172646450;32,83

1562832172896470;32,83

1562832173146480;32,83

1562832173396490;32,83

1562832173646500;32,83

1562832173896510;32,83

1562832174146520;32,83

1562832174396540;32,83

1562832174646550;32,83

1562832174896560;32,83

1562832175146570;32,83

1562832175396580;32,83

1562832175646590;32,83

1562832175896610;32,83

1562832176146620;32,83

1562832176396630;32,83

1562832176646640;32,83

1562832176896650;32,83

1562832177146660;32,83

1562832177396670;32,83

1562832177646690;32,83

1562832177896700;32,81

1562832178146710;32,81

1562832178396720;32,81

1562832178646730;32,81

1562832178896740;32,81

1562832179146760;32,81

1562832179396770;32,81

1562832179646780;32,81

1562832179896790;32,83

1562832180146800;32,83

1562832180396810;32,83

1562832180646830;32,83

1562832180896840;32,83

1562832181146850;32,83

1562832181396860;32,83

1562832181646870;32,83

1562832181896880;32,83

1562832182146890;32,83

1562832182396910;32,83

1562832182646920;32,83

1562832182896930;32,83

1562832183146940;32,83

1562832183396950;32,83

1562832183646960;32,83

1562832183896980;32,85

1562832184146990;32,85

1562832184397000;32,85

1562832184647010;32,85

1562832184897020;32,81

1562832185147030;32,81

1562832185397050;32,81

1562832185647060;32,81

1562832185897070;32,83

1562832186147080;32,83

1562832186397090;32,83

1562832186647100;32,83

1562832186897110;32,83

1562832187147130;32,83

1562832187397140;32,83

1562832187647150;32,83

1562832187897160;32,85

1562832188147170;32,85

1562832188397180;32,85

1562832188647200;32,85

1562832188897210;32,85

1562832189147220;32,85

1562832189397230;32,85

1562832189647240;32,85

1562832189897250;32,83

1562832190147260;32,83

1562832190397280;32,83

1562832190647290;32,83

1562832190897300;32,85

1562832191147310;32,85

1562832191397320;32,85

1562832191647330;32,85

1562832191897350;32,83

1562832192147360;32,83

1562832192397370;32,83

1562832192647380;32,83

1562832192897390;32,85

1562832193147400;32,85

1562832193397420;32,85

1562832193647430;32,85

1562832193897440;32,83

1562832194147450;32,83

1562832194397460;32,83

1562832194647470;32,83

1562832194897490;32,85

1562832195147500;32,85

1562832195397510;32,85

1562832195647520;32,85

1562832195897530;32,83

1562832196147540;32,83

1562832196397550;32,83

1562832196647570;32,83

1562832196897580;32,83

1562832197147590;32,83

1562832197397600;32,83

1562832197647610;32,83

1562832197897620;32,83

1562832198147640;32,83

1562832198397650;32,83

1562832198647660;32,83

1562832198897670;32,85

1562832199147680;32,85

1562832199397690;32,85

1562832199647700;32,85

1562832199897720;32,85

1562832200147730;32,85

1562832200397740;32,85

1562832200647750;32,85

1562832200897760;32,85

1562832201147770;32,85

1562832201397790;32,85

1562832201647800;32,85

1562832201897810;32,85

1562832202147820;32,85

1562832202397830;32,85

1562832202647840;32,85

1562832202897860;32,83

1562832203147870;32,83

1562832203397880;32,83

1562832203647890;32,83

1562832203897900;32,85

1562832204147910;32,85

1562832204397920;32,85

1562832204647940;32,85

1562832204897950;32,83

1562832205147960;32,83

1562832205397970;32,83

1562832205647980;32,83

1562832205897990;32,85

1562832206148010;32,85

1562832206398020;32,85

1562832206648030;32,85

1562832206898040;32,85

1562832207148050;32,85

1562832207398060;32,85

1562832207648080;32,85

1562832207898090;32,85

1562832208148100;32,85

1562832208398110;32,85

1562832208648120;32,85

1562832208898130;32,83

1562832209148140;32,83

1562832209398160;32,83

1562832209648170;32,83

1562832209898180;32,83

1562832210148190;32,83

1562832210398200;32,83

1562832210648210;32,83

1562832210898230;32,83

1562832211148240;32,83

1562832211398250;32,83

1562832211648260;32,83

1562832211898270;32,87

1562832212148280;32,87

1562832212398300;32,87

1562832212648310;32,87

1562832212898320;32,85

1562832213148330;32,85

1562832213398340;32,85

1562832213648350;32,85

1562832213898360;32,85

1562832214148380;32,85

1562832214398390;32,85

1562832214648400;32,85

1562832214898410;32,85

1562832215148420;32,85

1562832215398430;32,85

1562832215648450;32,85

1562832215898460;32,85

1562832216148470;32,85

1562832216398480;32,85

1562832216648490;32,85

1562832216898500;32,85

1562832217148510;32,85

1562832217398530;32,85

1562832217648540;32,85

1562832217898550;32,83

1562832218148560;32,83

1562832218398570;32,83

1562832218648580;32,83

1562832218898600;32,83

1562832219148610;32,83

1562832219398620;32,83

1562832219648630;32,83

1562832219898640;32,83

1562832220148650;32,83

1562832220398670;32,83

1562832220648680;32,83

1562832220898690;32,83

1562832221148700;32,83

1562832221398710;32,83

1562832221648720;32,83

1562832221898740;32,85

1562832222148750;32,85

1562832222398760;32,85

1562832222648770;32,85

1562832222898780;32,85

1562832223148790;32,85

1562832223398800;32,85

1562832223648820;32,85

1562832223898830;32,85

1562832224148840;32,85

1562832224398850;32,85

1562832224648860;32,85

1562832224898870;32,83

1562832225148890;32,83

1562832225398900;32,83

1562832225648910;32,83

1562832225898920;32,83

1562832226148930;32,83

1562832226398940;32,83

1562832226648950;32,83

1562832226898970;32,89

1562832227148980;32,89

1562832227398990;32,89

1562832227649000;32,89

1562832227899010;32,89

1562832228149020;32,89

1562832228399040;32,89

1562832228649050;32,89

1562832228899060;32,87

1562832229149070;32,87

1562832229399080;32,87

1562832229649090;32,87

1562832229899110;32,85

1562832230149120;32,85

1562832230399130;32,85

1562832230649140;32,85

1562832230899150;32,87

1562832231149160;32,87

1562832231399170;32,87

1562832231649190;32,87

1562832231899200;32,87

1562832232149210;32,87

1562832232399220;32,87

1562832232649230;32,87

1562832232899240;32,85

1562832233149260;32,85

1562832233399270;32,85

1562832233649280;32,85

1562832233899290;32,85

1562832234149300;32,85

1562832234399310;32,85

1562832234649330;32,85

1562832234899340;32,85

1562832235149350;32,85

1562832235399360;32,85

1562832235649370;32,85

1562832235899380;32,85

1562832236149390;32,85

1562832236399410;32,85

1562832236649420;32,85

1562832236899430;32,85

1562832237149440;32,85

1562832237399450;32,85

1562832237649460;32,85

1562832237899480;32,87

1562832238149490;32,87

1562832238399500;32,87

1562832238649510;32,87

1562832238899520;32,87

1562832239149530;32,87

1562832239399550;32,87

1562832239649560;32,87

1562832239899570;32,87

1562832240149580;32,87

1562832240399590;32,87

1562832240649600;32,87

1562832240899610;32,87

1562832241149630;32,87

1562832241399640;32,87

1562832241649650;32,87

1562832241899660;32,85

1562832242149670;32,85

1562832242399680;32,85

1562832242649700;32,85

1562832242899710;32,87

1562832243149720;32,87

1562832243399730;32,87

1562832243649740;32,87

1562832243899750;32,87

1562832244149770;32,87

1562832244399780;32,87

1562832244649790;32,87

1562832244899800;32,87

1562832245149810;32,87

1562832245399820;32,87

1562832245649830;32,87

1562832245899850;32,87

1562832246149860;32,87

1562832246399870;32,87

1562832246649880;32,87

1562832246899890;32,87

1562832247149900;32,87

1562832247399920;32,87

1562832247649930;32,87

1562832247899940;32,87

1562832248149950;32,87

1562832248399960;32,87

1562832248649970;32,87

1562832248899990;32,87

1562832249150000;32,87

1562832249400010;32,87

1562832249650020;32,87

1562832249900030;32,89

1562832250150040;32,89

1562832250400050;32,89

1562832250650070;32,89

1562832250900080;32,91

1562832251150090;32,91

1562832251400100;32,91

1562832251650110;32,91

1562832251900120;32,89

1562832252150140;32,89

1562832252400150;32,89

1562832252650160;32,89

1562832252900170;32,89

1562832253150180;32,89

1562832253400190;32,89

1562832253650200;32,89

1562832253900220;32,89

1562832254150230;32,89

1562832254400240;32,89

1562832254650250;32,89

1562832254900260;32,91

1562832255150270;32,91

1562832255400290;32,91

1562832255650300;32,91

1562832255900310;32,87

1562832256150320;32,87

1562832256400330;32,87

1562832256650340;32,87

1562832256900360;32,89

1562832257150370;32,89

1562832257400380;32,89

1562832257650390;32,89

1562832257900400;32,91

1562832258150410;32,91

1562832258400420;32,91

1562832258650440;32,91

1562832258900450;32,89

1562832259150460;32,89

1562832259400470;32,89

1562832259650480;32,89

1562832259900490;32,91

1562832260150510;32,91

1562832260400520;32,91

1562832260650530;32,91

1562832260900540;32,91

1562832261150550;32,91

1562832261400560;32,91

1562832261650580;32,91

1562832261900590;32,89

1562832262150600;32,89

1562832262400610;32,89

1562832262650620;32,89

1562832262900630;32,91

1562832263150640;32,91

1562832263400660;32,91

1562832263650670;32,91

1562832263900680;32,89

1562832264150690;32,89

1562832264400700;32,89

1562832264650710;32,89

1562832264900730;32,89

1562832265150740;32,89

1562832265400750;32,89

1562832265650760;32,89

1562832265900770;32,91

1562832266150780;32,91

1562832266400800;32,91

1562832266650810;32,91

1562832266900820;32,89

1562832267150830;32,89

1562832267400840;32,89

1562832267650850;32,89

1562832267900860;32,89

1562832268150880;32,89

1562832268400890;32,89

1562832268650900;32,89

1562832268900910;32,91

1562832269150920;32,91

1562832269400930;32,91

1562832269650950;32,91

1562832269900960;32,93

1562832270150970;32,93

1562832270400980;32,93

1562832270650990;32,93

1562832270901000;32,91

1562832271151020;32,91

1562832271401030;32,91

1562832271651040;32,91

1562832271901050;32,95

1562832272151060;32,95

1562832272401070;32,95

1562832272651080;32,95

1562832272901100;32,95

1562832273151110;32,95

1562832273401120;32,95

1562832273651130;32,95

1562832273901140;32,95

1562832274151150;32,95

1562832274401170;32,95

1562832274651180;32,95

1562832274901190;32,95

1562832275151200;32,95

1562832275401210;32,95

1562832275651220;32,95

1562832275901240;32,95

1562832276151250;32,95

1562832276401260;32,95

1562832276651270;32,95

1562832276901280;32,91

1562832277151290;32,91

1562832277401300;32,91

1562832277651320;32,91

1562832277901330;32,91

1562832278151340;32,91

1562832278401350;32,91

1562832278651360;32,91

1562832278901370;32,93

1562832279151390;32,93

1562832279401400;32,93

1562832279651410;32,93

1562832279901420;32,95

1562832280151430;32,95

1562832280401440;32,95

1562832280651460;32,95

1562832280901470;32,93

1562832281151480;32,93

1562832281401490;32,93

1562832281651500;32,93

1562832281901510;32,95

1562832282151520;32,95

1562832282401540;32,95

1562832282651550;32,95

1562832282901560;32,91

1562832283151570;32,91

1562832283401580;32,91

1562832283651590;32,91

1562832283901610;32,95

1562832284151620;32,95

1562832284401630;32,95

1562832284651640;32,95

1562832284901650;32,95

1562832285151660;32,95

1562832285401670;32,95

1562832285651690;32,95

1562832285901700;32,95

1562832286151710;32,95

1562832286401720;32,95

1562832286651730;32,95

1562832286901740;32,95

1562832287151760;32,95

1562832287401770;32,95

1562832287651780;32,95

1562832287901790;32,95

1562832288151800;32,95

1562832288401810;32,95

1562832288651830;32,95

1562832288901840;32,97

1562832289151850;32,97

1562832289401860;32,97

1562832289651870;32,97

1562832289901880;32,95

1562832290151890;32,95

1562832290401910;32,95

1562832290651920;32,95

1562832290901930;32,93

1562832291151940;32,93

1562832291401950;32,93

1562832291651960;32,93

1562832291901980;32,95

1562832292151990;32,95

1562832292402000;32,95

1562832292652010;32,95

1562832292902020;32,93

1562832293152030;32,93

1562832293402050;32,93

1562832293652060;32,93

1562832293902070;32,95

1562832294152080;32,95

1562832294402090;32,95

1562832294652100;32,95

1562832294902110;32,95

1562832295152130;32,95

1562832295402140;32,95

1562832295652150;32,95

1562832295902160;32,97

1562832296152170;32,97

1562832296402180;32,97

1562832296652200;32,97

1562832296902210;32,97

1562832297152220;32,97

1562832297402230;32,97

1562832297652240;32,97

1562832297902250;32,97

1562832298152270;32,97

1562832298402280;32,97

1562832298652290;32,97

1562832298902300;32,95

1562832299152310;32,95

1562832299402320;32,95

1562832299652330;32,95

1562832299902350;32,95

1562832300152360;32,95

1562832300402370;32,95

1562832300652380;32,95

1562832300902390;32,97

1562832301152400;32,97

1562832301402420;32,97

1562832301652430;32,97

1562832301902440;32,95

1562832302152450;32,95

1562832302402460;32,95

1562832302652470;32,95

1562832302902490;32,97

1562832303152500;32,97

1562832303402510;32,97

1562832303652520;32,97

1562832303902530;32,97

1562832304152540;32,97

1562832304402550;32,97

1562832304652570;32,97

1562832304902580;32,95

1562832305152590;32,95

1562832305402600;32,95

1562832305652610;32,95

1562832305902620;32,95

1562832306152640;32,95

1562832306402650;32,95

1562832306652660;32,95

1562832306902670;32,95

1562832307152680;32,95

1562832307402690;32,95

1562832307652710;32,95

1562832307902720;32,97

1562832308152730;32,97

1562832308402740;32,97

1562832308652750;32,97

1562832308902760;32,97

1562832309152770;32,97

1562832309402790;32,97

1562832309652800;32,97

1562832309902810;32,97

1562832310152820;32,97

1562832310402830;32,97

1562832310652840;32,97

1562832310902860;32,97

1562832311152870;32,97

1562832311402880;32,97

1562832311652890;32,97

1562832311902900;32,97

1562832312152910;32,97

1562832312402930;32,97

1562832312652940;32,97

1562832312902950;32,97

1562832313152960;32,97

1562832313402970;32,97

1562832313652980;32,97

1562832313902990;32,95

1562832314153010;32,95

1562832314403020;32,95

1562832314653030;32,95

1562832314903040;32,97

1562832315153050;32,97

1562832315403060;32,97

1562832315653080;32,97

1562832315903090;32,99

1562832316153100;32,99

1562832316403110;32,99

1562832316653120;32,99

1562832316903130;32,97

1562832317153150;32,97

1562832317403160;32,97

1562832317653170;32,97

1562832317903180;32,97

1562832318153190;32,97

1562832318403200;32,97

1562832318653210;32,97

1562832318903230;32,97

1562832319153240;32,97

1562832319403250;32,97

1562832319653260;32,97

1562832319903270;32,99

1562832320153280;32,99

1562832320403300;32,99

1562832320653310;32,99

1562832320903320;32,99

1562832321153330;32,99

1562832321403340;32,99

1562832321653350;32,99

1562832321903360;32,97

1562832322153380;32,97

1562832322403390;32,97

1562832322653400;32,97

1562832322903410;32,99

1562832323153420;32,99

1562832323403430;32,99

1562832323653450;32,99

1562832323903460;32,99

1562832324153470;32,99

1562832324403480;32,99

1562832324653490;32,99

1562832324903500;32,97

1562832325153520;32,97

1562832325403530;32,97

1562832325653540;32,97

1562832325903550;32,97

1562832326153560;32,97

1562832326403570;32,97

1562832326653580;32,97

1562832326903600;32,99

1562832327153610;32,99

1562832327403620;32,99

1562832327653630;32,99

1562832327903640;32,99

1562832328153650;32,99

1562832328403670;32,99

1562832328653680;32,99

1562832328903690;32,99

1562832329153700;32,99

1562832329403710;32,99

1562832329653720;32,99

1562832329903740;33,01

1562832330153750;33,01

1562832330403760;33,01

1562832330653770;33,01

1562832330903780;32,99

1562832331153790;32,99

1562832331403800;32,99

1562832331653820;32,99

1562832331903830;33,01

1562832332153840;33,01

1562832332403850;33,01

1562832332653860;33,01

1562832332903870;32,99

1562832333153890;32,99

1562832333403900;32,99

1562832333653910;32,99

1562832333903920;32,99

1562832334153930;32,99

1562832334403940;32,99

1562832334653960;32,99

1562832334903970;32,99

1562832335153980;32,99

1562832335403990;32,99

1562832335654000;32,99

1562832335904010;32,97

1562832336154020;32,97

1562832336404040;32,97

1562832336654050;32,97

1562832336904060;32,99

1562832337154070;32,99

1562832337404080;32,99

1562832337654090;32,99

1562832337904110;32,97

1562832338154120;32,97

1562832338404130;32,97

1562832338654140;32,97

1562832338904150;32,97

1562832339154160;32,97

1562832339404180;32,97

1562832339654190;32,97

1562832339904200;32,99

1562832340154210;32,99

1562832340404220;32,99

1562832340654230;32,99

1562832340904240;32,97

1562832341154260;32,97

1562832341404270;32,97

1562832341654280;32,97

1562832341904290;32,97

1562832342154300;32,97

1562832342404310;32,97

1562832342654330;32,97

1562832342904340;32,95

1562832343154350;32,95

1562832343404360;32,95

1562832343654370;32,95

1562832343904380;32,97

1562832344154400;32,97

1562832344404410;32,97

1562832344654420;32,97

1562832344904430;32,99

1562832345154440;32,99

1562832345404450;32,99

1562832345654460;32,99

1562832345904480;32,99

1562832346154490;32,99

1562832346404500;32,99

1562832346654510;32,99

1562832346904520;32,97

1562832347154530;32,97

1562832347404550;32,97

1562832347654560;32,97

1562832347904570;32,97

1562832348154580;32,97

1562832348404590;32,97

1562832348654600;32,97

1562832348904610;32,99

1562832349154630;32,99

1562832349404640;32,99

1562832349654650;32,99

1562832349904660;33,01

1562832350154670;33,01

1562832350404680;33,01

1562832350654700;33,01

1562832350904710;32,99

1562832351154720;32,99

1562832351404730;32,99

1562832351654740;32,99

1562832351904750;32,99

1562832352154770;32,99

1562832352404780;32,99

1562832352654790;32,99

1562832352904800;32,99

1562832353154810;32,99

1562832353404820;32,99

1562832353654830;32,99

1562832353904850;32,95

1562832354154860;32,95

1562832354404870;32,95

1562832354654880;32,95

1562832354904890;32,99

1562832355154900;32,99

1562832355404920;32,99

1562832355654930;32,99

1562832355904940;32,97

1562832356154950;32,97

1562832356404960;32,97

1562832356654970;32,97

1562832356904990;32,99

1562832357155000;32,99

1562832357405010;32,99

1562832357655020;32,99

1562832357905030;32,99

1562832358155040;32,99

1562832358405050;32,99

1562832358655070;32,99

1562832358905080;32,99

1562832359155090;32,99

1562832359405100;32,99

1562832359655110;32,99

1562832359905120;32,99

1562832360155140;32,99

1562832360405150;32,99

1562832360655160;32,99

1562832360905170;32,97

1562832361155180;32,97

1562832361405190;32,97

1562832361655210;32,97

1562832361905220;32,97

1562832362155230;32,97

1562832362405240;32,97

1562832362655250;32,97

1562832362905260;32,99

1562832363155270;32,99

1562832363405290;32,99

1562832363655300;32,99

1562832363905310;32,99

1562832364155320;32,99

1562832364405330;32,99

1562832364655340;32,99

1562832364905360;32,97

1562832365155370;32,97

1562832365405380;32,97

1562832365655390;32,97

1562832365905400;32,99

1562832366155410;32,99

1562832366405430;32,99

1562832366655440;32,99

1562832366905450;32,99

1562832367155460;32,99

1562832367405470;32,99

1562832367655480;32,99

1562832367905490;32,97

1562832368155510;32,97

1562832368405520;32,97

1562832368655530;32,97

1562832368905540;32,99

1562832369155550;32,99

1562832369405560;32,99

1562832369655580;32,99

1562832369905590;33,01

1562832370155600;33,01

1562832370405610;33,01

1562832370655620;33,01

1562832370905630;32,99

1562832371155650;32,99

1562832371405660;32,99

1562832371655670;32,99

1562832371905680;32,99

1562832372155690;32,99

1562832372405700;32,99

1562832372655710;32,99

1562832372905730;33,01

1562832373155740;33,01

1562832373405750;33,01

1562832373655760;33,01

1562832373905770;32,99

1562832374155780;32,99

1562832374405800;32,99

1562832374655810;32,99

1562832374905820;32,97

1562832375155830;32,97

1562832375405840;32,97

1562832375655850;32,97

1562832375905860;32,99

1562832376155880;32,99

1562832376405890;32,99

1562832376655900;32,99

1562832376905910;32,99

1562832377155920;32,99

1562832377405930;32,99

1562832377655950;32,99

1562832377905960;32,97

1562832378155970;32,97

1562832378405980;32,97

1562832378655990;32,97

1562832378906000;32,99

1562832379156020;32,99

1562832379406030;32,99

1562832379656040;32,99

1562832379906050;32,97

1562832380156060;32,97

1562832380406070;32,97

1562832380656090;32,97

1562832380906100;32,97

1562832381156110;32,97

1562832381406120;32,97

1562832381656130;32,97

1562832381906140;32,99

1562832382156150;32,99

1562832382406170;32,99

1562832382656180;32,99

1562832382906190;32,99

1562832383156200;32,99

1562832383406210;32,99

1562832383656220;32,99

1562832383906240;32,99

1562832384156250;32,99

1562832384406260;32,99

1562832384656270;32,99

1562832384906280;33,01

1562832385156290;33,01

1562832385406300;33,01

1562832385656320;33,01

1562832385906330;32,97

1562832386156340;32,97

1562832386406350;32,97

1562832386656360;32,97

1562832386906370;32,99

1562832387156390;32,99

1562832387406400;32,99

1562832387656410;32,99

1562832387906420;32,99

1562832388156430;32,99

1562832388406440;32,99

1562832388656460;32,99

1562832388906470;32,97

1562832389156480;32,97

1562832389406490;32,97

1562832389656500;32,97

1562832389906510;32,99

1562832390156520;32,99

1562832390406540;32,99

1562832390656550;32,99

1562832390906560;32,97

1562832391156570;32,97

1562832391406580;32,97

1562832391656590;32,97

1562832391906610;32,97

1562832392156620;32,97

1562832392406630;32,97

1562832392656640;32,97

1562832392906650;33,01

1562832393156660;33,01

1562832393406680;33,01

1562832393656690;33,01

1562832393906700;32,99

1562832394156710;32,99

1562832394406720;32,99

1562832394656730;32,99

1562832394906740;32,99

1562832395156760;32,99

1562832395406770;32,99

1562832395656780;32,99

1562832395906790;32,97

1562832396156800;32,97

1562832396406810;32,97

1562832396656830;32,97

1562832396906840;32,99

1562832397156850;32,99

1562832397406860;32,99

1562832397656870;32,99

1562832397906880;32,99

1562832398156900;32,99

1562832398406910;32,99

1562832398656920;32,99

1562832398906930;32,99

1562832399156940;32,99

1562832399406950;32,99

1562832399656960;32,99

1562832399906980;32,97

1562832400156990;32,97

1562832400407000;32,97

1562832400657010;32,97

1562832400907020;32,97

1562832401157030;32,97

1562832401407050;32,97

1562832401657060;32,97

1562832401907070;32,99

1562832402157080;32,99

1562832402407090;32,99

1562832402657100;32,99

1562832402907120;32,97

1562832403157130;32,97

1562832403407140;32,97

1562832403657150;32,97

1562832403907160;33,01

1562832404157170;33,01

1562832404407180;33,01

1562832404657200;33,01

1562832404907210;32,99

1562832405157220;32,99

1562832405407230;32,99

1562832405657240;32,99

1562832405907250;32,99

1562832406157270;32,99

1562832406407280;32,99

1562832406657290;32,99

1562832406907300;32,99

1562832407157310;32,99

1562832407407320;32,99

1562832407657340;32,99

1562832407907350;32,97

1562832408157360;32,97

1562832408407370;32,97

1562832408657380;32,97

1562832408907390;32,97

1562832409157400;32,97

1562832409407420;32,97

1562832409657430;32,97

1562832409907440;32,97

1562832410157450;32,97

1562832410407460;32,97

1562832410657470;32,97

1562832410907490;32,99

1562832411157500;32,99

1562832411407510;32,99

1562832411657520;32,99

1562832411907530;32,99

1562832412157540;32,99

1562832412407550;32,99

1562832412657570;32,99

1562832412907580;32,97

1562832413157590;32,97

1562832413407600;32,97

1562832413657610;32,97

1562832413907620;32,95

1562832414157640;32,95

1562832414407650;32,95

1562832414657660;32,95

1562832414907670;32,99

1562832415157680;32,99

1562832415407690;32,99

1562832415657710;32,99

1562832415907720;32,99

1562832416157730;32,99

1562832416407740;32,99

1562832416657750;32,99

1562832416907760;32,97

1562832417157770;32,97

1562832417407790;32,97

1562832417657800;32,97

1562832417907810;32,99

1562832418157820;32,99

1562832418407830;32,99

1562832418657840;32,99

1562832418907860;32,99

1562832419157870;32,99

1562832419407880;32,99

1562832419657890;32,99

1562832419907900;32,97

1562832420157910;32,97

1562832420407930;32,97

1562832420657940;32,97

1562832420907950;32,95

1562832421157960;32,95

1562832421407970;32,95

1562832421657980;32,95

1562832421907990;32,97

1562832422158010;32,97

1562832422408020;32,97

1562832422658030;32,97

1562832422908040;32,99

1562832423158050;32,99

1562832423408060;32,99

1562832423658080;32,99

1562832423908090;32,99

1562832424158100;32,99

1562832424408110;32,99

1562832424658120;32,99

1562832424908130;32,99

1562832425158150;32,99

1562832425408160;32,99

1562832425658170;32,99

1562832425908180;32,97

1562832426158190;32,97

1562832426408200;32,97

1562832426658210;32,97

1562832426908230;32,97

1562832427158240;32,97

1562832427408250;32,97

1562832427658260;32,97

1562832427908270;32,97

1562832428158280;32,97

1562832428408300;32,97

1562832428658310;32,97

1562832428908320;32,99

1562832429158330;32,99

1562832429408340;32,99

1562832429658350;32,99

1562832429908370;32,99

1562832430158380;32,99

1562832430408390;32,99

1562832430658400;32,99

1562832430908410;32,97

1562832431158420;32,97

1562832431408430;32,97

1562832431658450;32,97

1562832431908460;32,97

1562832432158470;32,97

1562832432408480;32,97

1562832432658490;32,97

1562832432908500;32,97

1562832433158520;32,97

1562832433408530;32,97

1562832433658540;32,97

1562832433908550;32,97

1562832434158560;32,97

1562832434408570;32,97

1562832434658590;32,97

1562832434908600;32,97

1562832435158610;32,97

1562832435408620;32,97

1562832435658630;32,97

1562832435908640;32,99

1562832436158650;32,99

1562832436408670;32,99

1562832436658680;32,99

1562832436908690;32,97

1562832437158700;32,97

1562832437408710;32,97

1562832437658720;32,97

1562832437908740;32,97

1562832438158750;32,97

1562832438408760;32,97

1562832438658770;32,97

1562832438908780;32,99

1562832439158790;32,99

1562832439408810;32,99

1562832439658820;32,99

1562832439908830;32,97

1562832440158840;32,97

1562832440408850;32,97

1562832440658860;32,97

1562832440908870;32,95

1562832441158890;32,95

1562832441408900;32,95

1562832441658910;32,95

1562832441908920;32,97

1562832442158930;32,97

1562832442408940;32,97

1562832442658960;32,97

1562832442908970;32,99

1562832443158980;32,99

1562832443408990;32,99

1562832443659000;32,99

1562832443909010;33,01

1562832444159020;33,01

1562832444409040;33,01

1562832444659050;33,01

1562832444909060;32,97

1562832445159070;32,97

1562832445409080;32,97

1562832445659090;32,97

1562832445909110;32,97

1562832446159120;32,97

1562832446409130;32,97

1562832446659140;32,97

1562832446909150;32,97

1562832447159160;32,97

1562832447409180;32,97

1562832447659190;32,97

1562832447909200;32,97

1562832448159210;32,97

1562832448409220;32,97

1562832448659230;32,97

1562832448909240;32,97

1562832449159260;32,97

1562832449409270;32,97

1562832449659280;32,97

1562832449909290;32,97

1562832450159300;32,97

1562832450409310;32,97

1562832450659330;32,97

1562832450909340;32,99

1562832451159350;32,99

1562832451409360;32,99

1562832451659370;32,99

1562832451909380;32,99

1562832452159400;32,99

1562832452409410;32,99

1562832452659420;32,99

1562832452909430;32,97

1562832453159440;32,97

1562832453409450;32,97

1562832453659460;32,97

1562832453909480;32,99

1562832454159490;32,99

1562832454409500;32,99

1562832454659510;32,99

1562832454909520;32,95

1562832455159530;32,95

1562832455409550;32,95

1562832455659560;32,95

1562832455909570;32,99

1562832456159580;32,99

1562832456409590;32,99

1562832456659600;32,99

1562832456909620;32,95

1562832457159630;32,95

1562832457409640;32,95

1562832457659650;32,95

1562832457909660;32,99

1562832458159670;32,99

1562832458409680;32,99

1562832458659700;32,99

1562832458909710;32,99

1562832459159720;32,99

1562832459409730;32,99

1562832459659740;32,99

1562832459909750;32,99

1562832460159770;32,99

1562832460409780;32,99

1562832460659790;32,99

1562832460909800;32,99

1562832461159810;32,99

1562832461409820;32,99

1562832461659840;32,99

1562832461909850;32,99

1562832462159860;32,99

1562832462409870;32,99

1562832462659880;32,99

1562832462909890;32,99

1562832463159900;32,99

1562832463409920;32,99

1562832463659930;32,99

1562832463909940;32,99

1562832464159950;32,99

1562832464409960;32,99

1562832464659970;32,99

1562832464909990;32,97

1562832465160000;32,97

1562832465410010;32,97

1562832465660020;32,97

1562832465910030;33,01

1562832466160040;33,01

1562832466410060;33,01

1562832466660070;33,01

1562832466910080;32,99

1562832467160090;32,99

1562832467410100;32,99

1562832467660110;32,99

1562832467910120;32,99

1562832468160140;32,99

1562832468410150;32,99

1562832468660160;32,99

1562832468910170;32,95

1562832469160180;32,95

1562832469410190;32,95

1562832469660210;32,95

1562832469910220;32,97

1562832470160230;32,97

1562832470410240;32,97

1562832470660250;32,97

1562832470910260;32,99

1562832471160270;32,99

1562832471410290;32,99

1562832471660300;32,99

1562832471910310;32,99

1562832472160320;32,99

1562832472410330;32,99

1562832472660340;32,99

1562832472910360;32,97

1562832473160370;32,97

1562832473410380;32,97

1562832473660390;32,97

1562832473910400;32,95

1562832474160410;32,95

1562832474410430;32,95

1562832474660440;32,95

1562832474910450;32,99

1562832475160460;32,99

1562832475410470;32,99

1562832475660480;32,99

1562832475910500;32,97

1562832476160510;32,97

1562832476410520;32,97

1562832476660530;32,97

1562832476910540;32,97

1562832477160550;32,97

1562832477410560;32,97

1562832477660580;32,97

1562832477910590;32,97

1562832478160600;32,97

1562832478410610;32,97

1562832478660620;32,97

1562832478910630;32,99

1562832479160650;32,99

1562832479410660;32,99

1562832479660670;32,99

1562832479910680;32,97

1562832480160690;32,97

1562832480410700;32,97

1562832480660710;32,97

1562832480910730;32,97

1562832481160740;32,97

1562832481410750;32,97

1562832481660760;32,97

1562832481910770;32,99

1562832482160780;32,99

1562832482410800;32,99

1562832482660810;32,99

1562832482910820;32,97

1562832483160830;32,97

1562832483410840;32,97

1562832483660850;32,97

1562832483910870;32,97

1562832484160880;32,97

1562832484410890;32,97

1562832484660900;32,97

1562832484910910;32,99

1562832485160920;32,99

1562832485410930;32,99

1562832485660950;32,99

1562832485910960;32,99

1562832486160970;32,99

1562832486410980;32,99

1562832486660990;32,99

1562832486911000;32,95

1562832487161020;32,95

1562832487411030;32,95

1562832487661040;32,95

1562832487911050;32,99

1562832488161060;32,99

1562832488411070;32,99

1562832488661090;32,99

1562832488911100;32,99

1562832489161110;32,99

1562832489411120;32,99

1562832489661130;32,99

1562832489911140;32,99

1562832490161150;32,99

1562832490411170;32,99

1562832490661180;32,99

1562832490911190;32,99

1562832491161200;32,99

1562832491411210;32,99

1562832491661220;32,99

1562832491911240;32,99

1562832492161250;32,99

1562832492411260;32,99

1562832492661270;32,99

1562832492911280;32,99

1562832493161290;32,99

1562832493411310;32,99

1562832493661320;32,99

1562832493911330;32,97

1562832494161340;32,97

1562832494411350;32,97

1562832494661360;32,97

1562832494911370;32,99

1562832495161390;32,99

1562832495411400;32,99

1562832495661410;32,99

1562832495911420;32,99

1562832496161430;32,99

1562832496411440;32,99

1562832496661460;32,99

1562832496911470;32,99

1562832497161480;32,99

1562832497411490;32,99

1562832497661500;32,99

1562832497911510;32,97

1562832498161530;32,97

1562832498411540;32,97

1562832498661550;32,97

1562832498911560;33,01

1562832499161570;33,01

1562832499411580;33,01

1562832499661590;33,01

1562832499911610;32,99

1562832500161620;32,99

1562832500411630;32,99

1562832500661640;32,99

1562832500911650;32,99

1562832501161660;32,99

1562832501411680;32,99

1562832501661690;32,99

1562832501911700;33,01

1562832502161710;33,01

1562832502411720;33,01

1562832502661730;33,01

1562832502911750;32,99

1562832503161760;32,99

1562832503411770;32,99

1562832503661780;32,99

1562832503911790;33,01

1562832504161800;33,01

1562832504411810;33,01

1562832504661830;33,01

1562832504911840;32,97

1562832505161850;32,97

1562832505411860;32,97

1562832505661870;32,97

1562832505911880;32,99

1562832506161900;32,99

1562832506411910;32,99

1562832506661920;32,99

1562832506911930;33,01

1562832507161940;33,01

1562832507411950;33,01

1562832507661960;33,01

1562832507911980;32,99

1562832508161990;32,99

1562832508412000;32,99

1562832508662010;32,99

1562832508912020;33,01

1562832509162030;33,01

1562832509412050;33,01

1562832509662060;33,01

1562832509912070;32,99

1562832510162080;32,99

1562832510412090;32,99

1562832510662100;32,99

1562832510912120;33,01

1562832511162130;33,01

1562832511412140;33,01

1562832511662150;33,01

1562832511912160;32,97

1562832512162170;32,97

1562832512412180;32,97

1562832512662200;32,97

1562832512912210;32,97

1562832513162220;32,97

1562832513412230;32,97

1562832513662240;32,97

1562832513912250;32,97

1562832514162270;32,97

1562832514412280;32,97

1562832514662290;32,97

1562832514912300;32,97

1562832515162310;32,97

1562832515412320;32,97

1562832515662340;32,97

1562832515912350;32,97

1562832516162360;32,97

1562832516412370;32,97

1562832516662380;32,97

1562832516912390;32,97

1562832517162400;32,97

1562832517412420;32,97

1562832517662430;32,97

1562832517912440;32,95

1562832518162450;32,95

1562832518412460;32,95

1562832518662470;32,95

1562832518912490;32,95

1562832519162500;32,95

1562832519412510;32,95

1562832519662520;32,95

1562832519912530;32,97

1562832520162540;32,97

1562832520412560;32,97

1562832520662570;32,97

1562832520912580;32,99

1562832521162590;32,99

1562832521412600;32,99

1562832521662610;32,99

1562832521912620;32,99

1562832522162640;32,99

1562832522412650;32,99

1562832522662660;32,99

1562832522912670;32,99

1562832523162680;32,99

1562832523412690;32,99

1562832523662710;32,99

1562832523912720;32,97

1562832524162730;32,97

1562832524412740;32,97

1562832524662750;32,97

1562832524912760;32,99

1562832525162780;32,99

1562832525412790;32,99

1562832525662800;32,99

1562832525912810;32,97

1562832526162820;32,97

1562832526412830;32,97

1562832526662840;32,97

1562832526912860;32,99

1562832527162870;32,99

1562832527412880;32,99

1562832527662890;32,99

1562832527912900;32,97

1562832528162910;32,97

1562832528412930;32,97

1562832528662940;32,97

1562832528912950;32,95

1562832529162960;32,95

1562832529412970;32,95

1562832529662980;32,95

1562832529913000;32,97

1562832530163010;32,97

1562832530413020;32,97

1562832530663030;32,97

1562832530913040;32,97

1562832531163050;32,97

1562832531413060;32,97

1562832531663080;32,97

1562832531913090;32,97

1562832532163100;32,97

1562832532413110;32,97

1562832532663120;32,97

1562832532913130;32,97

1562832533163150;32,97

1562832533413160;32,97

1562832533663170;32,97

1562832533913180;32,97

1562832534163190;32,97

1562832534413200;32,97

1562832534663210;32,97

1562832534913230;32,97

1562832535163240;32,97

1562832535413250;32,97

1562832535663260;32,97

1562832535913270;32,93

1562832536163280;32,93

1562832536413300;32,93

1562832536663310;32,93

1562832536913320;32,97

1562832537163330;32,97

1562832537413340;32,97

1562832537663350;32,97

1562832537913370;32,97

1562832538163380;32,97

1562832538413390;32,97

1562832538663400;32,97

1562832538913410;32,99

1562832539163420;32,99

1562832539413430;32,99

1562832539663450;32,99

1562832539913460;32,97

1562832540163470;32,97

1562832540413480;32,97

1562832540663490;32,97

1562832540913500;32,97

1562832541163520;32,97

1562832541413530;32,97

1562832541663540;32,97

1562832541913550;32,97

1562832542163560;32,97

1562832542413570;32,97

1562832542663590;32,97

1562832542913600;32,97

1562832543163610;32,97

1562832543413620;32,97

1562832543663630;32,97

1562832543913640;32,97

1562832544163650;32,97

1562832544413670;32,97

1562832544663680;32,97

1562832544913690;32,97

1562832545163700;32,97

1562832545413710;32,97

1562832545663720;32,97

1562832545913740;32,97

1562832546163750;32,97

1562832546413760;32,97

1562832546663770;32,97

1562832546913780;32,97

1562832547163790;32,97

1562832547413810;32,97

1562832547663820;32,97

1562832547913830;32,95

1562832548163840;32,95

1562832548413850;32,95

1562832548663860;32,95

1562832548913870;32,97

1562832549163890;32,97

1562832549413900;32,97

1562832549663910;32,97

1562832549913920;32,97

1562832550163930;32,97

1562832550413940;32,97

1562832550663960;32,97

1562832550913970;32,97

1562832551163980;32,97

1562832551413990;32,97

1562832551664000;32,97

1562832551914010;32,99

1562832552164030;32,99

1562832552414040;32,99

1562832552664050;32,99

1562832552914060;32,97

1562832553164070;32,97

1562832553414080;32,97

1562832553664090;32,97

1562832553914110;32,95

1562832554164120;32,95

1562832554414130;32,95

1562832554664140;32,95

1562832554914150;32,97

1562832555164160;32,97

1562832555414180;32,97

1562832555664190;32,97

1562832555914200;32,95

1562832556164210;32,95

1562832556414220;32,95

1562832556664230;32,95

1562832556914250;32,95

1562832557164260;32,95

1562832557414270;32,95

1562832557664280;32,95

1562832557914290;32,97

1562832558164300;32,97

1562832558414310;32,97

1562832558664330;32,97

1562832558914340;32,95

1562832559164350;32,95

1562832559414360;32,95

1562832559664370;32,95

1562832559914380;32,97

1562832560164400;32,97

1562832560414410;32,97

1562832560664420;32,97

1562832560914430;32,95

1562832561164440;32,95

1562832561414450;32,95

1562832561664470;32,95

1562832561914480;32,95

1562832562164490;32,95

1562832562414500;32,95

1562832562664510;32,95

1562832562914520;32,95

1562832563164530;32,95

1562832563414550;32,95

1562832563664560;32,95

1562832563914570;32,93

1562832564164580;32,93

1562832564414590;32,93

1562832564664600;32,93

1562832564914620;32,95

1562832565164630;32,95

1562832565414640;32,95

1562832565664650;32,95

1562832565914660;32,95

1562832566164670;32,95

1562832566414690;32,95

1562832566664700;32,95

1562832566914710;32,95

1562832567164720;32,95

1562832567414730;32,95

1562832567664740;32,95

1562832567914750;32,95

1562832568164770;32,95

1562832568414780;32,95

1562832568664790;32,95

1562832568914800;32,95

1562832569164810;32,95

1562832569414820;32,95

1562832569664840;32,95

1562832569914850;32,97

1562832570164860;32,97

1562832570414870;32,97

1562832570664880;32,97

1562832570914890;32,93

1562832571164900;32,93

1562832571414920;32,93

1562832571664930;32,93

1562832571914940;32,95

1562832572164950;32,95

1562832572414960;32,95

1562832572664970;32,95

1562832572914990;32,95

1562832573165000;32,95

1562832573415010;32,95

1562832573665020;32,95

1562832573915030;32,93

1562832574165040;32,93

1562832574415060;32,93

1562832574665070;32,93

1562832574915080;32,93

1562832575165090;32,93

1562832575415100;32,93

1562832575665110;32,93

1562832575915120;32,93

1562832576165140;32,93

1562832576415150;32,93

1562832576665160;32,93

1562832576915170;32,95

1562832577165180;32,95

1562832577415190;32,95

1562832577665210;32,95

1562832577915220;32,95

1562832578165230;32,95

1562832578415240;32,95

1562832578665250;32,95

1562832578915260;32,95

1562832579165280;32,95

1562832579415290;32,95

1562832579665300;32,95

1562832579915310;32,93

1562832580165320;32,93

1562832580415330;32,93

1562832580665340;32,93

1562832580915360;32,91

1562832581165370;32,91

1562832581415380;32,91

1562832581665390;32,91

1562832581915400;32,91

1562832582165410;32,91

1562832582415430;32,91

1562832582665440;32,91

1562832582915450;32,93

1562832583165460;32,93

1562832583415470;32,93

1562832583665480;32,93

1562832583915500;32,95

1562832584165510;32,95

1562832584415520;32,95

1562832584665530;32,95

1562832584915540;32,95

1562832585165550;32,95

1562832585415560;32,95

1562832585665580;32,95

1562832585915590;32,93

1562832586165600;32,93

1562832586415610;32,93

1562832586665620;32,93

1562832586915630;32,95

1562832587165650;32,95

1562832587415660;32,95

1562832587665670;32,95

1562832587915680;32,93

1562832588165690;32,93

1562832588415700;32,93

1562832588665720;32,93

1562832588915730;32,91

1562832589165740;32,91

1562832589415750;32,91

1562832589665760;32,91

1562832589915770;32,91

1562832590165780;32,91

1562832590415800;32,91

1562832590665810;32,91

1562832590915820;32,93

1562832591165830;32,93

1562832591415840;32,93

1562832591665850;32,93

1562832591915870;32,93

1562832592165880;32,93

1562832592415890;32,93

1562832592665900;32,93

1562832592915910;32,95

1562832593165920;32,95

1562832593415940;32,95

1562832593665950;32,95

1562832593915960;32,93

1562832594165970;32,93

1562832594415980;32,93

1562832594665990;32,93

1562832594916000;32,95

1562832595166020;32,95

1562832595416030;32,95

1562832595666040;32,95

1562832595916050;32,93

1562832596166060;32,93

1562832596416070;32,93

1562832596666090;32,93

1562832596916100;32,93

1562832597166110;32,93

1562832597416120;32,93

1562832597666130;32,93

1562832597916140;32,93

1562832598166160;32,93

1562832598416170;32,93

1562832598666180;32,93

1562832598916190;32,93

1562832599166200;32,93

1562832599416210;32,93

1562832599666220;32,93

1562832599916240;32,91

1562832600166250;32,91

1562832600416260;32,91

1562832600666270;32,91

1562832600916280;32,91

1562832601166290;32,91

1562832601416310;32,91

1562832601666320;32,91

1562832601916330;32,91

1562832602166340;32,91

1562832602416350;32,91

1562832602666360;32,91

1562832602916370;32,91

1562832603166390;32,91

1562832603416400;32,91

1562832603666410;32,91

1562832603916420;32,91

1562832604166430;32,91

1562832604416440;32,91

1562832604666460;32,91

1562832604916470;32,91

1562832605166480;32,91

1562832605416490;32,91

1562832605666500;32,91

1562832605916510;32,91

1562832606166530;32,91

1562832606416540;32,91

1562832606666550;32,91

1562832606916560;32,93

1562832607166570;32,93

1562832607416580;32,93

1562832607666590;32,93

1562832607916610;32,93

1562832608166620;32,93

1562832608416630;32,93

1562832608666640;32,93

1562832608916650;32,91

1562832609166660;32,91

1562832609416680;32,91

1562832609666690;32,91

1562832609916700;32,91

1562832610166710;32,91

1562832610416720;32,91

1562832610666730;32,91

1562832610916750;32,91

1562832611166760;32,91

1562832611416770;32,91

1562832611666780;32,91

1562832611916790;32,89

1562832612166800;32,89

1562832612416810;32,89

1562832612666830;32,89

1562832612916840;32,89

1562832613166850;32,89

1562832613416860;32,89

1562832613666870;32,89

1562832613916880;32,91

1562832614166900;32,91

1562832614416910;32,91

1562832614666920;32,91

1562832614916930;32,89

1562832615166940;32,89

1562832615416950;32,89

1562832615666970;32,89

1562832615916980;32,89

1562832616166990;32,89

1562832616417000;32,89

1562832616667010;32,89

1562832616917020;32,89

1562832617167030;32,89

1562832617417050;32,89

1562832617667060;32,89

1562832617917070;32,89

1562832618167080;32,89

1562832618417090;32,89

1562832618667100;32,89

1562832618917120;32,89

1562832619167130;32,89

1562832619417140;32,89

1562832619667150;32,89

1562832619917160;32,89

1562832620167170;32,89

1562832620417190;32,89

1562832620667200;32,89

1562832620917210;32,89

1562832621167220;32,89

1562832621417230;32,89

1562832621667240;32,89

1562832621917250;32,87

1562832622167270;32,87

1562832622417280;32,87

1562832622667290;32,87

1562832622917300;32,89

1562832623167310;32,89

1562832623417320;32,89

1562832623667340;32,89

1562832623917350;32,89

1562832624167360;32,89

1562832624417370;32,89

1562832624667380;32,89

1562832624917390;32,87

1562832625167410;32,87

1562832625417420;32,87

1562832625667430;32,87

1562832625917440;32,89

1562832626167450;32,89

1562832626417460;32,89

1562832626667470;32,89

1562832626917490;32,87

1562832627167500;32,87

1562832627417510;32,87

1562832627667520;32,87

1562832627917530;32,91

1562832628167540;32,91

1562832628417560;32,91

1562832628667570;32,91

1562832628917580;32,89

1562832629167590;32,89

1562832629417600;32,89

1562832629667610;32,89

1562832629917620;32,89

1562832630167640;32,89

1562832630417650;32,89

1562832630667660;32,89

1562832630917670;32,89

1562832631167680;32,89

1562832631417690;32,89

1562832631667710;32,89

1562832631917720;32,91

1562832632167730;32,91

1562832632417740;32,91

1562832632667750;32,91

1562832632917760;32,85

1562832633167780;32,85

1562832633417790;32,85

1562832633667800;32,85

1562832633917810;32,87

1562832634167820;32,87

1562832634417830;32,87

1562832634667850;32,87

1562832634917860;32,89

1562832635167870;32,89

1562832635417880;32,89

1562832635667890;32,89

1562832635917900;32,87

1562832636167910;32,87

1562832636417930;32,87

1562832636667940;32,87

1562832636917950;32,89

1562832637167960;32,89

1562832637417970;32,89

1562832637667980;32,89

1562832637918000;32,87

1562832638168010;32,87

1562832638418020;32,87

1562832638668030;32,87

1562832638918040;32,87

1562832639168050;32,87

1562832639418060;32,87

1562832639668080;32,87

1562832639918090;32,87

1562832640168100;32,87

1562832640418110;32,87

1562832640668120;32,87

1562832640918130;32,87

1562832641168150;32,87

1562832641418160;32,87

1562832641668170;32,87

1562832641918180;32,89

1562832642168190;32,89

1562832642418200;32,89

1562832642668220;32,89

1562832642918230;32,87

1562832643168240;32,87

1562832643418250;32,87

1562832643668260;32,87

1562832643918270;32,89

1562832644168280;32,89

1562832644418300;32,89

1562832644668310;32,89

1562832644918320;32,87

1562832645168330;32,87

1562832645418340;32,87

1562832645668350;32,87

1562832645918370;32,87

1562832646168380;32,87

1562832646418390;32,87

1562832646668400;32,87

1562832646918410;32,85

1562832647168420;32,85

1562832647418440;32,85

1562832647668450;32,85

1562832647918460;32,87

1562832648168470;32,87

1562832648418480;32,87

1562832648668490;32,87

1562832648918500;32,85

1562832649168520;32,85

1562832649418530;32,85

1562832649668540;32,85

1562832649918550;32,85

1562832650168560;32,85

1562832650418570;32,85

1562832650668590;32,85

1562832650918600;32,87

1562832651168610;32,87

1562832651418620;32,87

1562832651668630;32,87

1562832651918640;32,85

1562832652168660;32,85

1562832652418670;32,85

1562832652668680;32,85

1562832652918690;32,87

1562832653168700;32,87

1562832653418710;32,87

1562832653668720;32,87

1562832653918740;32,87

1562832654168750;32,87

1562832654418760;32,87

1562832654668770;32,87

1562832654918780;32,87

1562832655168790;32,87

1562832655418810;32,87

1562832655668820;32,87

1562832655918830;32,83

1562832656168840;32,83

1562832656418850;32,83

1562832656668860;32,83

1562832656918870;32,87

1562832657168890;32,87

1562832657418900;32,87

1562832657668910;32,87

1562832657918920;32,85

1562832658168930;32,85

1562832658418940;32,85

1562832658668960;32,85

1562832658918970;32,85

1562832659168980;32,85

1562832659418990;32,85

1562832659669000;32,85

1562832659919010;32,83

1562832660169030;32,83

1562832660419040;32,83

1562832660669050;32,83

1562832660919060;32,81

1562832661169070;32,81

1562832661419080;32,81

1562832661669100;32,81

1562832661919110;32,83

1562832662169120;32,83

1562832662419130;32,83

1562832662669140;32,83

1562832662919150;32,83

1562832663169160;32,83

1562832663419180;32,83

1562832663669190;32,83

1562832663919200;32,85

1562832664169210;32,85

1562832664419220;32,85

1562832664669230;32,85

1562832664919250;32,87

1562832665169260;32,87

1562832665419270;32,87

1562832665669280;32,87

1562832665919290;32,85

1562832666169300;32,85

1562832666419310;32,85

1562832666669330;32,85

1562832666919340;32,83

1562832667169350;32,83

1562832667419360;32,83

1562832667669370;32,83

1562832667919380;32,83

1562832668169400;32,83

1562832668419410;32,83

1562832668669420;32,83

1562832668919430;32,83

1562832669169440;32,83

1562832669419450;32,83

1562832669669470;32,83

1562832669919480;32,83

1562832670169490;32,83

1562832670419500;32,83

1562832670669510;32,83

1562832670919520;32,83

1562832671169530;32,83

1562832671419550;32,83

1562832671669560;32,83

1562832671919570;32,85

1562832672169580;32,85

1562832672419590;32,85

1562832672669600;32,85

1562832672919620;32,83

1562832673169630;32,83

1562832673419640;32,83

1562832673669650;32,83

1562832673919660;32,83

1562832674169670;32,83

1562832674419690;32,83

1562832674669700;32,83

1562832674919710;32,81

1562832675169720;32,81

1562832675419730;32,81

1562832675669740;32,81

1562832675919750;32,83

1562832676169770;32,83

1562832676419780;32,83

1562832676669790;32,83

1562832676919800;32,83

1562832677169810;32,83

1562832677419820;32,83

1562832677669840;32,83

1562832677919850;32,79

1562832678169860;32,79

1562832678419870;32,79

1562832678669880;32,79

1562832678919890;32,81

1562832679169910;32,81

1562832679419920;32,81

1562832679669930;32,81

1562832679919940;32,79

1562832680169950;32,79

1562832680419960;32,79

1562832680669970;32,79

1562832680919990;32,83

1562832681170000;32,83

1562832681420010;32,83

1562832681670020;32,83

1562832681920030;32,81

1562832682170040;32,81

1562832682420060;32,81

1562832682670070;32,81

1562832682920080;32,77

1562832683170090;32,77

1562832683420100;32,77

1562832683670110;32,77

1562832683920130;32,79

1562832684170140;32,79

1562832684420150;32,79

1562832684670160;32,79

1562832684920170;32,79

1562832685170180;32,79

1562832685420190;32,79

1562832685670210;32,79

1562832685920220;32,79

1562832686170230;32,79

1562832686420240;32,79

1562832686670250;32,79

1562832686920260;32,79

1562832687170280;32,79

1562832687420290;32,79

1562832687670300;32,79

1562832687920310;32,79

1562832688170320;32,79

1562832688420330;32,79

1562832688670350;32,79

1562832688920360;32,79

1562832689170370;32,79

1562832689420380;32,79

1562832689670390;32,79

1562832689920400;32,77

1562832690170410;32,77

1562832690420430;32,77

1562832690670440;32,77

1562832690920450;32,77

1562832691170460;32,77

1562832691420470;32,77

1562832691670480;32,77

1562832691920500;32,77

1562832692170510;32,77

1562832692420520;32,77

1562832692670530;32,77

1562832692920540;32,75

1562832693170550;32,75

1562832693420560;32,75

1562832693670580;32,75

1562832693920590;32,77

1562832694170600;32,77

1562832694420610;32,77

1562832694670620;32,77

1562832694920630;32,79

1562832695170650;32,79

1562832695420660;32,79

1562832695670670;32,79

1562832695920680;32,75

1562832696170690;32,75

1562832696420700;32,75

1562832696670720;32,75

1562832696920730;32,75

1562832697170740;32,75

1562832697420750;32,75

1562832697670760;32,75

1562832697920770;32,79

1562832698170780;32,79

1562832698420800;32,79

1562832698670810;32,79

1562832698920820;32,77

1562832699170830;32,77

1562832699420840;32,77

1562832699670850;32,77

1562832699920870;32,75

1562832700170880;32,75

1562832700420890;32,75

1562832700670900;32,75

1562832700920910;32,75

1562832701170920;32,75

1562832701420940;32,75

1562832701670950;32,75

1562832701920960;32,75

1562832702170970;32,75

1562832702420980;32,75

1562832702670990;32,75

1562832702921000;32,75

1562832703171020;32,75

1562832703421030;32,75

1562832703671040;32,75

1562832703921050;32,75

1562832704171060;32,75

1562832704421070;32,75

1562832704671090;32,75

1562832704921100;32,75

1562832705171110;32,75

1562832705421120;32,75

1562832705671130;32,75

1562832705921140;32,75

1562832706171160;32,75

1562832706421170;32,75

1562832706671180;32,75

1562832706921190;32,75

1562832707171200;32,75

1562832707421210;32,75

1562832707671220;32,75

1562832707921240;32,75

1562832708171250;32,75

1562832708421260;32,75

1562832708671270;32,75

1562832708921280;32,77

1562832709171290;32,77

1562832709421310;32,77

1562832709671320;32,77

1562832709921330;32,75

1562832710171340;32,75

1562832710421350;32,75

1562832710671360;32,75

1562832710921380;32,75

1562832711171390;32,75

1562832711421400;32,75

1562832711671410;32,75

1562832711921420;32,75

1562832712171430;32,75

1562832712421440;32,75

1562832712671460;32,75

1562832712921470;32,75

1562832713171480;32,75

1562832713421490;32,75

1562832713671500;32,75

1562832713921510;32,77

1562832714171530;32,77

1562832714421540;32,77

1562832714671550;32,77

1562832714921560;32,73

1562832715171570;32,73

1562832715421580;32,73

1562832715671600;32,73

1562832715921610;32,75

1562832716171620;32,75

1562832716421630;32,75

1562832716671640;32,75

1562832716921650;32,75

1562832717171660;32,75

1562832717421680;32,75

1562832717671690;32,75

1562832717921700;32,75

1562832718171710;32,75

1562832718421720;32,75

1562832718671730;32,75

1562832718921750;32,75

1562832719171760;32,75

1562832719421770;32,75

1562832719671780;32,75

1562832719921790;32,75

1562832720171800;32,75

1562832720421820;32,75

1562832720671830;32,75

1562832720921840;32,73

1562832721171850;32,73

1562832721421860;32,73

1562832721671870;32,73

1562832721921880;32,73

1562832722171900;32,73

1562832722421910;32,73

1562832722671920;32,73

1562832722921930;32,73

1562832723171940;32,73

1562832723421950;32,73

1562832723671970;32,73

1562832723921980;32,73

1562832724171990;32,73

1562832724422000;32,73

1562832724672010;32,73

1562832724922020;32,73

1562832725172030;32,73

1562832725422050;32,73

1562832725672060;32,73

1562832725922070;32,75

1562832726172080;32,75

1562832726422090;32,75

1562832726672100;32,75

1562832726922120;32,73

1562832727172130;32,73

1562832727422140;32,73

1562832727672150;32,73

1562832727922160;32,73

1562832728172170;32,73

1562832728422190;32,73

1562832728672200;32,73

1562832728922210;32,71

1562832729172220;32,71

1562832729422230;32,71

1562832729672240;32,71

1562832729922250;32,73

1562832730172270;32,73

1562832730422280;32,73

1562832730672290;32,73

1562832730922300;32,71

1562832731172310;32,71

1562832731422320;32,71

1562832731672340;32,71

1562832731922350;32,71

1562832732172360;32,71

1562832732422370;32,71

1562832732672380;32,71

1562832732922390;32,71

1562832733172410;32,71

1562832733422420;32,71

1562832733672430;32,71

1562832733922440;32,73

1562832734172450;32,73

1562832734422460;32,73

1562832734672470;32,73

1562832734922490;32,71

1562832735172500;32,71

1562832735422510;32,71

1562832735672520;32,71

1562832735922530;32,71

1562832736172540;32,71

1562832736422560;32,71

1562832736672570;32,71

1562832736922580;32,71

1562832737172590;32,71

1562832737422600;32,71

1562832737672610;32,71

1562832737922630;32,69

1562832738172640;32,69

1562832738422650;32,69

1562832738672660;32,69

1562832738922670;32,69

1562832739172680;32,69

1562832739422690;32,69

1562832739672710;32,69

1562832739922720;32,71

1562832740172730;32,71

1562832740422740;32,71

1562832740672750;32,71

1562832740922760;32,69

1562832741172780;32,69

1562832741422790;32,69

1562832741672800;32,69

1562832741922810;32,69

1562832742172820;32,69

1562832742422830;32,69

1562832742672850;32,69

1562832742922860;32,71

1562832743172870;32,71

1562832743422880;32,71

1562832743672890;32,71

1562832743922900;32,69

1562832744172910;32,69

1562832744422930;32,69

1562832744672940;32,69

1562832744922950;32,67

1562832745172960;32,67

1562832745422970;32,67

1562832745672980;32,67

1562832745923000;32,69

1562832746173010;32,69

1562832746423020;32,69

1562832746673030;32,69

1562832746923040;32,67

1562832747173050;32,67

1562832747423070;32,67

1562832747673080;32,67

1562832747923090;32,67

1562832748173100;32,67

1562832748423110;32,67

1562832748673120;32,67

1562832748923130;32,69

1562832749173150;32,69

1562832749423160;32,69

1562832749673170;32,69

1562832749923180;32,69

1562832750173190;32,69

1562832750423200;32,69

1562832750673220;32,69

1562832750923230;32,67

1562832751173240;32,67

1562832751423250;32,67

1562832751673260;32,67

1562832751923270;32,69

1562832752173290;32,69

1562832752423300;32,69

1562832752673310;32,69

1562832752923320;32,65

1562832753173330;32,65

1562832753423340;32,65

1562832753673350;32,65

1562832753923370;32,69

1562832754173380;32,69

1562832754423390;32,69

1562832754673400;32,69

1562832754923410;32,67

1562832755173420;32,67

1562832755423440;32,67

1562832755673450;32,67

1562832755923460;32,69

1562832756173470;32,69

1562832756423480;32,69

1562832756673490;32,69

1562832756923510;32,67

1562832757173520;32,67

1562832757423530;32,67

1562832757673540;32,67

1562832757923550;32,65

1562832758173560;32,65

1562832758423570;32,65

1562832758673590;32,65

1562832758923600;32,67

1562832759173610;32,67

1562832759423620;32,67

1562832759673630;32,67

1562832759923640;32,67

1562832760173660;32,67

1562832760423670;32,67

1562832760673680;32,67

1562832760923690;32,67

1562832761173700;32,67

1562832761423710;32,67

1562832761673720;32,67

1562832761923740;32,69

1562832762173750;32,69

1562832762423760;32,69

1562832762673770;32,69

1562832762923780;32,67

1562832763173790;32,67

1562832763423810;32,67

1562832763673820;32,67

1562832763923830;32,67

1562832764173840;32,67

1562832764423850;32,67

1562832764673860;32,67

1562832764923880;32,69

1562832765173890;32,69

1562832765423900;32,69

1562832765673910;32,69

1562832765923920;32,69

1562832766173930;32,69

1562832766423940;32,69

1562832766673960;32,69

1562832766923970;32,65

1562832767173980;32,65

1562832767423990;32,65

1562832767674000;32,65

1562832767924010;32,69

1562832768174030;32,69

1562832768424040;32,69

1562832768674050;32,69

1562832768924060;32,69

1562832769174070;32,69

1562832769424080;32,69

1562832769674100;32,69

1562832769924110;32,67

1562832770174120;32,67

1562832770424130;32,67

1562832770674140;32,67

1562832770924150;32,67

1562832771174160;32,67

1562832771424180;32,67

1562832771674190;32,67

1562832771924200;32,67

1562832772174210;32,67

1562832772424220;32,67

1562832772674230;32,67

1562832772924250;32,67

1562832773174260;32,67

1562832773424270;32,67

1562832773674280;32,67

1562832773924290;32,65

1562832774174300;32,65

1562832774424320;32,65

1562832774674330;32,65

1562832774924340;32,67

1562832775174350;32,67

1562832775424360;32,67

1562832775674370;32,67

1562832775924380;32,67

1562832776174400;32,67

1562832776424410;32,67

1562832776674420;32,67

1562832776924430;32,65

1562832777174440;32,65

1562832777424450;32,65

1562832777674470;32,65

1562832777924480;32,69

1562832778174490;32,69

1562832778424500;32,69

1562832778674510;32,69

1562832778924520;32,67

1562832779174540;32,67

1562832779424550;32,67

1562832779674560;32,67

1562832779924570;32,65

1562832780174580;32,65

1562832780424590;32,65

1562832780674600;32,65

1562832780924620;32,67

1562832781174630;32,67

1562832781424640;32,67

1562832781674650;32,67

1562832781924660;32,67

1562832782174670;32,67

1562832782424690;32,67

1562832782674700;32,67

1562832782924710;32,65

1562832783174720;32,65

1562832783424730;32,65

1562832783674740;32,65

1562832783924760;32,65

1562832784174770;32,65

1562832784424780;32,65

1562832784674790;32,65

1562832784924800;32,67

1562832785174810;32,67

1562832785424820;32,67

1562832785674840;32,67

1562832785924850;32,65

1562832786174860;32,65

1562832786424870;32,65

1562832786674880;32,65

1562832786924890;32,65

1562832787174910;32,65

1562832787424920;32,65

1562832787674930;32,65

1562832787924940;32,65

1562832788174950;32,65

1562832788424960;32,65

1562832788674970;32,65

1562832788924990;32,65

1562832789175000;32,65

1562832789425010;32,65

1562832789675020;32,65

1562832789925030;32,65

1562832790175040;32,65

1562832790425060;32,65

1562832790675070;32,65

1562832790925080;32,67

1562832791175090;32,67

1562832791425100;32,67

1562832791675110;32,67

1562832791925130;32,65

1562832792175140;32,65

1562832792425150;32,65

1562832792675160;32,65

1562832792925170;32,67

1562832793175180;32,67

1562832793425190;32,67

1562832793675210;32,67

1562832793925220;32,67

1562832794175230;32,67

1562832794425240;32,67

1562832794675250;32,67

1562832794925260;32,67

1562832795175280;32,67

1562832795425290;32,67

1562832795675300;32,67

1562832795925310;32,65

1562832796175320;32,65

1562832796425330;32,65

1562832796675350;32,65

1562832796925360;32,65

1562832797175370;32,65

1562832797425380;32,65

1562832797675390;32,65

1562832797925400;32,65

1562832798175410;32,65

1562832798425430;32,65

1562832798675440;32,65

1562832798925450;32,65

1562832799175460;32,65

1562832799425470;32,65

1562832799675480;32,65

1562832799925500;32,67

1562832800175510;32,67

1562832800425520;32,67

1562832800675530;32,67

1562832800925540;32,65

1562832801175550;32,65

1562832801425570;32,65

1562832801675580;32,65

1562832801925590;32,67

1562832802175600;32,67

1562832802425610;32,67

1562832802675620;32,67

1562832802925630;32,63

1562832803175650;32,63

1562832803425660;32,63

1562832803675670;32,63

