File,Subject,Sex,Estilo,Genero,ConditionMem,Freq_int_name,Freq_interval,AF3,F7,F3,FC5,T7,P7,O1,O2,P8,T8,FC6,F4,F8,AF4
14_bolero_1.set,14,female,bolero,latino,1,beta,13_32,98.90057726552412,21.309018986048628,22.77288132972896,19.48842694784139,23.87422963628408,25.18806248428362,15.02710393274863,15.93428272494733,53.04139409166664,26.56193116269544,17.98054566673396,117.6035482461971,15.13127624082122,15.26843125765554
14_fandango_1.set,14,female,fandango,flamenco,1,beta,13_32,38.353178601848406,26.888531821479678,30.490473908866896,34.89720903451983,43.18109616741121,43.42247424269304,20.57805152241405,22.20527565716743,102.36305562781479,62.303619659207385,74.25890494724877,22.96520372610012,116.5473706394759,25.785352620527267
14_habanera_1.set,14,female,habanera,latino,1,beta,13_32,50.20069743927151,25.855802618603658,19.821521662699112,29.451933438116328,32.49337579530923,34.55098593023,13.15728752630456,14.39992964009913,112.79198368804009,56.849385445603545,62.56908272448699,13.8605410549696,14.352639468428508,12.59380662669591
14_jota_1.set,14,female,jota,tradicional,1,beta,13_32,21.929598828205943,19.01418997390152,16.9918394819245,20.140280544411898,26.7742896693406,28.249637552734107,12.8896617726267,13.531154534710119,39.345398614204996,24.315093828736057,19.969674545694627,11.066244041610739,21.42093551151719,12.7128300833186
14_pasodoble_1.set,14,female,pasodoble,traidcional,1,beta,13_32,16.61236914916246,23.317893623497802,15.778632677465641,18.86117098034156,24.30005661638868,24.692676977824693,10.70830406175981,10.700562051654689,29.49137802138338,19.35967895327173,17.20095891947049,11.06308600683736,16.46396362505892,13.621937564388551
14_petenera_1.set,14,female,petenera,flamenco,1,beta,13_32,623.7322492200252,37.999922441572245,28.8101074984884,37.86502065107406,40.60744427984493,46.12235003942871,22.20138816001944,22.358130192000424,118.7940536205155,43.48533661791266,229.9645307085619,22.463262511657053,24.10136655715392,32.75621132028295
14_swing_1.set,14,female,swing,Estadounidense,1,beta,13_32,19.08220640837798,10.292715675503722,17.468373288294963,22.21385606631721,30.09281833497436,30.047628709804393,15.02936505239501,14.80803812266684,34.85459099457854,21.72976914359826,18.99671309239034,13.969239689974,16.13951810277386,15.992942763649301
16_bolero_1.set,16,female,bolero,latino,1,beta,13_32,698.0228295336287,801.5746465088408,732.9957423547096,628.1300858790901,696.6559969814498,535.5777815938748,831.4006846106032,829.4827247724503,510.40724435225474,2639.287267563215,510.38408669397836,1739.333806940047,1047.135058722791,525.914684312635
16_fandango_1.set,16,female,fandango,flamenco,1,beta,13_32,743.4321474737003,753.384955279173,574.8279301014012,633.8211133315442,688.0268035186316,579.6332742911029,790.3710959399804,771.2650966306261,578.4979404199863,1365.993973091671,499.3882464195935,1050.744194758674,1143.9827067687359,589.4945887365795
16_habanera_1.set,16,female,habanera,latino,1,beta,13_32,2079.087257028525,1879.932928619465,3103.443087635349,2026.039375862726,2377.04005473573,2113.894291337238,2113.302519109243,2124.154707306346,2106.436070356,7193.641267774671,2446.829972370742,6604.229209224871,1899.756092153227,2121.0279681579636
16_jota_1.set,16,female,jota,tradicional,1,beta,13_32,674.9892046736846,741.5864186838686,806.0715491825574,481.31720132670785,725.4970207738157,480.3449417048272,880.1484286461755,956.3692665402887,452.2896271302716,2826.4494116102946,538.375349154963,1966.8329532678897,1049.2452804916009,456.9487772257285
16_pasodoble_1.set,16,female,pasodoble,traidcional,1,beta,13_32,2775.005586002508,4234.115400304185,1469.113008735,2518.741521505328,1531.698801495719,2500.02180435965,2481.484862178321,2518.667355997275,2576.1578846911443,11307.62241129575,4689.013847971013,11629.12126584584,3438.538937751959,2403.523559756972
16_swing_1.set,16,female,swing,Estadounidense,1,beta,13_32,844.0440478879319,1330.7270497785769,883.5185301098093,1097.585716554089,930.0457604192668,729.7841054662642,1066.717621406498,1086.718285901393,720.0665544750025,1441.4316429119892,909.625841955247,1154.285132954888,916.4972710725827,734.2838096403847
16_twist_1.set,16,female,twist,Estadounidense,1,beta,13_32,2345.3171445819,2345.2123691881657,1883.8040894630678,2136.5311251821217,1736.835520740991,2042.7285697231118,2049.358148700727,2053.679504394338,2012.6695649682629,5912.41130095602,1747.548102843956,5727.070802888582,2275.474324604074,2058.132092807893
17_fandango_1.set,17,female,fandango,flamenco,1,beta,13_32,19.752934746464213,16.86850659311249,29.65709616491595,16.6341616528405,20.83029079005166,26.283239775673852,20.032722198349237,10.27236207467857,20.55609423106581,29.68163434398882,24.28060119043828,12.610710773174029,19.96589112075693,17.90713474171275
17_petenera_1.set,17,female,petenera,flamenco,1,beta,13_32,30.47363666913957,26.49721921863778,363.38786267156985,52.595486694385045,53.83014077040943,46.45059876651155,31.688515198086783,6.783602480758012,27.47392809013904,37.129765682245186,22.799129440560694,282.5483809898525,24.10907953520666,17.3096200843915
1_bolero_1.set,1,female,bolero,latino,1,beta,13_32,9.424629248830698,26.51543502769373,10.56898722216085,24.469140239549624,48.8419657659659,25.145925310909945,19.60555259839327,152.5648559477032,23.285623486590172,65.39644390159374,18.53682728001782,9.130688927233363,26.706484674074897,16.416757257250786
1_fandango_1.set,1,female,fandango,flamenco,1,beta,13_32,8.739964083382642,20.7959116806198,9.696165824094033,18.26845553230022,54.03007537201327,30.9241599172823,9.301634498346877,20.48347592145318,24.15699247895845,88.05032451842266,13.96522539681499,10.143848347694131,17.31707727954285,13.945019749541268
1_habanaera_1.set,1,female,habanaera,flamenco,1,beta,13_32,8.931099244507259,19.986418587081968,10.555133794163789,18.97102955975958,50.394041483600176,36.65631449861129,10.56809926192983,20.98427902718618,27.07630655853043,151.87413446598018,15.34304396565974,9.870150952705142,20.77054285953972,17.921339194044467
1_jota_1.set,1,female,jota,tradicional,1,beta,13_32,7.584184924947258,11.589135928225632,8.308659573985858,11.68658830914982,89.96293008547676,30.07210026925018,22.911652718125538,15.81336411849184,23.496927513013357,42.55238385247725,15.501340742730081,10.55451264064704,16.78369554568428,14.10349882355972
1_pasodoble_1.set,1,female,pasodoble,traidcional,1,beta,13_32,9.43385534332474,21.07608684772999,11.021814185267301,19.655407656722147,44.999146148983364,32.83539393829429,9.296557203474858,22.41191929916445,32.23572727960628,32.153922376934396,13.410329647508231,10.507246403227741,16.57606578784906,14.377631465421569
1_petenera_1.set,1,female,petenera,flamenco,1,beta,13_32,10.728678091667499,15.864825717704429,13.19762497464177,18.91085915157085,20.17625100935834,25.19373535758063,26.870092492349762,23.076712165777803,33.22089399537239,27.39912299987186,11.692675734387018,9.067627530430787,18.79363665399621,14.304077006888509
1_swing_1.set,1,female,swing,Estadounidense,1,beta,13_32,8.836268050489329,14.81167304149164,9.364145286171784,12.71120901117348,40.36999806321748,30.94576633043228,27.14002921896182,20.97124102464518,27.47201041660799,84.42967903654413,11.92022336232408,10.30206348054912,16.3491206887615,15.884710804928492
1_twist_1.set,1,female,twist,Estadounidense,1,beta,13_32,8.739678970410555,14.142196459277821,9.538899225349834,14.82208891990986,43.194056214833225,27.000124459068488,24.72350264355791,20.25209667875033,27.129324940788173,152.7545175647184,13.63803270876756,8.246531489926651,21.310759297670852,14.85646524828906
7_bolero_1.set,7,female,bolero,latino,1,beta,13_32,14.88827227202646,13.709082483237788,20.932065220187603,8.50349081179952,22.321046841099463,16.72446481958283,8.441834572356667,10.62782919431026,14.75083657846713,57.93969253199683,8.331289972700544,5.995373028270778,20.30485978546448,11.64974208151614
7_fandango_1.set,7,female,fandango,flamenco,1,beta,13_32,94.86406840989352,143.7823961286704,1002.771022428739,36.88941655671812,103.9894698785544,1361.099509025278,64.70279409592911,62.66224356632862,55.976199689941204,1496.476291246667,74.44243387661449,36.93836912246935,63.12540751308249,55.762064069353315
7_habanera_1.set,7,female,habanera,latino,1,beta,13_32,19.986049567416607,19.17409052891497,21.07041188987657,9.554456155096066,18.40397752491059,17.561721173438322,10.47955452540967,10.53472624766396,17.693587912600172,49.213457254183226,9.575544186444404,7.550477752954003,31.33484381122691,12.07121065070009
7_jota_1.set,7,female,jota,tradicional,1,beta,13_32,35.65129687546035,40.63672536386395,109.49756767547501,28.481820013102283,75.76666387831827,155.51534071526882,26.13541530192929,26.893432297786468,32.12433648084,1687.100756944276,91.31780201034228,31.59353431090656,86.11888948279362,28.19903746368594
7_pasodoble_1.set,7,female,pasodoble,traidcional,1,beta,13_32,694.2632783822787,997.2494064524562,2524.744599921229,397.9274456643946,666.0237418063189,2645.684898323841,1380.004491904987,537.1809214041,385.5629870965924,2635.116729955696,685.4886722050134,2014.555213665688,569.3777495199107,339.7070130436603
7_petenera_1.set,7,female,petenera,flamenco,1,beta,13_32,462.2584142816684,602.3658730812942,3596.846727064609,666.8344563924231,302.9144910339428,3584.2844994871793,416.13722128984415,495.17306500037387,572.1800709503992,1072.917245461854,1263.241965281204,621.0516049989254,462.0413241742393,507.70523761218317
7_swing_1.set,7,female,swing,Estadounidense,1,beta,13_32,18.63787501138015,24.00090757001109,10.73706544585,15.262251686553471,50.56290020966285,57.28031613758746,13.3509178969718,12.330523382302971,16.591468406132442,111.4598130754164,29.530316778056157,15.109890691941118,29.1260001247264,10.99662326377396
7_twist_1.set,7,female,twist,Estadounidense,1,beta,13_32,128.3730783190312,534.5222427533906,87.9696733768257,273.1843727411692,85.93652901749235,125.7211082627894,45.89282616843852,55.34787157304835,54.7751370159796,5641.018311065341,124.2125537443254,44.02661645366193,76.59618115790762,53.941420011571175
