AF3,F7,F3,FC5,T7,P7,O1,O2,P8,T8,FC6,F4,F8,AF4
40.0227458645071,6.486617895810044,2.8146266561493083,3.8504923023572277,5.021325319450604,5.722042501841549,2.4115206192594347,2.533802669191378,9.842072029430886,4.862068010575044,3.112848420039503,23.1063703469522,3.2886734583509964,2.6356245673400496
9.981553041789283,8.870108916345668,7.107542136570853,13.30974762662582,16.720706194888383,15.779015391565121,4.987080462206363,5.5956010054361025,40.25436784341937,24.5174152154318,28.75159851843275,6.658796738239515,48.771709563476975,7.246680800469277
7.465469281533498,7.636379088521771,2.6167984013421517,4.991116799956107,6.385977996725083,7.173057641380782,2.215780273133352,2.030239782932411,20.99915970516798,10.27445060670577,11.3364828116286,3.3091461860582916,3.0282661577676184,3.4696863246270464
4.983906974484924,5.833955904013053,2.147185722442313,5.576888400649453,7.5304769305621395,7.867342424848276,2.3341295737818832,2.272941924930105,11.52695180194792,6.142082708361841,4.834882136802122,2.0466923780945243,5.456764831660348,2.146016253143436
3.1948399631651228,6.073757432732246,2.078287644734179,4.131687034201751,5.77407656121349,6.167515104008527,1.7754782854597548,1.785705994235037,7.7567319009121904,5.013324922096264,3.5688662370891184,1.529542457863455,3.810802334368879,1.922867912633166
96.11583212425388,13.02951096896762,4.681379843188251,6.232137467571719,6.815087663304466,8.377833127346314,3.489680451996551,3.204674904884412,19.28691987102856,8.481437429446759,22.197259841126105,4.329280719595734,6.101103473052282,7.085459055320385
3.476591387616331,1.2358857686721398,1.990861680278811,5.509654387480599,7.757568644342996,8.02383206818773,1.900358799456567,1.894677516207518,9.089468879782672,5.5910094888185835,4.157890688446656,1.4505895162310711,3.0312589140603765,1.978501635853886
178.36053608043832,136.4520947891266,66.22133428969991,74.5333623684026,82.9808895304935,27.905573085260578,76.01530146742502,67.49642138254876,26.090228850547966,416.2263640629232,141.0619331445334,215.59300187768793,163.05737308151242,26.144046911630827
184.57217035926257,115.66625658322651,62.452650668576666,40.728691825006905,71.88445271557566,8.651308964111406,55.41824291676075,54.07746618094411,9.171505867332444,189.23241687241952,99.96317215624777,135.3209760303736,162.7990645108353,8.913587491691503
182.13651234256818,182.6264440026902,105.8916844053474,20.25790517837286,139.90045919417722,18.10538031918227,17.39795815309064,17.434204552419,19.241427446170032,296.03202610485533,125.5705140851521,211.3896860553571,179.79929879438632,20.152521575108352
144.392306748104,126.6203009215617,81.65917685170052,98.61439839672173,75.08241946545337,36.431637294387066,75.01275218170818,98.09562780762964,32.73275606342015,577.9132203615231,149.1799514241046,376.61669112046434,161.8178996979031,31.15200757755402
222.3266349943898,123.8067058811462,43.77850722855307,16.36260646214743,19.534455440396762,15.14555801040644,13.08664099268444,12.82216613879415,13.583225811896448,247.07610868542648,38.983631387142026,264.9839306184842,143.29761714873507,18.737035907292398
136.8649403754376,167.89794576106482,106.5610828218178,68.55725408863655,119.6316765736655,12.08405612283545,63.017062263805826,59.01940462099034,12.540418392070439,189.02069321823032,96.66313899244514,129.7232432183023,114.9331871661603,15.21913879998846
185.28560304890252,176.7463980809229,198.13721444517242,25.15313620846631,194.388270322338,24.079231691423892,20.80412826367477,21.54148264704158,24.80434524382987,246.44399374034734,183.43324343236628,247.18170594864398,157.486964770251,22.810833865475768
2.562506516233451,2.67262368833642,2.991095924782313,1.9073654357031784,3.600128005999633,4.359629210043973,1.323683096363069,1.750268004259465,5.955324978742286,3.898591177192672,1.8147975077777758,1.4617286863647292,2.5160847775584645,2.607294338319373
9.328242349520586,6.244709794928467,156.5795984474293,7.60228447783761,10.168911661635141,11.833009552090411,4.161227836587563,1.526247310558156,9.625356469509684,6.371682602778747,3.4090058597861947,48.11718446444414,4.902967876044022,4.766024853380064
2.163038876810425,12.29793434959802,2.140291488422786,11.98873225923282,21.50576181312718,4.9129186470693025,3.5417718550247015,14.783933545980858,5.216801041367257,32.822550741056965,9.219870687636664,2.415328724416301,7.316032875800884,4.295981460371685
2.259163461217341,10.84460037674221,2.2080447837517645,10.21565310067175,25.727477553384908,6.333476698120488,2.5719388716463167,3.1285175669060914,3.385717902016143,40.71169992795754,7.845535533577317,3.426893785242467,5.333297256136566,3.912256785495283
2.9493711569399066,7.4003369674902855,2.6340091100044836,6.715010454099512,24.52535082597796,5.441688365423137,2.436393209137096,3.307324912961203,3.2595492534757913,63.795595630270526,7.484586922755526,3.8124065823404485,5.503476139592014,4.939251733671812
1.932866985328153,3.387769433097973,2.06775423387949,3.702829321216755,54.084800166719866,10.45462789411183,5.9904580736875985,2.6353467126321535,2.862598012918596,13.74539552679546,7.3408808441744675,3.84636928199593,5.299258135921492,2.5846826208133007
1.857738039318205,7.471454289771991,2.013282808390135,8.323692556851015,19.1333515003605,5.877714373677019,2.000490979913195,3.1524624824521883,3.7125071642983483,6.432675914252247,6.1808972492954775,2.7994572831430875,4.516297493168412,3.3040456975684958
1.6672269715073906,4.6603493209400435,2.1185525290699943,5.441608861605227,4.654323466439277,2.9871277558721436,2.7170847677362127,1.9618495563757559,2.9594162734532166,3.112367074927111,4.046366514127987,1.4200593326173732,3.4100437097718594,2.46922004176937
1.439439129511699,2.8609400744929396,1.513127657019363,3.030645930753348,12.05480713681097,3.449649370100225,3.3055412038241183,2.562681013737623,3.3655599543419963,25.77057970380466,4.617589118968523,2.012311007731701,3.4766837123589,3.1992308636147033
1.8588214796915001,3.4857091502563637,2.116609509417396,4.376990088775983,15.40595430866761,3.499261254399998,3.256899560376791,2.873220670508702,3.1493922431640886,74.5798648743968,5.989142388993651,2.5004338593732798,5.006929400608887,2.973734657741912
49.16508158070872,132.8886310609085,57.64821449177877,202.91380594856992,169.4903741703388,57.94267833886712,31.570543014872236,16.275701312012018,20.32330286865816,99.18746878988311,297.2376009152201,50.68807948728865,157.0509914233365,26.165869271710445
54.90830638096213,124.8783161247364,54.259688678898534,188.71493199534692,109.2745113096736,69.47682166733031,26.760105150245618,11.09046946746124,13.628439146254252,51.27167527930904,90.95132644075592,31.39075098989299,91.436058580609,18.28597899485645
28.49831216323155,64.19322058361874,26.892659770647718,94.71904799196116,30.06019874158937,20.42637218679938,12.603861556148761,7.405391143360938,10.28049241135689,23.87140437798271,68.85527869582664,15.992064368189471,59.291542583421496,12.506688067723369
92.33969152507528,240.57302405107268,123.7600007897562,426.80653162336154,176.9193672932332,80.32937967845882,50.43769358319869,21.403231520978643,24.855236553478424,79.57911185733866,249.4741900657233,59.14180796365036,185.77530233104832,37.83414314074697
4.263685459759308,5.852450063220184,3.6203155792939468,13.87411971891769,9.179284792812373,4.613836969755866,4.2510966840208235,3.4506156531524104,2.951529032127212,7.332755935569142,6.688752457734329,3.064387372649538,5.52178419839319,4.156365620483205
17.27922722043564,42.80114523834185,22.376654758797997,63.18120653875886,38.985104300772186,17.967567989984108,10.658712994172461,5.4923766616081116,6.50542922895633,21.743110260298533,39.29657177813097,11.01522693242958,30.775101305114088,8.833562600789724
56.679880593722885,124.91009189970379,56.85994216512063,204.8759037745002,135.3885984107555,45.5139510421081,28.33843735230165,10.48874650027351,14.234232913544938,50.02560961760868,126.32893641381871,29.922512731821197,92.2139851182005,21.536285389107753
63.19235960283528,116.5447969022599,55.07254272211776,227.7615281141491,171.7437069877525,59.921808867536036,28.014386992219375,10.83299174871117,14.786994049325369,44.425180627709544,124.9856541368778,29.80238301569561,126.3939380290466,22.895707267253307
7.8766492124956,27.2809602780622,15.44870004627733,90.41483319826315,53.31956221606719,7.3849652617118275,4.045473782431204,4.005930982887799,5.895615322894577,11.463200186243,23.07574409418583,7.1403658470884634,17.17059924144907,6.450587062799253
12.06209900721435,31.565380897009806,18.03847318826222,69.63922424489252,22.33608847710855,4.763607609693256,3.4910356935392817,3.772242178158323,5.230121096879659,6.789205601462031,12.380156312428811,16.90961826764783,25.657162694217373,31.039329854183194
18.075585391426692,65.36547261793217,24.66104347280109,126.3002190931658,41.37282143044858,8.176882178213223,5.3060023076563265,5.981670030208922,8.483111461779046,13.10515642698521,38.74492195423734,11.56251740214715,22.55347112576614,11.702506600502689
8.658440466387567,30.866589999877128,12.77633972835591,5.146341264150635,74.32804231339173,7.30439491083297,3.318161822292589,4.759658400322209,6.213423803233156,10.578327038388881,33.75395224108411,8.84552166316607,20.081399224775428,5.2666741547683005
9.001668593351118,32.01529898741078,19.00328069426204,92.3761543420426,9.460071590433849,4.002362189868734,3.4901111366795496,3.737420698062333,5.247264468371198,7.985395931588878,13.75892494199949,11.877070966826519,14.96383158586503,13.24463051223212
4.98909137310808,8.986526477245016,2.449033028346172,4.020403658952366,3.276268115217842,2.736509513373354,1.8448343363629007,1.4295272204618867,2.4145996819958313,4.972627396885286,3.552982235187958,7.968583856471559,3.4553781529764866,8.693292797892024
10.69160190628355,29.997023795826202,18.7755327973606,91.83645213002792,23.66678621334298,5.84788060923441,3.640423075689205,3.938151882592029,6.244178141821069,9.75126454337356,24.07145350566121,13.41040858609141,23.816879096080942,28.545615844890534
23.281532013053926,29.904289667342162,14.15405359238159,76.31496055235591,12.910730405463053,5.1970503736449025,3.812627970312509,4.685279377796137,7.099499256641519,9.639443947643251,19.99554857284925,10.34567444957054,15.54149842537043,39.138974619044255
3.433131150052851,6.845048231154896,5.959563586279675,3.4956747433223163,8.454239579028933,6.205115236941791,2.109485357258245,2.102096284574703,3.8328365089418934,32.176449545358814,4.366628468290071,2.0158697629251883,11.04828132147301,2.877136712639
30.042651366618056,50.321734437948244,322.6090491688145,15.779457833092039,40.99623101385542,445.724643232584,19.99892529611686,22.81579256876442,17.6473342660635,364.3964498623965,19.983300773523872,11.00584367188802,23.139118698089124,13.159193276541211
4.901181719429633,7.576794709410224,5.698206598189482,4.458653433451315,5.1835701846465865,5.163913798330731,2.5210907610303654,2.0675591674418943,3.1703061096519307,10.69718940304315,2.331464596917445,2.1675268042919082,9.091497982376136,3.15923140520463
10.171871511545609,15.80039100386329,25.55083649721703,8.886133166023864,41.68874810010043,45.7449050372421,6.036999469252142,5.764578276737504,8.595768063871652,105.93593677064258,72.1537276513872,6.690232418540312,48.95431892483296,6.311322511373238
125.2270448668017,161.19022541644208,128.8593869840305,120.4516518553677,95.14762687051358,123.0999101607202,107.0839922454848,137.08734243527002,131.4019438164834,296.019206417373,264.9517390996701,121.3247857373425,190.27817514843582,124.2970036086238
69.61032968349777,102.703563779357,92.47142482851223,117.6309083241877,65.14150391214244,100.84912813816021,79.04260414240855,96.56395366250807,127.645566690482,120.0783858092877,141.9772211792088,87.72075565529718,94.33159492706552,128.601341411458
6.769031978766919,12.279557704849232,4.196532975256488,6.773748551822213,24.526298181182646,20.008238119597518,3.724123569877465,3.073361435668541,5.011604808558426,50.31461346649589,15.47280466468041,3.918150362555752,16.35355749612897,3.485756597574398
54.35052414827054,252.80315341846648,21.72668649469462,143.4643063044496,34.23991754047019,39.41842142133977,6.965226721076412,9.880651398937866,10.62428226821351,115.974836197372,43.54560891447821,4.512949778960326,20.648769557945627,10.50057588311195
