File,Subject,Sex,Estilo,Genero,ConditionMem,Freq_int_name,Freq_interval,AF3,F7,F3,FC5,T7,P7,O1,O2,P8,T8,FC6,F4,F8,AF4
14_twist_2.set,14,female,twist,Estadounidense,2,gamma,32_45,11.328047585385661,20.59822153558631,12.538969070244391,13.277581229116368,16.21699428412174,16.295055373719002,6.8393622498914945,4.957435171902983,81.94219278653864,103.8609532960687,101.5634454066675,26.544857817484193,16.06946847356042,11.557559320486698
15_bolero_2.set,15,female,bolero,latino,2,gamma,32_45,42.074898090879024,44.667024781247136,7.339772067720357,44.477658010178565,23.787234141775325,9.624180211989511,5.123289682887852,2.6859965256724916,8.85111581823855,35.92415094604596,15.508995948832938,4.337171053387333,23.131038928863248,10.11723467306759
15_fandango_2.set,15,female,fandango,flamenco,2,gamma,32_45,53.616899843545426,72.05393220195229,11.077744609122071,48.61901512786787,52.10418026259633,19.23678731728901,8.013637408115876,5.482667291768148,13.601811505915009,77.65576325649798,29.14631408769425,6.59097781054067,50.55154725729777,13.66435134063093
15_habanera_2.set,15,female,habanera,latino,2,gamma,32_45,27.01733432120464,21.61427463261928,4.250967976121806,22.51000500455929,10.62651106524966,3.8701479536415584,4.517494439783792,2.3410683013091957,4.946868943373031,13.08322507827533,11.99122499086149,3.1410796866583484,17.403803539633223,6.580405455409106
15_jota_2.set,15,female,jota,tradicional,2,gamma,32_45,67.20195381811604,84.00041748933334,15.46556307172652,60.14599370115225,73.10787748197,14.665877285358482,11.925295354183431,6.113130241059471,16.05607643171472,102.05762802520441,27.14207632437796,9.850834294265617,34.421510049174664,29.822948138873482
15_pasodoble_2.set,15,female,pasodoble,traidcional,2,gamma,32_45,45.524892457944105,63.8044546623306,12.08003374474319,59.96021834514865,27.749762575300608,7.698269918420073,4.47854865051451,3.5844058263059515,8.108685431745117,33.665662591347,21.658322363466702,7.530303927629122,43.55306590997735,10.830279979931369
15_petenera_2.set,15,female,petenera,flamenco,2,gamma,32_45,9.117428730382304,12.17848319622786,3.1742354504507864,9.5335335006275,11.65483895135947,3.699121835688875,1.888156257330203,1.4325948700862041,2.9397977346327,10.51725080364261,6.179844057191964,2.630325949259542,6.825324243643234,2.7426802197993303
15_swing_2.set,15,female,swing,Estadounidense,2,gamma,32_45,79.46471690883192,56.8261566286675,6.4493236743764415,38.1195898469466,26.45687719143127,9.059311975465086,5.8251876551406845,4.160181243432908,10.83941830455439,36.00063528611089,43.11170279075984,13.179129411359131,85.51851012608778,20.46146982581192
15_twist_2.set,15,female,twist,Estadounidense,2,gamma,32_45,25.893650894861487,17.09523471933701,2.7279167841930194,3.5140699382335097,12.75486872930707,5.131222150329392,2.671728690696125,2.3913482108626,3.9372749713842112,12.96281342289121,9.320356523460127,8.210846847145913,11.04171361877038,5.016307149400318
17_bolero_2.set,17,female,bolero,latino,2,gamma,32_45,123.0959399639268,9.140596605189746,4.8912816398428935,3.963731586602495,4.459846451643219,8.11533620605069,2.6662300823559457,3.2607252725346334,7.351061235868308,5.601605988347282,2.984260867128057,2.6682405875938833,4.761022619139652,7.030590214984041
17_habanera_2.set,17,female,habanera,latino,2,gamma,32_45,29.91132510711289,6.224357341339545,82.99096029998181,12.181550499910081,14.28192658869587,14.58985315413897,3.3027891345391387,4.20202303873397,8.164920148771976,8.19395508092422,3.795031843971178,74.01130591119505,4.493888408214831,5.837419919518854
17_jota_2.set,17,female,jota,tradicional,2,gamma,32_45,3.1557770417882036,6.725686950028381,1.8538533562928408,1.357427021888569,2.3348719438822108,7.465082376864263,1.7392952255775618,1.894339889385561,5.780703260543176,3.8018963768453564,2.004920106745772,1.977924235695263,4.859037024597066,4.187880244875223
17_pasodoble_2.set,17,female,pasodoble,traidcional,2,gamma,32_45,3.085062337660125,5.614844354322988,1.68942477246297,2.5656349551065056,5.641769105437367,7.0094661578292214,1.4826091920770639,1.681338488327944,5.952813916225963,5.298316506540097,2.27925523797538,1.899034555737396,3.268250471897659,3.200250115794875
17_swing_2.set,17,female,swing,Estadounidense,2,gamma,32_45,2.1132522883833214,2.359496523336937,2.308636812231316,1.8496540207606569,2.938494696588148,6.203810760227723,1.3323656146062257,1.6460786118897208,4.274150178007441,4.227120368551776,1.649565502941468,1.502316451731269,2.5523967127069707,3.566940997480442
17_twist_2.set,17,female,twist,Estadounidense,2,gamma,32_45,12.1675857518874,4.221187916955472,2.402181220014305,3.307151894044214,6.1659738406426445,8.404323204474693,1.6533572229057818,1.8616392825703438,6.565213151333423,8.422526622455237,3.9704014974677118,2.437327045858688,3.550019082193725,3.765564837121496
