1563383089196520;0,8750405

1563383090071560;0,8750405

1563383094446760;0,8750405

1563383095306180;0,8594148

1563383096181220;0,8750405

1563383097087510;0,9062919

1563383097993800;0,9062919

1563383098900090;0,9062919

1563383099743880;0,843789

1563383100634550;0,8906662

1563383101525210;0,8906662

1563383102415880;0,8906662

1563383103275290;0,8594148

1563383104181590;0,9062919

1563383105119130;0,9375434

1563383105947290;0,8281634

1563383106853590;0,9062919

1563383107744250;0,8906662

1563383108650540;0,9062919

1563383109541210;0,8906662

1563383121604270;0,8594148

1563383122541810;0,9375434

1563383123416850;0,8750405

1563383124307520;0,8906662

1563383125260690;0,9531693

1563383126088850;0,8281631

1563383126963890;0,8750405

1563383127854560;0,8906662

1563383128792100;0,9375434

1563383129620260;0,8281634

1563383130495300;0,8750405

1563383131479730;0,9844208

1563383132261010;0,781286

1563383133120430;0,8594148

1563383134104850;0,9844205

1563383134917380;0,8125377

1563383135808050;0,8906662

1563383136683090;0,8750405

1563383137589380;0,9062919

1563383138480050;0,8906662

1563383139339460;0,8594148

1563383140214500;0,8750405

1563383141167670;0,9531691

1563383142027090;0,8594148

1563383142902130;0,8750405

1563383143792800;0,8906662

1563383144699090;0,9062919

1563383145589750;0,8906662

1563383146402290;0,8125377

1563383147292960;0,8906662

1563383148214880;0,9219177

1563383149074290;0,8594148

1563383149964960;0,8906662

1563383150824370;0,8594148

1563383151730660;0,9062919

1563383152605700;0,8750405

1563383153465120;0,8594148

1563383154340160;0,8750405

1563383155246450;0,9062919

1563383156121490;0,8750405

1563383156965280;0,843789

1563383157840320;0,8750405

1563383158730990;0,8906662

1563383159621650;0,8906662

1563383160512320;0,8906662

1563383161356110;0,843789

1563383162215520;0,8594148

1563383163121820;0,9062919

1563383163996860;0,8750405

1563383164840650;0,843789

1563383165731310;0,8906662

1563383166621980;0,8906662

1563383167512640;0,8906662

1563383168356430;0,843789

1563383169231470;0,8750405

1563383170106510;0,8750405

1563383170981550;0,8750405

1563383171840970;0,8594148

1563383172684760;0,843789

1563383173559800;0,8750405

1563383174450470;0,8906662

1563383175325510;0,8750405

1563383176169300;0,843789

1563383177044340;0,8750404

1563383177950630;0,9062922

1563383178825670;0,8750405

1563383179669460;0,8437889

1563383180513250;0,843789

1563383181403910;0,8906662

1563383182263330;0,8594148

1563383183107120;0,843789

1563383183966530;0,8594148

1563383184857200;0,8906662

1563383185716610;0,8594148

1563383186560400;0,843789

1563383187419820;0,8594148

1563383188294860;0,8750405

1563383189169900;0,8750405

1563383190013690;0,843789

1563383190857480;0,843789

1563383191748140;0,8906662

1563383192638810;0,8906662

1563383193482600;0,843789

1563383194342010;0,8594148

1563383195232680;0,8906662

1563383196123340;0,8906662

1563383196982760;0,8594148

1563383197857800;0,8750404

1563383198717210;0,8594148

1563383199561000;0,843789

1563383200404790;0,843789

1563383201342340;0,9375434

1563383222624570;0,8750405

1563383223452730;0,8281634

1563383224296520;0,843789

1563383225218440;0,9219177

1563383232828170;0,8125374

1563383233671960;0,843789

1563383234500120;0,8281634

1563383235515790;1,015672

1563383236250200;0,7344089

1563383245766270;0,8750405

1563383246672560;0,9062919

1563383251032140;0,8594148

1563383264267130;0,9531693

1563383265235920;0,9687948

1563383269704880;0,9219177

1563383270579920;0,8750405

1563383271470580;0,8906662

1563383272392500;0,9219177

1563383273251920;0,8594148

1563383274142580;0,8906662

1563383275002000;0,8594148

1563383275939540;0,9375434

1563383276798960;0,8594148

1563383277658370;0,8594148

1563383278533410;0,8750405

1563383279439700;0,9062919

1563383280299120;0,8594148

1563383281174160;0,8750405

1563383282064820;0,8906662

1563383282955490;0,8906662

1563383283799280;0,843789

1563383284674320;0,8750405

1563383285564990;0,8906662

1563383286455650;0,8906662

1563383287315070;0,8594148

1563383288174480;0,8594148

1563383289065150;0,8906662

1563383289955820;0,8906662

1563383290815230;0,8594146

1563383291705900;0,8906662

1563383292612190;0,9062922

1563383293502850;0,8906662

1563383294346640;0,8437889

1563383295221680;0,8750405

1563383296112350;0,8906662

1563383297049890;0,9375436

1563383298034310;0,9844205

1563383329113880;0,8125377

1563383329957670;0,843789

1563383330738950;0,7812862

1563383337629900;0,843789

1563383338536190;0,9062919

1563383339364350;0,8281634

1563383346224050;0,843789

1563383347052210;0,8281634

1563383347927250;0,8750404

1563383348817920;0,8906662

1563383349708580;0,8906665

1563383357427690;0,9062919

1563383358193350;0,7656605

1563383359146520;0,9531691

1563383359974680;0,8281634

1563383360787220;0,8125377

1563383387725970;0,781286

1563383388632260;0,9062919

1563383389522930;0,8906662

1563383390429220;0,9062919

1563383391304260;0,8750405

1563383392148050;0,843789

1563383393038710;0,8906662

1563383393913750;0,8750405

1563383394835670;0,9219177

1563383395710710;0,8750405

1563383396617000;0,9062919

1563383397460790;0,843789

1563383398367090;0,9062919

1563383399242130;0,8750405

1563383400117170;0,8750405

1563383400992210;0,8750405

1563383401867250;0,8750405

1563383402757910;0,8906662

1563383403617330;0,8594148

1563383404476740;0,8594148

1563383405351780;0,8750405

1563383406242450;0,8906662

1563383407117490;0,8750405

1563383407976910;0,8594148

1563383408820690;0,843789

1563383409711360;0,8906662

1563383410586400;0,8750405

1563383411445820;0,8594148

1563383412289610;0,843789

1563383413180270;0,8906662

1563383414039690;0,8594148

1563383414883480;0,843789

1563383415727260;0,843789

1563383416617930;0,8906662

1563383417477350;0,8594148

1563383418321130;0,8437889

1563383419164920;0,843789

1563383420039960;0,8750405

1563383420930630;0,8906662

1563383421774420;0,843789

1563383422618210;0,843789

1563383423477620;0,8594148

1563383424368290;0,8906662

1563383425227700;0,8594148

1563383426087120;0,8594148

1563383426946530;0,8594148

1563383427852830;0,9062919

1563383428743490;0,8906662

1563383429602910;0,8594148

1563383430477950;0,8750405

1563383431384240;0,9062919

1563383432274910;0,8906662

1563383433134320;0,8594148

1563383434024990;0,8906662

1563383434900030;0,8750405

1563383435806320;0,9062919

1563383436696990;0,8906662

1563383437572030;0,8750405

1563383438462690;0,8906662

1563383439368980;0,9062919

1563383440259650;0,8906662

1563383441103440;0,843789

1563383442025360;0,9219177

1563383442916020;0,8906662

1563383443759810;0,843789

1563383444650480;0,8906662

1563383445494270;0,843789

1563383446400560;0,9062919

1563383447213100;0,8125377

1563383448041260;0,8281634

1563383448885050;0,843789

1563383449791340;0,9062919

1563383450635130;0,8437889

1563383451525800;0,8906665

1563383452400840;0,8750404

1563383453229000;0,8281634

1563383454088420;0,8594148

1563383454900950;0,8125377

1563383455729120;0,8281634

1563383456604160;0,8750405

1563383457447950;0,843789

1563383458354240;0,9062919

1563383459198030;0,843789

1563383459994940;0,796912

1563383460916860;0,9219177

1563383479620850;0,8750405

1563383480495890;0,8750405

1563383481370930;0,8750405

1563383482183470;0,8125377

1563383488933780;0,8750405

1563383489871320;0,9375434

1563383490699490;0,8281634

1563383491558900;0,8594148

1563383492433940;0,8750405

1563383493387110;0,9531691

1563383494215270;0,8281634

1563383495074690;0,8594148

1563383495934100;0,8594148

1563383496762270;0,8281634

1563383497621680;0,8594148

1563383498496720;0,8750405

1563383499356140;0,8594148

1563383500293680;0,9375434

1563383501106220;0,8125377

1563383501996890;0,8906662

1563383508887830;0,8125377

1563383509747240;0,8594148

1563383510637910;0,8906662

1563383511575450;0,9375434

1563383512356740;0,7812862

1563383513200530;0,843789

1563383514091200;0,8906662

1563383514934980;0,843789

1563383515763150;0,8281634

1563383516747570;0,9844205

1563383517513230;0,7656605

1563383518372640;0,8594148

1563383519232060;0,8594146

1563383520107100;0,8750405

1563383521029020;0,9219179

1563383521841550;0,8125374

1563383528857500;0,8750405

1563383529732540;0,8750405

1563383530670090;0,9375434

1563383531513880;0,843789

1563383532357670;0,843789

1563383533248330;0,8906662

1563383534154620;0,9062919

1563383535045290;0,8906662

1563383535904710;0,8594148

1563383536795370;0,8906662

1563383537686040;0,8906662

1563383538561080;0,8750405

1563383539467370;0,9062919

1563383540326790;0,8594148

1563383541186200;0,8594148

1563383542045610;0,8594148

1563383542951910;0,9062919

1563383543826950;0,8750405

1563383544701990;0,8750405

1563383545592650;0,8906662

1563383546498950;0,9062919

1563383547389610;0,8906662

1563383548264650;0,8750405

1563383549155320;0,8906662

1563383550045990;0,8906662

1563383550936650;0,8906662

1563383551811690;0,8750405

1563383552686730;0,8750405

1563383553577400;0,8906662

1563383554483690;0,9062919

1563383555343110;0,8594148

1563383556218150;0,8750405

1563383557061940;0,843789

1563383557983850;0,9219177

1563383558843270;0,8594148

1563383559718310;0,8750405

1563383560577720;0,8594148

1563383561484010;0,9062919

1563383562343430;0,8594148

1563383563202840;0,8594148

1563383564062260;0,8594148

1563383564937300;0,8750405

1563383565827970;0,8906662

1563383566687380;0,8594148

1563383567562420;0,8750405

1563383568421840;0,8594148

1563383569328130;0,9062919

1563383570203170;0,8750405

1563383571078210;0,8750405

1563383571937620;0,8594148

1563383572828290;0,8906662

1563383573718960;0,8906662

1563383574578370;0,8594146

1563383575453410;0,8750405

1563383576344080;0,8906662

1563383577234740;0,8906662

1563383578109780;0,8750405

1563383578984830;0,8750405

1563383579844240;0,8594148

1563383580750530;0,9062919

1563383581609950;0,8594148

1563383582484990;0,8750405

1563383583344400;0,8594148

1563383584235070;0,8906662

1563383585094480;0,8594148

1563383585953900;0,8594148

1563383586828940;0,8750405

1563383587703980;0,8750405

1563383597001280;0,8281634

1563383597876330;0,8750405

1563383598704490;0,8281634

1563383606470470;0,9219179

1563383607314260;0,8437889

1563383608267430;0,9531693

1563383613345790;0,8594148

1563383614173960;0,8281634

1563383615080250;0,9062919

1563383616002160;0,9219177

1563383616830330;0,8281634

1563383617611610;0,7812862

1563383618533530;0,9219177

1563383619392950;0,8594148

1563383666676390;0,9219179

1563383685099120;0,8750405

1563383685989780;0,8906662

1563383693161990;0,8750405

1563383702178030;0,9062919

1563383703162450;0,9844205

1563383703959360;0,796912

1563383704865660;0,9062919

1563383705725070;0,8594148

1563383706678240;0,9531691

1563383707537650;0,8594148

1563383708428320;0,8906662

1563383709318990;0,8906662

1563383710287780;0,9687948

1563383711178450;0,8906662

1563383712069110;0,8906662

1563383712959780;0,8906662

1563383713912950;0,9531691

1563383721132030;0,8750405

1563383721991450;0,8594146

1563383722928990;0,9375436

1563383723850910;0,9219177

1563383724647820;0,7969117

1563383725710370;1,062549

1563383726522910;0,8125377

1563383727444830;0,9219177

1563383728319870;0,8750405

1563383729226160;0,9062919

1563383730148080;0,9219177

1563383731148120;1,000046

1563383732007540;0,8594148

1563383812058120;0,8906662

1563383812964410;0,9062919

1563383813886330;0,9219177

1563383814808250;0,9219177

1563383815730170;0,9219177

1563383816636460;0,9062919

1563383817558370;0,9219177

1563383818480290;0,9219177

1563383819495960;1,015672

1563383823980550;1,015672

1563383828043240;0,8281634

1563383828949530;0,9062919

1563383829777690;0,8281634

1563383830621480;0,843789

1563383831465270;0,843789

1563383832293430;0,8281634

1563383833246600;0,9531691

1563383834059140;0,8125377

1563383834934180;0,8750405

1563383835824850;0,8906662

1563383836778010;0,9531691

1563383837653060;0,8750405

1563383838543720;0,8906662

1563383839450010;0,9062919

1563383840418810;0,9687948

1563383841309470;0,8906662

1563383842168890;0,8594148

1563383843090810;0,9219177

1563383844028350;0,9375434

1563383844919020;0,8906662

1563383845825310;0,9062919

1563383846700350;0,8750405

1563383847669140;0,9687948

1563383848575440;0,9062919

1563383849466100;0,8906662

1563383850325520;0,8594148

1563383851309940;0,9844208

1563383852200600;0,8906662

1563383853060020;0,8594148

1563383853981940;0,9219177

1563383854950730;0,9687948

1563383859279060;0,8281634

1563383860169720;0,8906662

1563383861122890;0,9531691

1563383861935430;0,8125377

1563383862810470;0,8750405

1563383863685510;0,8750405

1563383864638680;0,9531691

1563383865435590;0,7969117

1563383866279380;0,843789

1563383867232550;0,9531693

1563383868107590;0,8750405

1563383868951380;0,8437889

1563383869795170;0,843789

1563383870779590;0,9844208

1563383871623380;0,8437889

1563383872467170;0,843789

1563383873326580;0,8594148

1563383874326630;1,000046

1563383875139170;0,8125374

1563383876029830;0,8906662

1563383876904870;0,8750405

1563383877858040;0,9531693

1563383878764330;0,9062919

1563383879623750;0,8594148

1563383880514420;0,8906662

1563383881498840;0,9844205

1563383882373880;0,8750405

1563383883233290;0,8594148

1563383884092710;0,8594148

1563383885092750;1,000046

1563383885920920;0,8281634

1563383886780330;0,8594148

1563383887686620;0,9062919

1563383888608540;0,9219177

1563383889499210;0,8906662

1563383890374250;0,8750405

1563383891296160;0,9219177

1563383892218080;0,9219177

1563383893093120;0,8750405

1563383893952540;0,8594148

1563383894905710;0,9531691

1563383895796370;0,8906662

1563383896655790;0,8594148

1563383897546450;0,8906662

1563383898499620;0,9531691

1563383899343410;0,843789

1563383900218450;0,8750405

1563383901171620;0,9531691

1563383902093540;0,9219177

1563383902906080;0,8125377

1563383903812370;0,9062919

1563383904609280;0,796912

1563383905578080;0,9687948

1563383906515620;0,9375434

1563383959549330;1,078175

1563383974175000;0,796912

1563383975081300;0,9062919

1563383975925080;0,843789

1563383981284710;0,9375434

1563383982128500;0,843789

1563383983019160;0,8906662

1563383983878580;0,8594148

1563383984831750;0,9531691

1563383985675540;0,843789

1563383986566200;0,8906662

1563383987425620;0,8594148

1563383988347530;0,9219177

1563383989238200;0,8906662

1563383990113240;0,8750405

1563383991003910;0,8906662

1563383991878950;0,8750405

1563383992894620;1,015672

1563383993660280;0,7656605

1563383994582200;0,9219177

1563383995425990;0,843789

1563383996379160;0,9531691

1563383997254200;0,8750405

1563383998082360;0,8281634

1563383998941780;0,8594148

1563383999894940;0,9531691

1563384000754360;0,8594148

1563384001598150;0,843789

1563384002457560;0,8594148

1563384003410730;0,9531691

1563384004301400;0,8906662

1563384005145190;0,843789

1563384006020230;0,8750405

1563384006926520;0,9062919

1563384007864060;0,9375434

1563384008707850;0,843789

1563384009567270;0,8594148

1563384010504810;0,9375434

1563384011426730;0,9219177

1563384012286140;0,8594148

1563384013161180;0,8750405

1563384014145600;0,9844205

1563384014989390;0,843789

1563384015880060;0,8906662

1563384016739470;0,8594148

1563384017692640;0,9531691

1563384018583310;0,8906662

1563384019458350;0,8750405

1563384020333390;0,8750405

1563384021224060;0,8906662

1563384022317860;1,093801

1563384059835220;0,8281634

1563384060710260;0,8750405

1563384061647800;0,9375434

1563384062538470;0,8906662

1563384063507270;0,9687948

1563384064382310;0,8750405

1563384065304220;0,9219177

1563384066194890;0,8906662

1563384067163680;0,9687948

1563384068038730;0,8750405

1563384068960640;0,9219177

1563384069851310;0,8906662

1563384070851360;1,000046

1563384071679520;0,8281634

1563384072601440;0,9219177

1563384073507730;0,9062919

1563384074460900;0,9531693

1563384075351560;0,8906662

1563384076257860;0,9062919

1563384077132900;0,8750405

1563384078117320;0,9844205

1563384078992360;0,8750405

1563384086273940;0,8281634

1563384087148990;0,8750405

1563384088149030;1,000046

1563384089039700;0,8906662

1563384089883490;0,8437889

1563384090789780;0,9062922

1563384091821080;1,031298

1563384097149450;0,8906662

1563384098024490;0,8750405

1563384099040160;1,015672

1563384099852700;0,8125377

1563384100743360;0,8906662

1563384101665280;0,9219177

1563384102618450;0,9531691

1563384103462240;0,843789

1563384104337280;0,8750405

1563384105321700;0,9844205

1563384106181120;0,8594148

1563384107056160;0,8750405

1563384107931200;0,8750405

1563384108915620;0,9844205

1563384109743780;0,8281634

1563384110618820;0,8750405

1563384111571990;0,9531691

1563384112431410;0,8594148

1563384113322070;0,8906662

1563384123947560;0,8906662

1563384124947610;1,000046

1563384125807030;0,8594148

1563384126666440;0,8594148

1563384127603980;0,9375434

1563384136557520;0,8750405

1563384137370060;0,8125377

1563384138323230;0,9531691

1563384139182650;0,8594148

1563384140026430;0,843789

1563384140901470;0,8750405

1563384141807770;0,9062919

1563384149776890;0,8594148

1563384150698800;0,9219177

1563384151558220;0,8594148

1563384152402010;0,843789

1563384153355180;0,9531691

1563384154198970;0,843789

1563384155167760;0,9687948

1563384156011550;0,843789

1563384156824090;0,8125377

1563384157808510;0,9844205

1563384158667920;0,8594148

1563384159558590;0,8906662

