File	Condition	Freq_int_name	Freq_interval	AF3	AF4	F3	F4	F7	F8	FC5	FC6	O1	O2	P7	P8	T7	T8
14_bolero_1.set	1	all	4_45	236.3868455716264	48.07788395566398	66.38580197222177	648.1867570333783	65.77241462103935	59.82508754274389	60.49068138619683	60.27412931248553	44.36438278346469	48.36894727841849	77.54558362394076	214.4509262292421	72.79572505720706	129.6211362387014
14_bolero_1.set	1	teta	4_8	44.88911608165659	10.82369992083875	12.50659187054447	361.5423328712703	12.38500886411797	20.89370069567677	11.8530331062302	11.27607014795981	9.724950376105857	11.39007210227954	15.31119526460177	76.28454062057693	13.24650941120275	54.42322195403105
14_bolero_1.set	1	alfa	8_13	52.57440635993856	19.35012820982963	28.29170211579904	145.9345055689587	25.59176887506271	20.51143714789491	25.298729029768	27.90466507775227	17.20080785535077	18.51078978200023	31.3242833732138	75.28291948756767	30.65366069026964	43.77391511139987
14_bolero_1.set	1	beta	13_32	98.90057726552412	15.26843125765554	22.77288132972896	117.6035482461971	21.30901898604863	15.13127624082122	19.48842694784139	17.98054566673396	15.02710393274863	15.93428272494733	25.18806248428362	53.04139409166664	23.87422963628408	26.56193116269544
14_bolero_1.set	1	gamma	32_45	40.0227458645071	2.63562456734005	2.814626656149308	23.1063703469522	6.486617895810044	3.288673458350996	3.850492302357228	3.112848420039503	2.411520619259435	2.533802669191378	5.722042501841549	9.842072029430888	5.021325319450604	4.862068010575044
14_fandango_1.set	1	all	4_45	114.7123849879813	69.87162070954545	87.20816273426813	61.67088063956154	80.86073524668831	278.9006854824437	95.23717955214468	181.2878038569997	53.58839892534214	58.363829102092	118.4337679321787	250.8362489865908	117.2559835148622	163.4359352506125
14_fandango_1.set	1	teta	4_8	22.96479518671897	10.52409485600031	11.05446716560234	8.274652628452275	13.45445732012612	51.74974736407624	10.87373557780632	23.24698851570182	8.107907998235303	9.095819394563168	15.84216383072213	33.24205609475766	12.27717934245322	20.88479379790495
14_fandango_1.set	1	alfa	8_13	43.4128581576246	26.3154924325486	38.55567952322804	23.77222754676963	31.64763718873684	61.83185791541451	36.15648731319273	55.03031187561635	19.91535894248642	21.4671330449253	43.3901144671984	74.97676942059896	45.0770018101094	55.73010657806837
14_fandango_1.set	1	beta	13_32	38.35317860184841	25.78535262052727	30.4904739088669	22.96520372610012	26.88853182147968	116.5473706394759	34.89720903451983	74.25890494724877	20.57805152241405	22.20527565716743	43.42247424269304	102.3630556278148	43.18109616741121	62.30361965920738
14_fandango_1.set	1	gamma	32_45	9.981553041789283	7.246680800469276	7.107542136570853	6.658796738239515	8.870108916345668	48.77170956347698	13.30974762662582	28.75159851843275	4.987080462206364	5.595601005436102	15.77901539156512	40.25436784341937	16.72070619488838	24.5174152154318
14_habanera_1.set	1	all	4_45	249.1678161053978	53.86529994312824	77.33422204309329	51.43891533432763	107.3254354309207	73.19896851627229	153.6277819053712	347.3059393021473	73.82141627156986	84.94855320862864	167.355657904966	591.7426839100971	168.7455838549579	307.4993564168675
14_habanera_1.set	1	teta	4_8	104.3401392139236	11.81511565207572	14.06941721138488	12.2970740991732	19.30581321110638	27.83315873435787	31.01647938607735	95.37166873282048	10.43554922681044	10.35839676925357	30.30153838231345	137.6046060233402	24.72566389361573	79.1548755606548
14_habanera_1.set	1	alfa	8_13	87.16151017066923	25.98669133972956	40.82648476766715	21.97215399412654	54.52744051268886	27.98490415571829	88.16825228122144	178.0287050332112	48.0127992453215	58.15998701634353	95.33007595104178	320.3469344935489	105.1405661693079	161.2206448039033
14_habanera_1.set	1	beta	13_32	50.20069743927151	12.59380662669591	19.82152166269911	13.8605410549696	25.85580261860366	14.35263946842851	29.45193343811633	62.56908272448699	13.15728752630456	14.39992964009913	34.55098593023	112.7919836880401	32.49337579530923	56.84938544560355
14_habanera_1.set	1	gamma	32_45	7.465469281533499	3.469686324627047	2.616798401342152	3.309146186058292	7.636379088521771	3.028266157767618	4.991116799956107	11.3364828116286	2.215780273133352	2.030239782932411	7.173057641380782	20.99915970516798	6.385977996725084	10.27445060670577
14_jota_1.set	1	all	4_45	66.38417014397052	35.41273576189882	44.55858540566585	28.01838368842565	63.49923466712904	87.97554050957851	60.94406927460909	57.54507634409082	39.44791474583863	42.17908211028306	84.83035661213239	113.2039897822392	77.38287025917792	70.82485359133403
14_jota_1.set	1	teta	4_8	16.32776394640623	5.953609885473004	6.306017169773031	3.897685769950697	10.57640131194251	38.22674358418616	9.745286659513791	10.53846450350672	8.841600034120809	9.797746442690642	15.31389984326689	19.93309410392147	11.96826578220757	12.56377702281017
14_jota_1.set	1	alfa	8_13	23.14290039487343	14.60027953996378	19.11354303152601	11.00776149876969	28.07468747727196	22.8710965822148	25.48161367003394	22.20205515808735	15.38252336530924	16.5772392079522	33.39947679128311	42.39854526216483	31.10983787706759	27.80390003142597
14_jota_1.set	1	beta	13_32	21.92959882820594	12.7128300833186	16.9918394819245	11.06624404161074	19.01418997390152	21.42093551151719	20.1402805444119	19.96967454569463	12.8896617726267	13.53115453471012	28.24963755273411	39.345398614205	26.7742896693406	24.31509382873606
14_jota_1.set	1	gamma	32_45	4.983906974484924	2.146016253143436	2.147185722442313	2.046692378094524	5.833955904013054	5.456764831660348	5.576888400649452	4.834882136802122	2.334129573781883	2.272941924930105	7.867342424848276	11.52695180194792	7.53047693056214	6.142082708361841
14_pasodoble_1.set	1	all	4_45	51.17929206001601	34.43774206843855	44.6479616670012	28.71329128253211	88.90797083253072	52.45217967085151	48.63398780625146	54.02296589429452	29.05206746229731	29.61079988944198	62.79725193130785	82.84483267970043	57.54787032687015	58.1078159049214
14_pasodoble_1.set	1	teta	4_8	10.45881457299151	5.58605897193633	5.06121293646558	3.927316691666317	28.41608164974679	14.36630612643759	6.319727454703536	6.769259346341959	4.485870021496792	4.567924272351599	9.348493769646751	10.12838836564313	6.207682980770192	7.585872313645877
14_pasodoble_1.set	1	alfa	8_13	20.91326837469691	13.3068776194805	21.7298284083358	12.19334612616499	31.10023812655389	17.81110758498612	19.32140233700461	26.48388139139294	12.08241509358094	12.55660757120065	22.58856607982787	35.46833439176174	21.26605416849779	26.14893971590753
14_pasodoble_1.set	1	beta	13_32	16.61236914916246	13.62193756438855	15.77863267746564	11.06308600683736	23.3178936234978	16.46396362505892	18.86117098034156	17.20095891947049	10.70830406175981	10.70056205165469	24.69267697782469	29.49137802138338	24.30005661638868	19.35967895327173
14_pasodoble_1.set	1	gamma	32_45	3.194839963165123	1.922867912633166	2.078287644734179	1.529542457863455	6.073757432732246	3.810802334368879	4.131687034201751	3.568866237089118	1.775478285459755	1.785705994235037	6.167515104008528	7.75673190091219	5.77407656121349	5.013324922096265
14_petenera_1.set	1	all	4_45	2218.042402660108	103.8807806594504	115.6994125729731	90.22339127780741	144.5765009223788	101.5078549400544	161.9321034333039	1503.891376435556	101.7742901783235	95.0354320971357	176.2096014439279	539.8358367260852	169.398564370027	196.5816321023236
14_petenera_1.set	1	teta	4_8	899.9080027433843	34.85831717276215	42.18417492376133	37.59506390198572	41.90076346137508	44.67640405629872	49.0231191819286	878.4650563479751	32.80775397557638	22.47322806912032	46.8023332165438	179.2443143705312	43.67885943798764	56.63354706441838
14_petenera_1.set	1	alfa	8_13	598.2863185724443	29.18079311108486	40.02375030753513	25.83578414456891	51.64630405046383	26.62898085354943	68.81182613272952	373.2645295378928	43.27546759073115	46.99939893113055	74.90708506060911	222.51054886401	78.29717298888995	87.98131099054584
14_petenera_1.set	1	beta	13_32	623.7322492200252	32.75621132028295	28.8101074984884	22.46326251165705	37.99992244157224	24.10136655715392	37.86502065107406	229.9645307085619	22.20138816001944	22.35813019200042	46.12235003942871	118.7940536205155	40.60744427984493	43.48533661791266
14_petenera_1.set	1	gamma	32_45	96.11583212425387	7.085459055320385	4.681379843188251	4.329280719595734	13.02951096896762	6.101103473052282	6.232137467571719	22.1972598411261	3.489680451996551	3.204674904884412	8.377833127346314	19.28691987102856	6.815087663304466	8.48143742944676
14_swing_1.set	1	all	4_45	63.63727667241913	39.07266637185748	55.84749225850077	32.75580879538354	30.54053865663234	60.31376215599437	58.08576286678276	53.50644855722646	43.27329090319525	42.21291236881386	80.83366052150521	93.61837796114662	77.748258921402	67.19355721171169
14_swing_1.set	1	teta	4_8	14.35720961011426	4.663451313840202	5.626698427146883	3.237636527776624	3.923824669132734	22.3358132746897	7.124159908526459	5.972064934699073	6.900568580635102	6.462386826755599	12.90698160710637	11.03956567547792	8.958745533124938	8.178333522524023
14_swing_1.set	1	alfa	8_13	26.72126926631055	16.4377706585141	30.76155886278011	14.09834306140185	15.08811254332374	18.80717186447043	23.2380925044585	24.37977984169039	19.44299847070856	19.04780990318391	29.85521813640671	38.6347524113075	30.9391264089597	31.69444505677083
14_swing_1.set	1	beta	13_32	19.08220640837798	15.9929427636493	17.46837328829496	13.969239689974	10.29271567550372	16.13951810277386	22.21385606631721	18.99671309239034	15.02936505239501	14.80803812266684	30.04762870980439	34.85459099457854	30.09281833497436	21.72976914359826
14_swing_1.set	1	gamma	32_45	3.476591387616331	1.978501635853886	1.990861680278811	1.450589516231071	1.23588576867214	3.031258914060376	5.509654387480599	4.157890688446656	1.900358799456567	1.894677516207518	8.02383206818773	9.089468879782672	7.757568644342996	5.591009488818584
14_twist_2.set	1	all	4_45	268.7755120650859	270.3412780599679	290.4931148166922	782.4764616852299	260.916261441656	282.7223724360596	262.8583196137805	2399.764626277031	186.726099827211	148.0209351391967	292.0520295126914	1635.456283324979	285.0023251849807	2437.91253695878
14_twist_2.set	1	teta	4_8	96.18840065859209	99.74315770578389	105.3745556636921	358.4015388596802	76.01243354327764	187.5112587741435	79.79200785226521	818.5818378667199	60.720457413597	51.2249848989573	86.66865991464238	551.3346836484437	83.58900611604955	819.003513746167
14_twist_2.set	1	alfa	8_13	90.30840057218867	88.95391565470415	97.46725019781076	205.8107457678801	90.82362716821322	27.85366889538338	98.61122254154493	863.4396362829211	66.94948591115708	52.88206448233706	106.9028664422755	579.521558715555	108.0661332310265	872.5388211579151
14_twist_2.set	1	beta	13_32	70.95066324891951	70.08664537899307	75.1123398849451	191.7193192401854	73.48197919457883	51.28797629297233	71.17750799085397	616.1797067207226	52.21679425256538	38.95645058599936	82.18544778205458	422.6578481744418	77.13019155378291	642.5092487586294
14_twist_2.set	1	gamma	32_45	11.32804758538566	11.5575593204867	12.53896907024439	26.54485781748419	20.59822153558631	16.06946847356042	13.27758122911637	101.5634454066675	6.839362249891494	4.957435171902983	16.295055373719	81.94219278653864	16.21699428412174	103.8609532960687
15_bolero_2.set	1	all	4_45	133.8977959995865	123.0156592882459	66.06427761610152	48.81291966009303	165.4526729842296	141.1323526593453	236.990875903813	54.68131654457896	182.0664804840936	32.34822681855217	42.91247605718727	80.63684182185659	168.1208148018473	205.2414422685642
15_bolero_2.set	1	teta	4_8	21.97240775231801	55.43789324874478	24.38266428018687	21.25640795275473	32.07364868233897	45.4076691118111	78.51232354024819	8.778592510522218	102.6547531522916	17.19535130784285	7.503069110211692	30.95570672070934	62.01602440097083	70.23538001078866
15_bolero_2.set	1	alfa	8_13	10.04597363241965	29.12019371886961	13.3565612163054	9.916351054341492	15.57290913741505	23.4493972909223	28.70210143313611	5.976750742552412	45.80134952978665	4.383422671887624	5.400033534156949	15.72233154719546	28.15171228937851	32.00943527188637
15_bolero_2.set	1	beta	13_32	59.8045165239698	28.34033764756396	20.98528005188889	13.30298959960947	73.13909038322841	49.14424732774864	85.29879292025019	24.41697734267139	28.48708811912751	8.08345631314921	20.38519320082911	25.10768773571326	54.16584396972262	67.07247603984317
15_bolero_2.set	1	gamma	32_45	42.07489809087902	10.11723467306759	7.339772067720357	4.337171053387334	44.66702478124714	23.13103892886325	44.47765801017856	15.50899594883294	5.123289682887851	2.685996525672492	9.624180211989513	8.851115818238551	23.78723414177533	35.92415094604596
15_fandango_2.set	1	all	4_45	197.7354126777047	92.23769439404263	51.57806622785796	61.55562621272379	205.7677187875869	162.3389121543345	134.0733205670832	243.8842820188393	103.8390195094622	270.9413954315658	118.2631938785658	76.77869594340339	186.7367470719252	231.5974718326469
15_fandango_2.set	1	teta	4_8	32.21843370853761	39.02989118834721	14.66926468462886	34.35601393972175	9.832356122205331	33.88192623961653	13.77966744218774	129.5790045389292	49.37113213088252	232.8211099013729	51.07313941841163	27.68836159382662	28.75186025381423	28.7456535929026
15_fandango_2.set	1	alfa	8_13	18.02771992855687	12.8271582031628	6.402532959651445	6.199545236672369	11.12107081944761	14.01190961320417	6.717189276556518	31.01818416336612	21.8900166262273	18.54539229499042	14.69046749607484	9.521645151924856	15.35129324383226	18.97516937615256
15_fandango_2.set	1	beta	13_32	93.87235919706481	26.71629366190169	19.42852397445559	14.40908922578901	112.7603596439817	63.89352904421598	64.95744872047112	54.14077922884982	24.56423334423648	14.09222594343424	33.26279964679034	25.96687769173692	90.52941331168233	106.2208856070938
15_fandango_2.set	1	gamma	32_45	53.61689984354543	13.66435134063093	11.07774460912207	6.59097781054067	72.05393220195229	50.55154725729777	48.61901512786787	29.14631408769425	8.013637408115876	5.482667291768148	19.23678731728901	13.60181150591501	52.10418026259633	77.65576325649798
15_habanera_2.set	1	all	4_45	97.55448739742602	140.5378835890852	52.88411807364674	43.08166695941454	89.95308587748885	126.6178369394792	87.35087520210192	48.10746461701517	169.5532815354706	46.44770257302623	23.86702673379781	74.12553397457206	121.8291825999547	140.0990096135827
15_habanera_2.set	1	teta	4_8	16.55268896887885	60.02088180922352	19.00782708358751	15.99201195299578	13.64661907499952	39.37176422760558	16.42715960877558	7.624803659843533	85.36740162546633	23.45451157074976	3.932274244634697	27.69942956596941	50.4762615076982	56.24101794550862
15_habanera_2.set	1	alfa	8_13	7.971987210149248	39.43755497420559	12.28902001713363	10.21157700480922	12.56136846628966	25.39612769729071	9.458083307616327	5.938688742235142	47.82594950385886	9.599420754381004	3.564729932011949	19.75648291335323	27.28227919598525	33.85330201807054
15_habanera_2.set	1	beta	13_32	46.01247689719328	34.49904135024697	17.3363029968038	13.73699831495119	42.1308237035804	44.44614147494969	38.95562728115071	22.552747224075	31.84243596636158	11.05270194658627	12.49987460350961	21.72275255187639	33.44413083102164	36.92146457172817
15_habanera_2.set	1	gamma	32_45	27.01733432120464	6.580405455409105	4.250967976121806	3.141079686658349	21.61427463261928	17.40380353963322	22.51000500455929	11.99122499086149	4.517494439783791	2.341068301309196	3.870147953641558	4.946868943373031	10.62651106524966	13.08322507827533
15_jota_2.set	1	all	4_45	203.6871660490565	320.8299767987769	83.02068038461618	92.02648005785991	245.6263619440926	242.5180199894718	207.2626018085088	126.7164992296005	307.2166258731138	79.75403134459401	64.48815592837894	151.4963757229308	327.3729907796362	387.9472160789416
15_jota_2.set	1	teta	4_8	25.64365385672433	139.4943051197429	25.40022721653356	40.253908032288	33.73321706604786	74.25220428592381	36.45166058745934	27.72748129363773	178.5809539001933	42.80115644504609	13.04687012276338	63.89418172879544	103.9487209354009	111.8314941827193
15_jota_2.set	1	alfa	8_13	12.81038908500981	63.55333897896108	11.92828059406424	14.02918049599194	17.11710873733334	31.23729746126201	12.48308371142043	15.3568422533818	59.35646026028107	14.85455381725661	9.682281481796547	26.74324839760214	35.56760568393517	41.74733894880589
15_jota_2.set	1	beta	13_32	98.03116928920633	87.95938456119947	30.22660950229188	27.89255723531437	110.7756186513781	102.6070081931113	98.18186380847683	56.49009935820299	57.35391635845599	15.98519084123183	27.09312703846054	44.80286916481847	114.7487866783302	132.310754922212
15_jota_2.set	1	gamma	32_45	67.20195381811604	29.82294813887348	15.46556307172652	9.850834294265615	84.00041748933334	34.42151004917466	60.14599370115225	27.14207632437796	11.92529535418343	6.113130241059471	14.66587728535848	16.05607643171472	73.10787748196998	102.0576280252044
15_pasodoble_2.set	1	all	4_45	139.939324279739	45.53193748627789	44.35598615638163	30.73103102943483	212.5032006924113	160.9803340087272	130.3213439636127	67.7430772821431	36.2981452393805	38.38573170998031	34.10508503906355	37.67527324681137	94.76420592977671	120.3608787031893
15_pasodoble_2.set	1	teta	4_8	19.80066241370359	10.44034697760758	6.222512747549113	6.984205647770271	41.20255728660413	29.37851225523622	8.593654992978802	6.088437633012137	15.37352077661202	15.00813075833102	5.281194391600168	6.682008745431431	14.8289157689451	14.08532301548999
15_pasodoble_2.set	1	alfa	8_13	10.04605548535375	4.291670808811532	3.504551658309505	2.708047209375579	13.91409682302795	13.57922038167645	5.310413832158036	4.339335823372178	5.037814542203307	7.425686458978523	3.876408218708588	4.769623222458366	7.178658168993119	10.85879830419087
15_pasodoble_2.set	1	beta	13_32	64.56771392273754	19.96963971992741	22.54888800577983	13.50847424465986	93.58209192044866	74.46953546183718	56.45705679332723	35.65698146229208	11.40826127005067	12.36750866636482	17.24921251033473	18.11495584717646	45.00686941653789	61.75109479216148
15_pasodoble_2.set	1	gamma	32_45	45.52489245794411	10.83027997993137	12.08003374474319	7.530303927629121	63.8044546623306	43.55306590997735	59.96021834514865	21.6583223634667	4.47854865051451	3.584405826305952	7.698269918420072	8.108685431745116	27.74976257530061	33.665662591347
15_petenera_2.set	1	all	4_45	44.39370696662778	21.04127927341879	31.30214200568939	25.85754110897436	49.20070090860735	30.6103998318364	32.79715747250538	60.99477007325255	17.74353579962231	12.52022922331022	19.71026000971314	16.71953701333654	44.58399913440232	48.5597098821756
15_petenera_2.set	1	teta	4_8	11.85533979090238	7.822757374214446	12.500280428207	7.561431113175678	7.472274060143492	5.215499561991132	5.531164322944162	17.58251640157403	5.904028218225481	3.379342622332916	4.002697242448911	2.793423908250392	5.696757181437876	6.87297026315348
15_petenera_2.set	1	alfa	8_13	5.013178458468317	3.477152610432821	6.130530051844691	5.182219139157933	5.150283789273159	4.105182645542404	2.849214814442134	19.06411938075408	2.666530478915494	2.113947477306606	2.632036117546085	2.572929742748488	4.044855951215437	6.769729794218699
15_petenera_2.set	1	beta	13_32	18.40775998687478	6.998689068972191	9.497096075186912	10.4835649073812	24.39965986296284	14.46439338065963	14.88324483449158	18.16829023373247	7.284820845151135	5.594344253584492	9.376404814029263	8.413385627704962	23.18754705038953	24.3997590211608
15_petenera_2.set	1	gamma	32_45	9.117428730382304	2.74268021979933	3.174235450450786	2.630325949259542	12.17848319622786	6.825324243643234	9.533533500627499	6.179844057191964	1.888156257330203	1.432594870086204	3.699121835688875	2.9397977346327	11.65483895135947	10.51725080364261
15_swing_2.set	1	all	4_45	264.6667316634513	204.007009631356	55.64209477650951	66.86967208697581	220.1229204753267	351.884534519377	130.9855201950193	135.5136088610446	186.971244428819	66.07792254528601	81.27032960314787	107.919479803893	164.9702477531821	218.3245732641757
15_swing_2.set	1	teta	4_8	31.97501204488522	98.32152961464681	17.50707356276551	24.13466935312589	26.94365209984618	117.5728833725689	15.61511028344323	28.25757083012595	111.7639408486992	35.38713204268029	30.03642838490027	44.10105481684577	59.50710872564947	70.08742836125475
15_swing_2.set	1	alfa	8_13	12.85138857239946	42.95485319790625	8.250732883513868	10.35466168845681	18.68252139903208	34.66174384951345	8.929941218546688	15.20528700368265	40.23174983306068	10.43039101725818	16.69927346606879	22.28325562447958	25.39450061090952	34.58174986085872
15_swing_2.set	1	beta	13_32	140.3756141373347	42.26915699299101	23.43496465585369	19.20121163403399	117.6705903477809	114.1313971712069	68.32087884608279	48.93904823647616	29.15036609191845	16.10021824191464	25.47531577671374	30.69575105801322	53.61176122519184	77.65475975595136
15_swing_2.set	1	gamma	32_45	79.46471690883192	20.46146982581192	6.449323674376441	13.17912941135913	56.8261566286675	85.51851012608778	38.1195898469466	43.11170279075984	5.825187655140685	4.160181243432908	9.059311975465086	10.83941830455439	26.45687719143127	36.00063528611089
15_twist_2.set	1	all	4_45	99.43232696346507	40.84812598045703	21.40473620045486	44.09506726192329	68.16892586770902	54.55543988886043	15.32746289698303	39.70141432918047	45.22028740177633	18.76412286837122	27.83733150679025	36.87302414896025	65.74695418122178	68.38301834691447
15_twist_2.set	1	teta	4_8	15.50472821721096	18.08934966989703	6.144083808176133	10.2853831584904	7.63926182641642	14.53358603836079	1.846394538835263	8.166734740700553	23.37923182320799	7.264265507600987	5.08923246902248	10.72216407876113	14.85427824081917	15.26537721770571
15_twist_2.set	1	alfa	8_13	6.925419377645157	6.730536236737465	3.28334256699148	6.720785782890184	6.659389695501924	6.348415500150468	1.549598137321855	4.810415080080833	8.874453671864512	3.174049637941455	4.101427279844825	6.790676094538137	8.162783134142449	8.486326125915864
15_twist_2.set	1	beta	13_32	51.10852847374747	11.01193292442222	9.249393041094228	18.87805147339679	36.77503962645368	22.6317247315788	8.417400282592402	17.40390798493896	10.2948732160077	5.934459511966173	13.51544960759355	15.42290900427678	29.9750240769531	31.66850158040167
15_twist_2.set	1	gamma	32_45	25.89365089486149	5.016307149400319	2.727916784193019	8.210846847145913	17.09523471933701	11.04171361877038	3.51406993823351	9.320356523460127	2.671728690696125	2.3913482108626	5.131222150329391	3.937274971384211	12.75486872930707	12.96281342289121
16_bolero_1.set	1	all	4_45	1047.828765104199	797.5623755921055	1058.71520370046	2580.906780841056	1191.839489294685	1401.852523106186	883.7149591741879	832.7347560232701	1172.112312047683	1112.597970978082	911.617607021197	691.6599949786157	979.5245508603808	3441.218001163801
16_bolero_1.set	1	teta	4_8	87.10140584902057	176.8515907791632	109.2701417348301	400.0615936767421	125.9526968230405	115.3882585298417	123.9076349635234	67.06283887689324	199.8264110726855	146.1678790191055	249.040701791475	106.8127440293361	60.7119243654072	201.328311969304
16_bolero_1.set	1	alfa	8_13	84.3439936411111	68.65205358867642	150.2279853212203	225.9183783465787	127.8600511736771	76.27183277204085	57.14387596317178	114.2258973078651	64.86991489696918	69.450945803978	99.09355055058666	48.3497777464768	139.1757399830303	184.3760575683584
16_bolero_1.set	1	beta	13_32	698.0228295336286	525.914684312635	732.9957423547096	1739.333806940047	801.5746465088407	1047.135058722791	628.1300858790901	510.3840866939783	831.4006846106031	829.4827247724502	535.5777815938748	510.4072443522547	696.6559969814498	2639.287267563215
16_bolero_1.set	1	gamma	32_45	178.3605360804383	26.14404691163083	66.22133428969991	215.5930018776879	136.4520947891266	163.0573730815124	74.53336236840261	141.0619331445334	76.01530146742502	67.49642138254876	27.90557308526058	26.09022885054797	82.9808895304935	416.2263640629232
16_fandango_1.set	1	all	4_45	1022.00631303534	624.2844010437165	912.9949393841106	1423.632755219061	978.8003622288682	1403.567740948087	1038.085964178116	735.1906452390297	1068.860373841997	1078.206003825542	604.0864896147107	604.56592821206	928.9980096837376	1829.350479036231
16_fandango_1.set	1	teta	4_8	45.20202790130125	16.17430503014351	190.9572535897229	80.55083216987518	43.13962805497463	70.04518942450412	330.7825015467834	58.94224970517617	186.1319670031191	204.6775859536197	8.787116033024066	9.652272828702905	36.72601789803178	157.0238829091119
16_fandango_1.set	1	alfa	8_13	48.79996730107572	9.701919785301952	84.75710502440968	157.0167522601384	66.60952231149403	26.74078024401175	32.75365747478115	76.89697695801212	36.93906798213732	48.1858550603525	7.014790326472257	7.244209096038311	132.3607355514987	117.1002061630288
16_fandango_1.set	1	beta	13_32	743.4321474737002	589.4945887365795	574.8279301014013	1050.744194758674	753.384955279173	1143.982706768736	633.8211133315442	499.3882464195935	790.3710959399804	771.265096630626	579.6332742911029	578.4979404199863	688.0268035186316	1365.993973091671
16_fandango_1.set	1	gamma	32_45	184.5721703592626	8.913587491691501	62.45265066857667	135.3209760303736	115.6662565832265	162.7990645108353	40.72869182500691	99.96317215624777	55.41824291676075	54.07746618094411	8.651308964111408	9.171505867332444	71.88445271557565	189.2324168724195
16_habanera_1.set	1	all	4_45	2444.174407266966	2193.06930110296	3283.000928479084	7016.842967670442	2266.354375748277	2275.117044738754	2076.710095704407	2644.42591099082	2162.105122415155	2172.475795456715	2163.514447640501	2158.814921933167	2597.516371207667	7709.904281230638
16_habanera_1.set	1	teta	4_8	97.72971191456789	33.84857155299172	31.47544907006604	98.4558701348253	98.58594595302014	98.87819249976445	18.56569373216389	32.86983883448148	18.33692549333395	18.54501362626185	18.74645212984526	19.70091860180957	30.91151293665691	107.7300296887824
16_habanera_1.set	1	alfa	8_13	85.22092598130519	18.04023981689602	42.19070736832178	102.7682022553879	105.2090571731012	96.68346129137589	11.84712093114435	39.15558570044471	13.06771965948726	12.34186997168728	12.7683238542357	13.4365055291879	49.6643443411029	112.5009576623289
16_habanera_1.set	1	beta	13_32	2079.087257028525	2121.027968157964	3103.443087635349	6604.229209224871	1879.932928619465	1899.756092153227	2026.039375862726	2446.829972370742	2113.302519109243	2124.154707306346	2113.894291337238	2106.436070356	2377.04005473573	7193.641267774672
16_habanera_1.set	1	gamma	32_45	182.1365123425682	20.15252157510835	105.8916844053474	211.3896860553571	182.6264440026902	179.7992987943863	20.25790517837286	125.5705140851521	17.39795815309064	17.434204552419	18.10538031918227	19.24142744617003	139.9004591941772	296.0320261048553
16_jota_1.set	1	all	4_45	1062.793429424958	991.7050759712974	1179.088409551109	3337.493541770308	1215.242785034688	1556.374124665356	774.6137336649573	900.6761676406584	1262.258247392113	1283.0859684385	1249.695775672744	825.1402084904491	1087.790746308949	3954.718617241094
16_jota_1.set	1	teta	4_8	126.6734684315473	355.5856460278808	129.9852298886562	595.776857510861	169.5111189310144	228.4523231687068	85.41585882524947	81.6897953109291	165.1294238168136	133.7508998931075	513.4672340503035	227.368525095811	134.6047550080183	233.0493860089754
16_jota_1.set	1	alfa	8_13	116.7384495716223	148.0186451401343	161.3724536281949	398.2670398710925	177.5249464982432	116.8586213071453	109.2662751162783	131.4310717506617	141.9676427474161	94.87017419747414	219.4519626232262	112.7493002009464	152.6065510616618	317.3065992603001
16_jota_1.set	1	beta	13_32	674.9892046736846	456.9487772257285	806.0715491825574	1966.83295326789	741.5864186838685	1049.245280491601	481.3172013267078	538.375349154963	880.1484286461755	956.3692665402887	480.3449417048272	452.2896271302716	725.4970207738158	2826.449411610295
16_jota_1.set	1	gamma	32_45	144.392306748104	31.15200757755402	81.65917685170051	376.6166911204643	126.6203009215617	161.8178996979031	98.61439839672171	149.1799514241046	75.01275218170818	98.09562780762963	36.43163729438707	32.73275606342015	75.08241946545337	577.9132203615231
16_pasodoble_1.set	1	all	4_45	3176.525189510772	2440.696252614061	1541.412307402278	12148.13150745142	4413.768257022088	3666.562682433688	2566.22099267582	4759.543517750806	2511.893613634396	2549.176596127296	2536.42507636513	2605.227200927352	1570.892942927686	11797.99333972865
16_pasodoble_1.set	1	teta	4_8	79.73846045753928	8.784558715099372	14.45087252440939	149.1187579872219	23.35314830700813	35.90687109842874	19.18906394745974	15.92247256193342	9.139107772706419	9.216862912921584	11.13820724047773	8.653785928583387	10.68095333874152	138.0613581132867
16_pasodoble_1.set	1	alfa	8_13	99.45450805633466	9.651098234697894	14.06991891431542	104.9075529998764	32.49300252974828	48.81925643456491	11.92780076088449	15.62356583071858	8.183002690684837	8.470211078304931	10.11950675459677	6.832304495728922	8.978732652828079	105.2334616341888
16_pasodoble_1.set	1	beta	13_32	2775.005586002508	2403.523559756972	1469.113008735	11629.12126584584	4234.115400304185	3438.538937751959	2518.741521505328	4689.013847971013	2481.484862178321	2518.667355997275	2500.02180435965	2576.157884691144	1531.698801495719	11307.62241129575
16_pasodoble_1.set	1	gamma	32_45	222.3266349943898	18.7370359072924	43.77850722855307	264.9839306184842	123.8067058811462	143.2976171487351	16.36260646214743	38.98363138714202	13.08664099268444	12.82216613879415	15.14555801040644	13.58322581189645	19.53445544039676	247.0761086854265
16_swing_1.set	1	all	4_45	1208.458634729839	783.8395971563009	1190.302552145521	1496.552126248334	1607.501573722271	1180.57342025269	1386.747907350603	1206.960012280194	1371.740894167146	1410.427731377459	782.9949783515697	769.0579908572354	1214.758541047625	1950.564118678519
16_swing_1.set	1	teta	4_8	92.48843893833897	23.16145378887357	99.96192577061214	109.4283335630584	42.36463891313749	68.97563138473275	136.1072802429528	88.65998547385129	175.8508295136504	179.2421021085165	29.09107148066442	25.76045605930294	72.95844261829518	153.1812468348422
16_swing_1.set	1	alfa	8_13	135.0612075281302	11.17519492705436	100.2610134432817	103.1154165120856	66.51193926949126	80.16733062921374	84.49765646492453	112.0110458586504	66.15538098319138	85.44793874655899	12.03574528180542	10.69056193085957	92.12266143639718	166.9305357134572
16_swing_1.set	1	beta	13_32	844.044047887932	734.2838096403846	883.5185301098093	1154.285132954888	1330.727049778577	916.4972710725829	1097.585716554089	909.625841955247	1066.717621406498	1086.718285901393	729.7841054662642	720.0665544750025	930.0457604192668	1441.431642911989
16_swing_1.set	1	gamma	32_45	136.8649403754376	15.21913879998846	106.5610828218178	129.7232432183023	167.8979457610648	114.9331871661603	68.55725408863655	96.66313899244514	63.01706226380583	59.01940462099034	12.08405612283545	12.54041839207044	119.6316765736655	189.0206932182303
16_twist_1.set	1	all	4_45	2714.6791401398	2118.679085183105	2255.730415172683	6201.530142560199	2733.039537037092	2571.840731248856	2199.857423600934	2051.794111205324	2106.732680212149	2108.385067566043	2104.925635809746	2073.832570888582	2086.977997311003	6332.344796844592
16_twist_1.set	1	teta	4_8	97.09132790594207	25.56921388372557	67.63632598958961	103.9317785328339	108.5583448009341	67.60040711229676	25.18015081912109	41.63510625798942	24.45526248172958	21.53501428337434	25.43555069108006	24.00612695733144	68.61251468477947	59.40171774274735
16_twist_1.set	1	alfa	8_13	86.98506460305634	12.16694462601007	106.1527852748529	123.3458551901408	102.5224249670681	71.27903476223487	12.99301139122462	79.1776586710117	12.11514076601796	11.6290662412897	12.68228370413022	12.35253371915748	87.14169156289503	114.0877844054791
16_twist_1.set	1	beta	13_32	2345.3171445819	2058.132092807893	1883.804089463068	5727.070802888581	2345.212369188166	2275.474324604074	2136.531125182122	1747.548102843956	2049.358148700727	2053.679504394338	2042.728569723112	2012.669564968263	1736.835520740991	5912.411300956019
16_twist_1.set	1	gamma	32_45	185.2856030489025	22.81083386547577	198.1372144451724	247.181705948644	176.7463980809229	157.486964770251	25.15313620846631	183.4332434323663	20.80412826367477	21.54148264704158	24.07923169142389	24.80434524382987	194.388270322338	246.4439937403473
17_bolero_2.set	1	all	4_45	311.7938739325264	46.77570409615031	39.90952791808877	27.79610957072182	60.89650442803379	53.82545643203648	38.18743606332453	37.7975863268266	44.83296129789099	43.2821343076463	71.96132579430594	59.68962931393988	47.71509531205315	80.93653547062496
17_bolero_2.set	1	teta	4_8	6.690565775167116	5.095938692177096	4.564010550399209	3.279623447813977	9.09963096968966	7.691791194271916	6.348106095631665	4.142282955145642	3.863284223346248	2.720212752864723	6.24770359635253	3.42128361265907	6.318146706251246	11.91132014214546
17_bolero_2.set	1	alfa	8_13	15.48928991778797	9.642130648179975	8.729998450109917	7.495909108277299	15.9214097331323	15.33733211210613	10.19900913513052	8.255752518345204	15.65618839033129	24.91121868077185	24.72264361050035	26.0270337724911	14.8519715635536	29.26574499688422
17_bolero_2.set	1	beta	13_32	166.5180782756445	25.0070445408092	21.72423727773675	14.35233642703667	26.73486712002208	26.03531050651878	17.67658924595985	22.41528998620769	22.6472586018575	12.3899776014751	32.87564238140238	22.89025069292139	22.08513059060508	34.157864343248
17_bolero_2.set	1	gamma	32_45	123.0959399639268	7.030590214984041	4.891281639842893	2.668240587593883	9.140596605189746	4.761022619139651	3.963731586602495	2.984260867128057	2.666230082355946	3.260725272534633	8.11533620605069	7.351061235868308	4.459846451643219	5.601605988347282
17_fandango_1.set	1	all	4_45	39.12950955454479	34.02906833266652	129.1453476951707	25.03192275510917	39.8190483543778	43.57137787077527	30.57508467914834	43.65925906479715	35.46887092377645	27.4762977071325	55.82009951959391	47.69617580666436	44.5571544216296	61.50032026695253
17_fandango_1.set	1	teta	4_8	7.321331283871374	5.265051459666326	69.43938458218203	3.761201316941952	7.699668799182259	8.352944844676692	4.154527285166093	6.781289910367164	3.884677332125524	2.955913732684995	5.894634841365489	3.829227184562506	7.719745768243553	8.006593251970848
17_fandango_1.set	1	alfa	8_13	9.492737007975755	8.249587792968065	27.05777102329042	7.198281978628463	12.57824927374662	12.73645712778317	7.879030305438572	10.78257045621394	10.22778829693862	12.49775389550947	19.2825956925106	17.35552941229375	12.40698985733475	19.91350149380019
17_fandango_1.set	1	beta	13_32	19.75293474646421	17.90713474171275	29.65709616491595	12.61071077317403	16.86850659311249	19.96589112075693	16.6341616528405	24.28060119043828	20.03272219834924	10.27236207467857	26.28323977567385	20.55609423106581	20.83029079005166	29.68163434398882
17_fandango_1.set	1	gamma	32_45	2.562506516233451	2.607294338319373	2.991095924782313	1.461728686364729	2.67262368833642	2.516084777558465	1.907365435703178	1.814797507777776	1.323683096363069	1.750268004259465	4.359629210043973	5.955324978742286	3.600128005999633	3.898591177192672
17_habanera_2.set	1	all	4_45	128.211451610396	47.47322223117034	862.3207946107403	1405.78989513943	90.06152186070126	49.54579786381211	387.4476602244292	76.21545715491968	47.64724642517591	81.8027041042691	101.4862884103673	75.10629155314493	292.1475928155639	127.3156062725976
17_habanera_2.set	1	teta	4_8	15.73730053553269	12.60460777664385	394.0876154088439	583.9558832117292	32.81675090324765	10.44230189244808	196.1638433811518	28.38252780925677	8.260469280508753	30.95927993667842	12.49701924914254	16.43647469656746	130.3761970891389	47.15626486504517
17_habanera_2.set	1	alfa	8_13	21.71414403637177	11.61451424137123	159.0552821423703	361.2823850080673	24.20160460214	13.73802859991117	98.33450823025751	19.05475104768929	13.68667955082223	28.12515724028197	30.13329705960147	26.85571468689932	73.90239079356695	34.83587144748489
17_habanera_2.set	1	beta	13_32	60.84868193137866	17.4166802936364	226.1869367595445	386.5403210084386	26.81880901397407	20.87157896323803	80.76775811310971	24.98314645400244	22.39730845930579	18.51624388857473	44.26611894748432	23.64918202090617	73.58707834416224	37.12951487914331
17_habanera_2.set	1	gamma	32_45	29.91132510711289	5.837419919518854	82.99096029998181	74.01130591119504	6.224357341339545	4.493888408214831	12.18155049991008	3.795031843971178	3.302789134539139	4.20202303873397	14.58985315413897	8.164920148771976	14.28192658869587	8.193955080924219
17_jota_2.set	1	all	4_45	43.26942881627713	54.88120262968349	29.07422715504836	27.15423554714207	52.6748686620336	46.27711871005572	20.92896640070574	29.62043574899538	42.95675853141535	29.83370177667529	73.20932091254835	60.77475143344246	47.98238877221425	60.30926174381965
17_jota_2.set	1	teta	4_8	12.05821513988743	13.69181963560887	5.788353982629122	4.84688302980139	7.312197071692987	6.498801354287465	2.879897189628061	6.951274279853155	5.028443851997578	4.502552546449126	6.659774352189327	5.360042188853866	17.28342916498102	6.674808041996998
17_jota_2.set	1	alfa	8_13	11.69175437801991	14.28376050350634	8.030779947825456	8.151229758205456	13.28450584338117	13.76070011672567	7.217450509228348	6.490294229236735	12.89009151004845	13.05090350973204	23.83360106948268	25.476008567205	13.03425778704526	20.32387675179331
17_jota_2.set	1	beta	13_32	16.36368225658159	22.71774224569305	13.40123986830095	12.17819852343996	25.35247879693106	21.15858021444552	9.474191679960759	14.17394713315972	23.29892794379177	10.38590583110856	35.25086311401208	24.15799741684042	15.32982987630576	29.50868057318398
17_jota_2.set	1	gamma	32_45	3.155777041788204	4.187880244875223	1.853853356292841	1.977924235695263	6.725686950028381	4.859037024597066	1.357427021888569	2.004920106745772	1.739295225577562	1.894339889385561	7.465082376864263	5.780703260543176	2.334871943882211	3.801896376845356
17_pasodoble_2.set	1	all	4_45	41.36931964988085	41.01866599276107	32.90635352603937	30.58321329242249	60.30214039246881	56.56753662737859	40.29197397401022	42.92132711633582	46.94623693688822	46.95669634256763	73.38743548879347	62.98656988366275	53.72545294355383	77.65857546980676
17_pasodoble_2.set	1	teta	4_8	5.605497722153704	6.272389691634842	3.513763860312049	4.429359938730723	14.90979319187375	8.462583851994305	8.413954011704451	5.655600519523848	3.478228254453584	3.313483462215854	5.745324881987813	4.146948477045605	7.425910016618759	10.38760611607253
17_pasodoble_2.set	1	alfa	8_13	11.60281937701613	10.56140011143146	9.675768859173591	9.669144350572337	17.96257656478847	17.30450410469876	10.41400549936042	10.11867592720707	18.63562858165617	30.35018106642219	28.95018007113492	31.32635637462771	15.56767331896984	26.32467332753712
17_pasodoble_2.set	1	beta	13_32	21.07594021305088	20.9846260738999	18.02739603409076	14.58567444738203	21.8149262814836	27.53219819878787	18.89837950783885	24.86779543162952	23.3497709087014	11.61169332560164	31.68246437784151	21.56045111576347	25.09010050252787	35.64797951965701
17_pasodoble_2.set	1	gamma	32_45	3.085062337660125	3.200250115794875	1.68942477246297	1.899034555737396	5.614844354322988	3.268250471897659	2.565634955106506	2.27925523797538	1.482609192077064	1.681338488327944	7.009466157829221	5.952813916225963	5.641769105437367	5.298316506540097
17_petenera_1.set	1	all	4_45	63.9158273462306	34.28027934939384	759.0280257081877	807.3902427133287	68.49511901649736	52.28645707712661	186.6526588024493	40.14779538165155	62.11020125299375	18.49174448879752	100.5112539917639	73.57520764407971	172.4187991659618	97.93295858685443
17_petenera_1.set	1	teta	4_8	9.641041064760461	5.02750003583272	116.9779080507176	257.985667736291	16.29973029631527	7.979358809462463	78.7854262039711	5.802294466213732	6.373175498848718	2.398780479527745	10.65866795116817	11.73707351297509	62.68662023825094	26.8969104382313
17_petenera_1.set	1	alfa	8_13	14.47290726280999	7.177134375789555	122.0826565384711	218.739009522741	19.45345970661584	15.29505085641346	47.66946142625552	8.13736561509093	19.88728271947069	7.783114217953608	31.56897772199382	24.7388495714559	45.73312649566631	27.53459986359918
17_petenera_1.set	1	beta	13_32	30.47363666913957	17.3096200843915	363.3878626715698	282.5483809898525	26.49721921863778	24.10907953520666	52.59548669438504	22.79912944056069	31.68851519808678	6.783602480758013	46.45059876651155	27.47392809013904	53.83014077040943	37.12976568224519
17_petenera_1.set	1	gamma	32_45	9.328242349520586	4.766024853380063	156.5795984474293	48.11718446444414	6.244709794928468	4.902967876044022	7.60228447783761	3.409005859786195	4.161227836587563	1.526247310558156	11.83300955209041	9.625356469509683	10.16891166163514	6.371682602778748
17_swing_2.set	1	all	4_45	37.89131635950937	49.45081373508935	215.2176371150504	29.15949593624958	48.546679076363	48.85143169791817	33.24354930503285	33.74916205978634	56.89310532468843	37.04174503430215	74.53635612026696	54.15856748053801	41.61729016072482	66.76472017156848
17_swing_2.set	1	teta	4_8	6.355060027596036	10.23799187197215	142.9288885246388	6.107694041916469	11.1240235848515	8.678480731787598	6.433448871396357	5.404378215067155	5.87990331745752	3.733204336990863	7.575012273682381	5.153995940095111	6.593795844300656	8.140095126353987
17_swing_2.set	1	alfa	8_13	11.43936958072581	12.64291203863229	39.96986132044773	8.610869799273457	18.16008000595409	14.86661899793657	9.301383068969734	7.601229784589192	21.75456727169157	19.68673155268404	28.47214729431792	21.81318580056442	12.43845110004715	20.25579724750232
17_swing_2.set	1	beta	13_32	17.9836344628042	23.00296882700447	30.01025045773263	12.93861564332839	16.90307896222048	22.75393525548704	15.6590633439061	19.09398855718853	27.92626912093312	11.97573053273751	32.28538579203894	22.91723556187104	19.64654851978887	34.14170742916041
17_swing_2.set	1	gamma	32_45	2.113252288383321	3.566940997480442	2.308636812231316	1.502316451731269	2.359496523336937	2.552396712706971	1.849654020760657	1.649565502941468	1.332365614606226	1.646078611889721	6.203810760227723	4.274150178007442	2.938494696588148	4.227120368551776
17_twist_2.set	1	all	4_45	89.41127058260889	43.70762470009715	105.832812679069	37.96606170388175	46.10358858074182	50.52072680516618	113.491451757223	58.0657129042376	45.0684175994073	41.51577198488842	71.5019924735672	55.18678221208228	72.48923385360047	139.2120401161744
17_twist_2.set	1	teta	4_8	28.47874184848949	8.600153563969144	63.96597399212197	8.569416368719708	8.61620871565764	9.53450084192264	61.87227907563086	9.508638351104995	4.87078584313821	7.830814092344037	8.558408960798982	6.36054480010889	23.5527423286456	41.81829769272967
17_twist_2.set	1	alfa	8_13	16.82121653015243	9.820977519546554	20.80556388679153	9.187873293254736	12.87293610639015	13.15645674674048	23.3471964576423	11.3415367202971	15.43807998680013	19.88795960814031	20.53878663254984	20.33642695419843	14.68344363232112	41.66796177039871
17_twist_2.set	1	beta	13_32	31.94372645207957	21.52092877945995	18.65909358014119	17.77144499604861	20.39325584173856	24.27975013430934	24.96482432990564	33.2451363353678	23.10619454656317	11.93535900183373	34.00047367574369	21.92459730644154	28.08707405199111	47.30325403059076
17_twist_2.set	1	gamma	32_45	12.1675857518874	3.765564837121496	2.402181220014305	2.437327045858688	4.221187916955472	3.550019082193725	3.307151894044214	3.970401497467711	1.653357222905782	1.861639282570344	8.404323204474693	6.565213151333422	6.165973840642645	8.422526622455237
1_bolero_1.set	1	all	4_45	36.00226966464944	86.03092275252092	35.26785583771898	25.47331601597171	132.7028011474624	208.8760708722663	70.28456635338793	56.82859337629664	53.2531242912525	506.9985078615231	88.76689160589538	84.20897739540644	135.7897951199292	182.0945826441835
1_bolero_1.set	1	teta	4_8	12.55275002853688	44.82298008720338	9.596857976996528	5.712476827849411	62.74747032422837	127.0477279189233	17.52978037104662	16.30070596144728	13.23799427138162	287.9967995369365	29.61792676241041	17.92995491243236	24.50210417885302	32.76011418381754
1_bolero_1.set	1	alfa	8_13	11.86185151047143	20.49520394769507	12.96171915013882	8.214821536472638	31.14196144594233	47.80582540346718	16.29691348355887	12.77118944719487	16.86780556645292	51.65291883090266	29.09012088550572	37.77659795501664	40.93996336198308	51.11547381771525
1_bolero_1.set	1	beta	13_32	9.424629248830698	16.41675725725079	10.56898722216085	9.130688927233365	26.51543502769373	26.7064846740749	24.46914023954962	18.53682728001782	19.60555259839327	152.5648559477032	25.14592531090994	23.28562348659017	48.8419657659659	65.39644390159374
1_bolero_1.set	1	gamma	32_45	2.163038876810425	4.295981460371685	2.140291488422786	2.415328724416301	12.29793434959802	7.316032875800884	11.98873225923282	9.219870687636663	3.541771855024701	14.78393354598086	4.912918647069303	5.216801041367258	21.50576181312718	32.82255074105697
1_fandango_1.set	1	all	4_45	41.11588884612038	74.96610946409442	46.39448331363089	33.02299071036818	108.2383150349118	94.48356294259762	59.53238066171049	42.68654087826413	39.43074489974632	64.61373284807166	179.4785950444202	163.8343089942296	154.2357701612103	207.1903370438675
1_fandango_1.set	1	teta	4_8	9.363874661763056	22.41131465611327	9.986341874079521	5.087566969161907	47.80812899750448	36.74287185152168	10.70363386719753	6.748873303056731	11.34572355736358	8.20413373548458	64.08782733411584	17.67324536574075	19.91991069850844	20.39285121755476
1_fandango_1.set	1	alfa	8_13	20.75288663975734	34.69751827294461	24.50393083170557	14.36468160826967	28.7896739800453	35.09031655539651	20.34463816154099	14.12690664481509	16.21144797238955	32.7976056242278	78.13313109490153	118.6183532475142	54.55830653730368	58.03546137993253
1_fandango_1.set	1	beta	13_32	8.739964083382642	13.94501974954127	9.696165824094031	10.14384834769413	20.7959116806198	17.31707727954285	18.26845553230022	13.96522539681499	9.301634498346875	20.48347592145318	30.9241599172823	24.15699247895845	54.03007537201327	88.05032451842266
1_fandango_1.set	1	gamma	32_45	2.259163461217341	3.912256785495283	2.208044783751764	3.426893785242467	10.84460037674221	5.333297256136567	10.21565310067175	7.845535533577317	2.571938871646317	3.128517566906092	6.333476698120489	3.385717902016143	25.72747755338491	40.71169992795754
1_habanaera_1.set	1	all	4_45	41.51523039256357	81.69939442274881	43.82438793770891	32.82609849647876	112.9811814630289	117.3045651320818	60.97726533854852	46.23288628401277	44.49063029609125	63.19666206240538	223.6690257569139	175.0504017505017	131.5007110821086	311.2584055842906
1_habanaera_1.set	1	teta	4_8	9.599271766658823	27.02508715982145	8.398176244666539	4.706188214525485	56.05909697812674	51.35908671717232	14.83297352641942	9.628548764543645	13.53912695707148	7.911862481269814	91.48005861727918	17.69202506519309	16.77422485859421	24.78597135455786
1_habanaera_1.set	1	alfa	8_13	20.03548822445757	31.81371633521109	22.23706878887409	14.43735274690768	29.5353289303299	39.67145941577778	20.45825179827002	13.77670663105386	17.94701086795285	30.99319564098818	90.0909642756003	127.0225208733024	39.80709391393624	70.80270413348197
1_habanaera_1.set	1	beta	13_32	8.931099244507259	17.92133919404447	10.55513379416379	9.870150952705142	19.98641858708197	20.77054285953972	18.97102955975958	15.34304396565974	10.56809926192983	20.98427902718618	36.65631449861129	27.07630655853043	50.39404148360018	151.8741344659802
1_habanaera_1.set	1	gamma	32_45	2.949371156939906	4.939251733671812	2.634009110004484	3.812406582340448	7.400336967490286	5.503476139592015	6.715010454099511	7.484586922755526	2.436393209137096	3.307324912961203	5.441688365423136	3.259549253475791	24.52535082597796	63.79559563027053
1_jota_1.set	1	all	4_45	37.85163056818418	82.87570803931797	39.95746574096873	43.85827282894886	52.24200551530615	71.35475154522177	36.54160460632863	37.35845898788433	56.91514670801513	46.05025118463539	124.4790316313487	176.2166975478706	190.29561578329	124.1149368083205
1_jota_1.set	1	teta	4_8	5.670661096351387	25.63101282960787	5.092311244146031	12.47910173916362	17.72692236686885	19.50214489794704	6.137585029940721	4.339538092842624	7.292738866019768	6.469438536648354	31.53630847216345	13.53967788948777	11.18435250134625	18.15022855176916
1_jota_1.set	1	alfa	8_13	22.66391756155738	40.55651376533709	24.48874068895735	16.97828916714226	19.53817778711369	29.76965296566896	15.01460194602134	10.17669930813716	20.72029705018222	21.13210181686303	52.41599499582324	136.3174941324509	35.06353302974709	49.66692887727863
1_jota_1.set	1	beta	13_32	7.584184924947258	14.10349882355972	8.308659573985857	10.55451264064704	11.58913592822563	16.78369554568428	11.68658830914982	15.50134074273008	22.91165271812554	15.81336411849184	30.07210026925018	23.49692751301336	89.96293008547676	42.55238385247725
1_jota_1.set	1	gamma	32_45	1.932866985328153	2.584682620813301	2.06775423387949	3.84636928199593	3.387769433097973	5.299258135921492	3.702829321216755	7.340880844174468	5.990458073687599	2.635346712632153	10.45462789411183	2.862598012918596	54.08480016671987	13.74539552679546
1_pasodoble_1.set	1	all	4_45	53.31869241483503	84.82651680687682	59.37586456468271	42.94090328421458	99.65848730365289	118.038696269489	71.23097432872871	44.69014936951027	38.3870369615442	83.76518669649366	159.9248242365234	280.3436296121799	120.9316371768543	125.9703765915351
1_pasodoble_1.set	1	teta	4_8	8.762757289041819	20.956032827584	8.280817192555075	5.322909006411734	32.48743853133152	50.89656647604958	12.0413859201058	6.846805552567312	6.121284914778035	9.087406689640325	24.54170819742493	22.9930224824065	13.51968403639312	17.07216670374399
1_pasodoble_1.set	1	alfa	8_13	33.26434174315027	46.18880681630276	38.05995037847021	24.31129059143202	38.6235076348194	46.049766512422	31.21048819504976	18.25211692013925	20.9687038633781	49.11339822523669	96.6700077271271	221.4023726858688	43.27945549111727	70.31161159660445
1_pasodoble_1.set	1	beta	13_32	9.433855343324739	14.37763146542157	11.0218141852673	10.50724640322774	21.07608684772999	16.57606578784906	19.65540765672215	13.41032964750823	9.296557203474858	22.41191929916445	32.83539393829429	32.23572727960628	44.99914614898336	32.1539223769344
1_pasodoble_1.set	1	gamma	32_45	1.857738039318205	3.304045697568496	2.013282808390135	2.799457283143088	7.47145428977199	4.516297493168412	8.323692556851015	6.180897249295477	2.000490979913195	3.152462482452188	5.877714373677019	3.712507164298348	19.1333515003605	6.432675914252247
1_petenera_1.set	1	all	4_45	71.0675316092524	88.32141054106927	88.40201289946447	42.83729944143405	86.95603527232819	101.8332448696242	71.23638706240445	41.90015319460585	90.42652251394838	82.23844924719324	124.4233490749989	240.1523837247598	87.77713760281344	140.1880328388966
1_petenera_1.set	1	teta	4_8	21.40704810950052	26.88156998385949	28.4193896588194	7.049424053764504	29.78805213838277	37.45961580960292	17.94980143139887	8.762843904965267	12.85706524313336	11.51400641650526	15.54183039313987	24.42993191468369	17.5121385714744	38.30026320266219
1_petenera_1.set	1	alfa	8_13	37.26457843657698	44.66654350855192	44.6664457369333	25.30018852462139	36.64280809530096	42.16994869625322	28.93411761782951	17.39826704112557	47.98228001072905	45.68588110853443	80.70065556840623	179.5421415412506	45.43442455554143	71.3762795614355
1_petenera_1.set	1	beta	13_32	10.7286780916675	14.30407700688851	13.19762497464177	9.067627530430787	15.86482571770443	18.79363665399621	18.91085915157085	11.69267573438702	26.87009249234976	23.0767121657778	25.19373535758063	33.22089399537239	20.17625100935834	27.39912299987186
1_petenera_1.set	1	gamma	32_45	1.667226971507391	2.46922004176937	2.118552529069994	1.420059332617373	4.660349320940044	3.41004370977186	5.441608861605227	4.046366514127987	2.717084767736213	1.961849556375756	2.987127755872144	2.959416273453217	4.654323466439277	3.112367074927111
1_swing_1.set	1	all	4_45	47.71119255257745	82.17824185393249	50.54304745698714	96.12297883293166	73.42029902764281	76.85629481869992	50.68672229721662	37.18100083595245	128.6708130868244	68.00900147716567	168.8837818596147	233.7248176140669	103.4845612305344	201.7595544676573
1_swing_1.set	1	teta	4_8	10.22373819969937	21.13895983249898	9.944809048173374	55.34089158283756	24.89789430771715	25.39059026747324	11.61625855954307	6.335174027298216	45.9116265600399	8.456080946482526	67.16750601391769	23.41262035206982	18.15396453095749	29.51593005607231
1_swing_1.set	1	alfa	8_13	27.21174717287706	41.95534035289032	29.72096546562262	28.46771276181329	30.84979160394108	31.63990015010627	23.32860879574672	14.30801432736163	52.31361610399856	36.01899849230033	67.32086014516459	179.474626891047	32.90579149954846	62.04336567123627
1_swing_1.set	1	beta	13_32	8.836268050489327	15.88471080492849	9.364145286171784	10.30206348054912	14.81167304149164	16.3491206887615	12.71120901117348	11.92022336232408	27.14002921896182	20.97124102464518	30.94576633043228	27.47201041660799	40.36999806321748	84.42967903654412
1_swing_1.set	1	gamma	32_45	1.439439129511699	3.199230863614703	1.513127657019363	2.012311007731701	2.86094007449294	3.4766837123589	3.030645930753348	4.617589118968524	3.305541203824119	2.562681013737623	3.449649370100225	3.365559954341996	12.05480713681097	25.77057970380466
1_twist_1.set	1	all	4_45	47.87480181841497	95.91037844161406	51.19940993392736	32.75181848476726	69.80557287702587	106.0714355214962	54.30683377327374	41.09245951495288	119.3482827679283	66.32567739423538	153.5064584765851	203.4943267367863	106.9107137031824	314.4857122726146
1_twist_1.set	1	teta	4_8	8.065006724675349	33.30087580114294	7.161885999901349	3.347498061623026	22.11493732927512	42.12570902729887	10.01911665773911	6.302741967305552	38.63841847573019	8.170043677891391	47.85952002729093	16.72768352984363	15.07474002921605	23.12928858745596
1_twist_1.set	1	alfa	8_13	29.21129464363756	44.77930273444015	32.38201519925878	18.65735507384431	30.06272993821656	37.62803779591761	25.08863810684878	15.16254244988611	52.72946208826337	35.03031636708495	75.1475527358257	156.4879260229904	33.23596315046552	64.02204124604347
1_twist_1.set	1	beta	13_32	8.739678970410555	14.85646524828906	9.538899225349834	8.24653148992665	14.14219645927782	21.31075929767085	14.82208891990986	13.63803270876756	24.72350264355791	20.25209667875033	27.00012445906849	27.12932494078817	43.19405621483322	152.7545175647184
1_twist_1.set	1	gamma	32_45	1.8588214796915	2.973734657741912	2.116609509417396	2.50043385937328	3.485709150256364	5.006929400608887	4.376990088775983	5.98914238899365	3.256899560376791	2.873220670508702	3.499261254399998	3.149392243164089	15.40595430866761	74.57986487439679
23_bolero_2.set	1	all	4_45	23.60439782497547	1.055409630021614	20.64917591296482	3.261308184072686	18.1093978227123	16.24041701348502	9.882297557085895	0.9488274813561283	6.095392194136728	5.266146170895874	12.97345326149887	42.23621225520345	6.536325273986317	0.706514519993344
23_bolero_2.set	1	teta	4_8	0.0001619600907051915	8.594446862332981e-06	0.0001426810661413883	9.154516147404039e-05	0.0001265843915646016	0.0001139177278903614	6.679399417367934e-05	7.825608704411454e-06	0.0002143960310218422	3.701758538207794e-05	8.770993375938714e-05	0.0003083104023183922	5.177258103075489e-05	5.589033418480402e-06
23_bolero_2.set	1	alfa	8_13	0.0002770758701081982	1.252555494344421e-05	0.000242492043471827	6.678403950033772e-05	0.0002126991239171753	0.0001911346803260903	0.0001159818624475653	1.164808625923953e-05	0.0001430806038379584	6.188054529657964e-05	0.0001521417296029907	0.0004974020342551962	7.749341654090954e-05	8.507799829493384e-06
23_bolero_2.set	1	beta	13_32	23.60289051812607	1.055340785693082	20.64785643887364	3.2609954020668	18.10823912591686	16.239377097092	9.881667960729015	0.9487648374202375	6.094737926926937	5.265809061111695	12.97262687886721	42.23349577140576	6.535900273836361	0.7064683732496996
23_bolero_2.set	1	gamma	32_45	0.001068270888589224	4.772432672581649e-05	0.0009343009815624347	0.0001544528049118524	0.000819413279964947	0.0007348639848019376	0.0004468205002595185	4.317024092710441e-05	0.0002967905749307557	0.0002382116535010714	0.000586530968301096	0.00191077136111263	0.00029573415238388	3.204991039638974e-05
23_fandango_2.set	1	all	4_45	23.59778657731668	1.055109503716964	20.64339862974911	3.260372199483188	18.10423046566933	16.23584414147766	9.879471386435629	0.9485585741358946	6.093736233310068	5.264640510075491	12.96975382497064	42.22425198740041	6.534466374301693	0.7063137956508752
23_fandango_2.set	1	teta	4_8	0.0001670135466686928	9.456072478751857e-06	0.0001477852467372947	9.384376491750492e-05	0.0001299937224213759	0.0001178935454293861	6.822943013628984e-05	7.935788006566335e-06	0.0002185416356373808	3.823013362691938e-05	9.100451280130012e-05	0.0003230481512465231	5.630248982136847e-05	5.810820345523504e-06
23_fandango_2.set	1	alfa	8_13	0.0002787590244359293	1.263796383405681e-05	0.0002440693172621445	6.731865298102465e-05	0.0002134675068533794	0.000192238669996193	0.000116645355345625	1.165840387874336e-05	0.0001438776512621535	6.216152653553108e-05	0.0001534611296733763	0.0004997614639103008	7.811995958338777e-05	8.539372031318496e-06
23_fandango_2.set	1	beta	13_32	23.59627203333783	1.055039693675186	20.64207221196219	3.260056692712589	18.10306739779409	16.23479887909483	9.878839852830058	0.9484956944714388	6.093074973924335	5.264301839649155	12.96892312436957	42.22151763283328	6.534035950974399	0.7062673782123932
23_fandango_2.set	1	gamma	32_45	0.001068771407737492	4.771600546527248e-05	0.0009345632229197121	0.0001543443527004206	0.0008196066459634319	0.000735130167398208	0.000446658820089211	4.328547257049457e-05	0.0002988400988337677	0.0002382787661738697	0.0005862349585976626	0.001911544951982293	0.0002960008778886317	3.206724610514283e-05
23_habanera_2.set	1	all	4_45	23.59778255364335	1.055109666564088	20.64339476359703	3.2603730464121	18.1042401739797	16.23584227114272	9.879477440188184	0.948559085159015	6.093735427684371	5.264642647709477	12.96976061141304	42.22425325644873	6.534466846712309	0.7063142717428936
23_habanera_2.set	1	teta	4_8	0.0001672891723589081	9.427200488311807e-06	0.0001480393610338857	9.383344012934639e-05	0.0001294588752904575	0.0001180101924936259	6.791429655136796e-05	7.929454575010625e-06	0.0002187195011296082	3.809945019687878e-05	9.061130856291325e-05	0.0003227579183454448	5.623629844370373e-05	5.781212412233488e-06
23_habanera_2.set	1	alfa	8_13	0.0002793063164909425	1.26263264605738e-05	0.000244569985805107	6.740117435498894e-05	0.0002129176496388039	0.0001925576568439917	0.0001163364938963947	1.165230212214571e-05	0.0001441064932098858	6.20412757064264e-05	0.0001531349144984306	0.0004998088463201843	7.817049860563634e-05	8.509033055111734e-06
23_habanera_2.set	1	beta	13_32	23.59626856372198	1.055039893558622	20.64206882522845	3.260057780636228	18.10307718447244	16.23479742423657	9.878845987672488	0.9484962021846218	6.093074069980522	5.264304048926671	12.96893017616021	42.22151973480202	6.534036598545765	0.7062678531719753
23_habanera_2.set	1	gamma	32_45	0.001067394432515479	4.771947851651013e-05	0.0009333290217411498	0.0001540311613874104	0.0008206129823295655	0.0007342790568189242	0.000447201725248576	4.330121769599039e-05	0.0002985317095094421	0.0002384580569027533	0.0005866890297690265	0.001910954882041809	0.0002958413694947212	3.212832545109786e-05
23_jota_2.set	1	all	4_45	23.59148692211968	1.054827804359564	20.63788844853485	3.259500387784522	18.09938601416862	16.23150872314993	9.876828621470246	0.948304372285092	6.09211264938887	5.2632316663776	12.96628790460412	42.21296548967594	6.532721563131261	0.7061250127215245
23_jota_2.set	1	teta	4_8	0.000170730423977376	9.879450526317494e-06	0.0001515250977702834	9.550272592837235e-05	0.0001316729456504789	0.0001202449656841929	6.912552366564022e-05	8.00579268391234e-06	0.000223524075629337	3.887989653623597e-05	9.35447982438656e-05	0.0003304458750420071	5.834888246350479e-05	5.906726436403677e-06
23_jota_2.set	1	alfa	8_13	0.000279168479670768	1.270957645058223e-05	0.0002444921952461963	6.780470508541097e-05	0.0002138817517429459	0.0001925676851127907	0.000116695485236718	1.16840608370793e-05	0.0001446796998103216	6.235068358597076e-05	0.0001536356318295274	0.0005015969930229351	7.834732503195685e-05	8.542330460277304e-06
23_jota_2.set	1	beta	13_32	23.58996803349658	1.05475755237849	20.63655784584943	3.259183392567242	18.09822093496711	16.2304606195939	9.876195765024704	0.9482414156938818	6.091446117634419	5.262892302184252	12.96545405517436	42.21022367794268	6.532288635402007	0.7060784572735287
23_jota_2.set	1	gamma	32_45	0.001068989719460915	4.766295409701984e-05	0.0009345853924067784	0.0001536877862655198	0.0008195245041148469	0.0007352909052331444	0.0004470354366384334	4.326673768931563e-05	0.0002983279790114418	0.0002381336132251829	0.0005866689996958855	0.001909768865196015	0.0002962315217590918	3.210639109917092e-05
23_pasodoble_2.set	1	all	4_45	23.59028134353226	1.054780575780197	20.63682614931376	3.259369875376072	18.09856841514148	16.23070604509363	9.876400535659748	0.9482555633191503	6.091748069520712	5.262996762542453	12.96573830628073	42.21091837504429	6.532412998508496	0.7060932038828664
23_pasodoble_2.set	1	teta	4_8	0.0001775655642974893	9.783095737839109e-06	0.0001579799225563814	9.653523729330046e-05	0.0001331708087412226	0.0001226868294118438	7.274365557356045e-05	7.970307080810968e-06	0.0002326262884750699	3.933703135361481e-05	0.0001022126239413233	0.0003270454950859453	5.748055840294285e-05	5.97951091224487e-06
23_pasodoble_2.set	1	alfa	8_13	0.0002786542169883984	1.266365667433926e-05	0.0002438546968165247	6.732643580962042e-05	0.000213633307175104	0.0001924074955237812	0.0001165967809664288	1.16625581393952e-05	0.0001433670442268085	6.219213907718434e-05	0.0001532096225053658	0.0005003041453886404	7.835293037957029e-05	8.557785139797415e-06
23_pasodoble_2.set	1	beta	13_32	23.58875673989683	1.054710375514758	20.63549005066312	3.259051573799518	18.09740161206556	16.2296560629732	9.875764382687205	0.9481926528215749	6.091073579257907	5.262656802309246	12.964896446616	42.20817877588417	6.531981239368732	0.7060465945306112
23_pasodoble_2.set	1	gamma	32_45	0.001068383854142019	4.775351302731438e-05	0.0009342640312652302	0.0001544399034511213	0.0008199989599987645	0.0007348877954928643	0.0004468125360052731	4.327763235519014e-05	0.0002984969301029436	0.0002384310627760604	0.0005864374182825294	0.001912249519654686	0.0002959256509817166	3.207205620304871e-05
23_petenera_1.set	1	all	4_45	23.59228521293841	1.054866807868625	20.63858309811631	3.259627833419017	18.10005936649162	16.23207196217987	9.877200556826796	0.9483377189596365	6.092289306234721	5.263429505070853	12.96677470001718	42.21447477907292	6.532957322024489	0.7061508868320133
23_petenera_1.set	1	teta	4_8	0.0001719860815256043	9.506827989956453e-06	0.000152379149606612	9.4705284549633e-05	0.0001313750941140034	0.0001202665251324559	7.056893668339469e-05	7.941392088772869e-06	0.0002230370444764967	3.863137340535599e-05	9.621262636888942e-05	0.0003232691180976044	5.647826782599262e-05	5.884518333338043e-06
23_petenera_1.set	1	alfa	8_13	0.0002785753066606205	1.26349553096262e-05	0.0002438663008425617	6.732828294044705e-05	0.0002134119784992787	0.0001922062800841476	0.0001165754554692293	1.165655350406317e-05	0.0001437958404849571	6.213977124354281e-05	0.0001532835668747515	0.000499641352464047	7.814894454019456e-05	8.538677243848316e-06
23_petenera_1.set	1	beta	13_32	23.59076611925089	1.054796961144306	20.63725246319797	3.259311502620924	18.09889521187717	16.23102456834266	9.876566872881845	0.9482748666157962	6.091623842396997	5.263090546347404	12.96593908915267	42.2117409334552	6.532526873823867	0.7061044029609135
23_petenera_1.set	1	gamma	32_45	0.001068532299341748	4.770494101888295e-05	0.0009343894678899551	0.0001542972306026404	0.0008193675418406588	0.000734921031987256	0.0004465395527985898	4.325439824751067e-05	0.000298630952762215	0.0002381875788010996	0.00058611467126507	0.001910935147150991	0.0002958209882547731	3.206067552269975e-05
23_swing_2.set	1	all	4_45	23.59873114019864	1.05515904158873	20.64422231363464	3.260528752728788	18.10504278940684	16.23651751864944	9.879906671724308	0.9485981992411494	6.093929386014935	5.264883486908499	12.97031595324613	42.22614120739848	6.534759577116525	0.7063442898951837
23_swing_2.set	1	teta	4_8	0.0001663692628084335	1.001165447060341e-05	0.0001474723973576515	9.48597329723904e-05	0.0001312485127884626	0.0001187270195247591	6.731425562378916e-05	8.008085318131214e-06	0.0002180458365455973	3.874312210954801e-05	8.899156488159109e-05	0.0003330094939839398	5.932063356600806e-05	5.906299821392642e-06
23_swing_2.set	1	alfa	8_13	0.0002781144446830813	1.268788411089629e-05	0.0002434976050722321	6.742023653207122e-05	0.0002133547360985919	0.0001921002785116705	0.000116239833379849	1.165853555672216e-05	0.0001431827683603433	6.217487993742461e-05	0.0001525623258226268	0.0005009115227083966	7.846182659712882e-05	8.528383627490899e-06
23_swing_2.set	1	beta	13_32	23.59721825988132	1.055088654484489	20.64289714857097	3.260212284931231	18.10387891254783	16.23547191811383	9.879276712541241	0.9485352682720265	6.09326885285121	5.264544439709461	12.9694884393021	42.22339686331889	6.534326097605648	0.706297787205735
23_swing_2.set	1	gamma	32_45	0.001068396609828097	4.768756565940226e-05	0.0009341950612375921	0.0001541878280527683	0.0008192736101234907	0.0007347732375729687	0.0004464050940624151	4.326434824788062e-05	0.0002993045588177546	0.0002381291969903247	0.0005859600533246981	0.001910423062901408	0.0002956970507129371	3.206800599969931e-05
23_twist_2.set	1	all	4_45	23.59695302313065	1.055082056579405	20.64266724678751	3.260290427181005	18.10369791662877	16.23529946909647	9.879167125124241	0.9485266940851138	6.093458438215808	5.264495003586114	12.96934348160654	42.22302555968193	6.534275558817058	0.7062914548457591
23_twist_2.set	1	teta	4_8	0.0001672892477766425	1.051969600112939e-05	0.0001485983562873676	9.606376826270262e-05	0.000132759691221697	0.0001201145902639873	6.720296638502711e-05	8.071165322401222e-06	0.0002193308034286055	3.93297104592315e-05	8.886485549416036e-05	0.0003418803562917835	6.199933927589583e-05	6.009084816221661e-06
23_twist_2.set	1	alfa	8_13	0.0002783746707336595	1.274265546522703e-05	0.0002437504663958	6.759694566850814e-05	0.0002135404365026876	0.0001923963936583273	0.0001162748398253831	1.166250839529772e-05	0.0001429923232938162	6.226232399769049e-05	0.0001525734427830252	0.0005021202550690469	7.880843794435478e-05	8.534084098406456e-06
23_twist_2.set	1	beta	13_32	23.59543905675744	1.055011124478573	20.64134084962712	3.259972687773738	18.10253248564662	16.23425232290483	9.878537419953716	0.9484636797962898	6.092796058793219	5.26415534957992	12.96851629907556	42.22027159148534	6.533839154789456	0.7062448390506796
23_twist_2.set	1	gamma	32_45	0.001068302454705185	4.766974936520317e-05	0.0009340483377081614	0.0001540786933349426	0.0008191308544202576	0.0007346352077221128	0.000446227364313575	4.328061510640723e-05	0.0003000562958657463	0.0002380619717355838	0.0005857442327046132	0.001909967585224523	0.0002955962503818764	3.20726261647666e-05
3_bolero_1.set	1	all	4_45	172.6173404923013	146.7868624055623	198.3384317239157	170.3621970655942	384.9301909626997	442.5258741763387	525.627538286489	692.9635611477502	182.1357250904512	107.6490073083015	199.7911012456132	96.16199761094828	791.8236281837824	303.3736396884261
3_bolero_1.set	1	teta	4_8	25.74103482142919	57.34886520356316	23.9626481129563	14.86753791728509	19.30973295204605	12.25188604708961	13.33537393552231	7.561314722942665	34.29305582240126	10.64724532182337	13.96187690829893	10.81971266092632	259.3504384818513	13.50351304098331
3_bolero_1.set	1	alfa	8_13	14.76382903931569	19.16234795687151	15.85910283078564	15.55218472317149	21.04853821233075	24.55622064100129	21.60001019444735	32.38118224380476	51.57941782121266	40.7596401304929	32.89603806876353	24.65561356719699	84.04251903521049	21.49517976368612
3_bolero_1.set	1	beta	13_32	82.94739505084772	44.10977997341722	100.868466288395	89.25439493784896	211.6832887374144	248.6667760649114	287.7783482079493	355.7834632657826	64.69270843196506	39.96642054397323	94.99050792968359	40.36336851416682	278.9402964963818	169.1874780938735
3_bolero_1.set	1	gamma	32_45	49.16508158070872	26.16586927171044	57.64821449177877	50.68807948728865	132.8886310609085	157.0509914233365	202.9138059485699	297.2376009152201	31.57054301487224	16.27570131201202	57.94267833886712	20.32330286865816	169.4903741703388	99.18746878988311
3_fandango_1.set	1	all	4_45	172.5756847961057	109.6893625799714	187.2127650129792	117.1657152164696	401.6534238662717	250.9731467692973	561.7879819442667	280.3403336623692	404.5064955190318	135.6907937107007	266.0519631556124	100.9008833345536	507.9303802794632	189.8909294301756
3_fandango_1.set	1	teta	4_8	12.61118363966778	25.72435332431666	12.20610272763659	11.83896575975738	25.56287606861276	18.26659495551769	19.26309722792119	9.808875903957542	164.494171174262	11.63430820120296	17.11955642709115	9.835421129184086	91.95325716014028	12.90254461337334
3_fandango_1.set	1	alfa	8_13	22.45276500151405	28.1034809223184	18.79009473990549	21.08947414182634	37.38990448828838	26.03939108852448	29.7655758194277	20.38281458327791	132.1375723696705	75.61391159667485	64.92186596236388	44.94626331988786	56.49681077308802	21.09818709687851
3_fandango_1.set	1	beta	13_32	82.60342977396178	37.57554933847985	101.9568788665385	52.84652432499288	213.8223271846342	115.2311021446461	324.0443769015708	159.1973167343779	81.11464682485365	37.35210444536168	114.533719098827	32.49075973922738	250.2058010365613	104.6185224406147
3_fandango_1.set	1	gamma	32_45	54.90830638096213	18.28597899485645	54.25968867889854	31.39075098989299	124.8783161247364	91.436058580609	188.7149319953469	90.95132644075591	26.76010515024562	11.09046946746124	69.47682166733031	13.62843914625425	109.2745113096736	51.27167527930904
3_habanera_1.set	1	all	4_45	101.8442151586501	82.52186060942387	89.0333648333918	74.98573251225773	194.5412185994947	167.1389925049248	285.2864072742016	182.4688997091313	310.8809322933131	122.8867331460679	128.788746606829	78.71234729118714	162.9931725421866	101.4331546901024
3_habanera_1.set	1	teta	4_8	6.770389514585705	14.55293274754781	10.49667722682548	7.563424695198685	23.00962898074063	10.79238044570245	10.67319596188705	7.582045818215342	131.8032840609359	10.70842644492645	11.16694982297258	6.596379928234059	37.97681381425024	12.18187064028192
3_habanera_1.set	1	alfa	8_13	23.44906865278752	25.93606548476522	11.31886470410859	18.65353928229573	23.59433661175392	23.17244668637488	18.88337767544488	11.11419927263809	112.5026243129944	74.55194504199989	54.20231505738627	34.73507953927937	26.53938703630209	15.3125283643606
3_habanera_1.set	1	beta	13_32	43.12644482804536	29.52617430938749	40.32516313181002	32.77670416657384	83.74403242338147	73.88262278942595	161.0107856449085	94.91737592245121	53.97116236323407	30.22097051578065	42.99310953967078	27.10039541231682	68.41677295004496	50.06735130747722
3_habanera_1.set	1	gamma	32_45	28.49831216323155	12.50668806772337	26.89265977064772	15.99206436818947	64.19322058361874	59.2915425834215	94.71904799196115	68.85527869582664	12.60386155614876	7.405391143360937	20.42637218679938	10.28049241135689	30.06019874158937	23.87140437798271
3_jota_1.set	1	all	4_45	249.9601616122621	154.1603925773874	311.2767704792428	180.2913199040489	599.9312533583376	490.2581376028739	1001.499736375291	647.5636144297114	355.6722387845103	158.1197092120004	291.4288089786276	121.7375769567848	624.4606980595925	228.1125128774652
3_jota_1.set	1	teta	4_8	12.2496950185316	27.29887409351286	12.87588911202103	8.430140669404508	24.04419513354075	15.37221278978809	16.27329114618196	8.673305022081362	101.622157371691	11.46998213945623	13.11947218739508	7.625545204028055	100.2979279406551	12.25317944859277
3_jota_1.set	1	alfa	8_13	23.62836559796661	27.39469944577583	19.42693627433568	22.32729914087808	30.38888676171342	27.12280639697005	41.24672528227077	25.29560603671117	107.5860216566968	76.69206390077279	66.87778770753872	44.38306151675081	54.15451197981722	22.29647333438004
3_jota_1.set	1	beta	13_32	121.7424094706887	61.63267589735168	155.21394430313	90.39207213011593	304.9251474120108	261.9878160850674	517.1731883234768	364.1205133051956	96.02636617292387	48.55443165079278	131.102169405235	44.87373368252756	293.088890845887	113.9837482371537
3_jota_1.set	1	gamma	32_45	92.33969152507527	37.83414314074697	123.7600007897562	59.14180796365036	240.5730240510727	185.7753023310483	426.8065316233615	249.4741900657233	50.43769358319869	21.40323152097864	80.32937967845882	24.85523655347842	176.9193672932332	79.57911185733865
3_pasodoble_1.set	1	all	4_45	52.26756872458424	59.96293812457174	40.40315152165049	46.57755462669581	46.49805302190445	47.50138450357284	56.11052853430446	39.07896893651655	192.5833425192696	107.5542384722407	90.60611202398505	65.22052206346839	116.7804177303859	63.64351054806419
3_pasodoble_1.set	1	teta	4_8	8.427246523609448	15.78836215015893	7.290038729082545	7.179667500738155	7.496891767009278	6.872857160821431	4.923385860655989	5.600504933532157	72.02708472480566	9.653633053790168	10.62968274069913	7.713129460231384	46.2348743906008	8.922354860018913
3_pasodoble_1.set	1	alfa	8_13	20.22950793798057	23.09822959343328	9.662778047785588	16.16760493243011	13.95626526205386	17.86405110721825	11.98598712229782	9.383314501734956	83.69974273438463	65.72295355761352	47.63376811599507	32.95171364589743	22.98411636661649	14.9155947926411
3_pasodoble_1.set	1	beta	13_32	19.34712880323491	16.91998076049632	19.83001916548841	20.165894820878	19.19244592962112	17.24269203713997	25.32703583243296	17.40639704351511	32.60541837605848	28.72703620768454	27.72882419753499	21.60414992521235	38.3821421803562	32.47280495983503
3_pasodoble_1.set	1	gamma	32_45	4.263685459759308	4.156365620483205	3.620315579293947	3.064387372649538	5.852450063220184	5.52178419839319	13.87411971891769	6.688752457734329	4.251096684020824	3.45061565315241	4.613836969755866	2.951529032127211	9.179284792812371	7.332755935569143
3_petenera_1.set	1	all	4_45	86.64494536856147	84.83709878124743	85.31073856780196	68.06191112539786	134.7528093947525	113.6753833718861	201.6190386215096	112.1310000413064	265.7378098531734	142.4013308980257	129.7333739010386	89.89272139328773	217.5700425808139	99.56220675797064
3_petenera_1.set	1	teta	4_8	9.460715559099238	22.21608835471751	9.291682199542382	7.329784871798473	7.134651757153728	7.080453623991847	5.853495709005172	5.815297718292182	97.8942754052957	11.52718958573336	11.85791301681022	10.55701505218583	54.18054685629154	11.17959985977681
3_petenera_1.set	1	alfa	8_13	26.42431895785983	29.30221985777527	13.92183921381241	21.7392547431526	20.27901826003153	22.51791578467295	20.7055967728619	13.09346074177365	109.3858615689011	93.2926669559252	54.23210575013086	46.90969382744824	28.5707335203885	15.46007552270854
3_petenera_1.set	1	beta	13_32	33.48068363116676	24.48522796796492	39.72056239564917	27.97764457801721	64.53799413922543	53.30191265810726	111.8787396008836	53.92566980310959	47.79895988480413	32.08909769475906	45.67578714411343	25.92058328469732	95.83365790336165	51.17942111518676
3_petenera_1.set	1	gamma	32_45	17.27922722043564	8.833562600789724	22.376654758798	11.01522693242958	42.80114523834185	30.77510130511409	63.18120653875886	39.29657177813097	10.65871299417246	5.492376661608112	17.96756798998411	6.50542922895633	38.98510430077219	21.74311026029853
3_swing_1.set	1	all	4_45	151.0028694904859	107.6975899497499	237.1441507984744	114.5832984364774	368.3198470856998	259.8148930427852	617.045246996739	316.5238961495501	428.167112827096	135.4991807626857	210.0879894364098	105.1808729316553	447.6182030041095	174.8838305732256
3_swing_1.set	1	teta	4_8	13.03750698310822	18.85314610396435	44.36085738525771	8.809489134982892	17.70893666486657	12.93006729125065	14.69288509870022	7.615683237969749	198.7069691131802	13.35724325809236	12.24460267847581	15.86985575516012	99.94779868642829	14.70824197990157
3_swing_1.set	1	alfa	8_13	19.90105408692953	27.24915989240234	24.66514721018459	20.39187528270104	28.18472542060191	27.43299582428638	19.46258639871092	18.52358637472881	131.1646481750861	70.26377198620364	77.15412627701576	40.65771631335809	54.48537526124534	27.89146424411233
3_swing_1.set	1	beta	13_32	61.38442782672523	40.05899856427546	111.2582040379115	55.45942128697232	197.5160931005275	127.2378448090477	378.0138717248276	164.0556901230328	69.95705818652797	41.38941901811619	75.17530943881015	34.41906794959216	157.7964306456804	82.25851473160299
3_swing_1.set	1	gamma	32_45	56.67988059372288	21.53628538910775	56.85994216512063	29.9225127318212	124.9100918997038	92.21398511820048	204.8759037745002	126.3289364138187	28.33843735230165	10.48874650027351	45.51395104210809	14.23423291354494	135.3885984107555	50.02560961760868
3_twist_1.set	1	all	4_45	193.5007902484504	145.7619374773976	193.2236638236564	122.1500006949971	426.3277326708574	371.1266695657241	694.9908700923492	318.3197622500835	229.7188749430318	133.8971672832909	217.1965298191378	98.27473275067777	1003.974786178765	181.6757449647314
3_twist_1.set	1	teta	4_8	14.80638261294926	41.57869267565712	18.35471327685294	14.08150533188019	40.80742089709288	72.04291849205893	15.35147612983381	10.73811880653927	55.72043873432182	13.91628807562579	15.42759291826286	9.356472458566447	266.4866566109988	34.23882059848994
3_twist_1.set	1	alfa	8_13	19.27124406216314	23.52123406964623	12.72569167044012	15.67860585068106	29.50748274246748	22.31953139812059	23.04052674450541	17.97795462419226	79.25814250644484	67.50086759662781	52.02519562647561	36.2499295675144	190.1837931896607	21.97438380086596
3_twist_1.set	1	beta	13_32	96.23080397050265	57.76630346484097	107.0707161542456	62.5875064967403	239.468032129037	150.3702816464979	428.8373391038608	164.6180346824741	66.72590671004579	41.64701986232612	89.82193240686333	37.88133667527156	375.5606293903526	81.03735993766594
3_twist_1.set	1	gamma	32_45	63.19235960283528	22.89570726725331	55.07254272211776	29.80238301569561	116.5447969022599	126.3939380290466	227.7615281141491	124.9856541368778	28.01438699221938	10.83299174871117	59.92180886753604	14.78699404932537	171.7437069877525	44.42518062770954
4_bolero_1.set	1	all	4_45	33.08362319834971	61.99928623306698	35.60028827603011	23.30016609447286	108.0861390327959	51.89713496119624	224.8507774368007	61.47291895074577	17.44983463151353	18.67546287140269	34.01250399104035	22.13095328550561	163.1597829497002	36.98930979788848
4_bolero_1.set	1	teta	4_8	8.547097904211631	30.58667328881381	3.627262858918337	3.905634710199457	24.96899369995737	5.758452562862743	24.12011947298848	4.896256078085329	3.399150184901987	4.596227660692465	6.33488205142765	3.14803721286275	40.60490767984919	3.123567721656653
4_bolero_1.set	1	alfa	8_13	4.478411630214666	11.42370091563123	2.641125598099455	2.960456584418696	15.12281177654824	5.880141938129057	10.50342202252393	5.372352605666935	3.705284632176414	3.6007631112406	8.246017556027818	4.635451977437475	12.0127025399163	5.5093357505217
4_bolero_1.set	1	beta	13_32	12.18146445142781	13.5383249658227	13.88319977273498	9.293708952766242	40.71337327822804	23.08794121875538	99.81240274302513	28.12856617280768	6.29992603200392	6.47254111658183	12.04663912187305	8.451848772310807	57.22261051386755	16.89320613946714
4_bolero_1.set	1	gamma	32_45	7.8766492124956	6.450587062799253	15.44870004627733	7.140365847088462	27.2809602780622	17.17059924144907	90.41483319826314	23.07574409418583	4.045473782431204	4.005930982887799	7.384965261711827	5.895615322894577	53.31956221606719	11.463200186243
4_fandango_1.set	1	all	4_45	46.32882694980769	91.85930436990927	49.05839656654022	44.09271273588342	209.6723265896317	70.49661672389283	203.3857379936588	41.95026748681513	15.99162112239098	16.67042453880508	24.83116561716218	23.04084541046947	65.85584681517818	29.8734598921107
4_fandango_1.set	1	teta	4_8	13.30970546225718	17.91614947303195	3.902599024702432	3.236471848602136	69.09127928692075	5.218866066880256	28.80210116395199	3.963970593547205	4.127138929314642	3.536979015196349	5.813784405845823	4.329119396995534	7.400881931778795	3.874325833592714
4_fandango_1.set	1	alfa	8_13	5.456758067939951	6.507201290019992	3.867782304289762	3.366240581500417	38.12274420012869	5.01716100164284	13.43875478003029	4.498027323491566	3.101300583123183	3.126247656869441	5.859893465177642	4.534977865799961	6.788041041103877	5.207981365044494
4_fandango_1.set	1	beta	13_32	15.50026441239621	36.39662375267413	23.24954204928581	20.58038203813304	70.8929222055725	34.60342696115236	91.50565780478405	21.10811325734754	5.272145916413873	6.234955688580967	8.393880136445455	8.946627050794312	29.33083536518697	14.00194709201146
4_fandango_1.set	1	gamma	32_45	12.06209900721435	31.03932985418319	18.03847318826222	16.90961826764783	31.56538089700981	25.65716269421737	69.63922424489252	12.38015631242881	3.491035693539282	3.772242178158323	4.763607609693256	5.230121096879659	22.33608847710855	6.789205601462031
4_habanera_1.set	1	all	4_45	75.10326240403916	65.52809792580982	67.87188039252393	47.69616741479433	1653.210289832619	73.47258839262781	328.5777125053128	101.6202601678461	29.43093288419884	32.01292692548422	44.64897644037192	38.55864183541924	137.2669385418015	47.55330719143888
4_habanera_1.set	1	teta	4_8	23.46059103211059	25.08092801642416	11.07775283613147	10.10599476992226	989.6391075604462	9.706596138740721	45.55934928682316	9.591772904033251	10.04490041350135	10.14584969026013	11.79121504434438	9.054796800575058	26.26761367247995	6.373471830790704
4_habanera_1.set	1	alfa	8_13	10.26447584385157	8.004686851120518	5.827283287859681	6.24672637095428	282.355830268429	7.270577965298515	19.43117606378376	7.125807857565185	5.169280221791213	5.624964260714059	10.68691388922933	7.884331818873555	14.00622677376435	7.489367614637737
4_habanera_1.set	1	beta	13_32	23.30261013665029	20.73997645776245	26.3058007957317	19.78092887177064	315.8498793858118	33.94194316282243	137.2869680615401	46.1577574520103	8.91074994124995	10.26044294430111	13.99396532858498	13.13640175419157	55.62027666510859	20.58531131902522
4_habanera_1.set	1	gamma	32_45	18.07558539142669	11.70250660050269	24.66104347280109	11.56251740214715	65.36547261793217	22.55347112576614	126.3002190931658	38.74492195423734	5.306002307656327	5.981670030208921	8.176882178213223	8.483111461779046	41.37282143044858	13.10515642698521
4_jota_1.set	1	all	4_45	42.84776927542563	31.52248478286617	37.68912455881136	27.30586854657381	149.1971675848577	55.68495896277341	18.46244499877751	71.37568657486689	13.53305104070356	16.76933547112789	27.25964474611582	20.61018508307533	134.8099282589786	31.71775086877207
4_jota_1.set	1	teta	4_8	14.89766740014701	10.88620238566877	4.643220861361993	4.557841578540772	32.90836217752603	2.601851071810436	2.7201699908542	2.435572367553019	2.830327216096257	3.281679484788378	4.865340387180802	2.682400758198791	4.233553097873612	2.809025334916128
4_jota_1.set	1	alfa	8_13	6.838051617744238	5.715405143167409	3.106783770659827	2.725416625893027	29.33047180329188	4.691423150504958	3.555728404316064	3.475103945750186	2.611350758257782	2.468849425537498	5.458252856031342	3.468145868921744	5.017607874565837	3.914690329673392
4_jota_1.set	1	beta	13_32	12.45360979114682	9.654203099261693	17.16278019843363	11.17708867897394	56.0917436041627	28.31028551568259	7.040205339456607	31.71105802047957	4.773211244056931	6.259148160479803	9.6316565920707	8.246214652721637	51.2307249731474	14.41570816579367
4_jota_1.set	1	gamma	32_45	8.658440466387567	5.2666741547683	12.77633972835591	8.845521663166068	30.86658999987713	20.08139922477543	5.146341264150635	33.75395224108411	3.318161822292589	4.759658400322209	7.30439491083297	6.213423803233156	74.32804231339173	10.57832703838888
4_pasodoble_1.set	1	all	4_45	48.6805240323771	66.7426730460862	48.89488505433589	42.48451553003194	160.8483468675444	45.60771287368725	218.9926424386973	43.29770950164176	17.2005782576429	16.21590406744433	31.87702815073482	21.81879750677783	48.03499963040079	31.67778680887839
4_pasodoble_1.set	1	teta	4_8	19.13304109583607	25.17384124830964	3.419808767993099	6.111726800519287	43.80530986496457	4.655202616361704	3.804962731224426	5.044547185127582	4.064465240236055	3.37811320415033	9.936716218940312	3.655415651568941	14.97106770927694	3.521283054218915
4_pasodoble_1.set	1	alfa	8_13	5.483725176222014	8.034480246399934	3.205198850335804	6.252357792813325	28.24241416204867	5.653848166319248	9.800276104248503	4.350238966822918	3.561973450497535	3.507474898931093	8.582502378176383	5.019401023280925	7.595528584964955	5.411964143410628
4_pasodoble_1.set	1	beta	13_32	15.0620891669679	20.28972103914451	23.26659674174495	18.24335996987281	56.78532385312039	20.33483050514126	113.0112492611817	20.14399840769178	6.084028430229754	5.592895266300577	9.355447363749391	7.896716363556765	16.00833174572504	14.75914367965997
4_pasodoble_1.set	1	gamma	32_45	9.001668593351118	13.24463051223212	19.00328069426204	11.87707096682652	32.01529898741078	14.96383158586503	92.37615434204261	13.75892494199949	3.49011113667955	3.737420698062333	4.002362189868734	5.247264468371198	9.46007159043385	7.985395931588878
4_petenera_1.set	1	all	4_45	180.6276227559858	126.4597169371444	14.16047441812911	42.3330543821252	176.0472301070415	22.1593746712915	18.12103544752904	20.62984074800426	13.40244379045472	11.62505804351922	24.44518980363062	17.42685835721595	22.9019768000863	26.18137674220636
4_petenera_1.set	1	teta	4_8	149.2467344131	88.32454235259576	4.434240748861399	8.505000563579177	100.8845583982425	5.193086686520274	2.35444387803364	5.309681083709053	3.834528095777133	3.840057307852361	5.941220817537792	3.974773635362926	4.652225370918311	4.938016215682083
4_petenera_1.set	1	alfa	8_13	15.18270126896712	13.9301803619954	2.761793194654971	7.535609013752695	32.98999351694463	5.185164645756602	3.451167880876012	4.224473427340453	3.984002552960695	3.235586464961807	8.915608909151821	5.953108704556791	7.383319409778265	5.917120011274931
4_petenera_1.set	1	beta	13_32	11.2090957008106	15.51170142466121	4.515407446266563	18.32386094832177	33.18615171460941	8.325745186038139	8.29502002966702	7.542704001766797	3.739078805353993	3.119887050243168	6.851850563567648	5.084376335300397	7.590163904171876	10.35361311836406
4_petenera_1.set	1	gamma	32_45	4.98909137310808	8.693292797892024	2.449033028346172	7.968583856471559	8.986526477245015	3.455378152976487	4.020403658952366	3.552982235187958	1.844834336362901	1.429527220461887	2.736509513373354	2.414599681995831	3.276268115217842	4.972627396885286
4_swing_1.set	1	all	4_45	57.9595188460362	92.32136435649841	48.03627232674874	41.83021405759055	166.7547314504153	71.46533309692548	215.8227874782871	61.34388744834088	16.0916842150149	18.1226568408844	40.79424014393052	26.46532042624925	68.87696945063212	35.77782787085017
4_swing_1.set	1	teta	4_8	26.59311054080908	18.44396516552318	4.358239676410861	4.369781962691517	54.32660141712424	4.895818966005177	5.265999931680738	3.234125113220907	3.472978847892711	4.176457266738389	15.90995799759517	4.43982213286201	10.11912538129252	4.929864043121055
4_swing_1.set	1	alfa	8_13	6.480487389305313	8.41235068325642	3.80643993718745	4.722896744912307	29.15383153419967	7.297974787426396	9.322418679304857	6.082687975064376	3.250036256613467	3.914604438947186	8.07018423929026	5.592127123085705	7.363796359267911	5.728891125937896
4_swing_1.set	1	beta	13_32	14.19431900963826	36.91943266282827	21.09605991578983	19.32712676389531	53.27727470326522	35.45466024741296	109.3979167372736	27.95562085439438	5.728246034819522	6.093443252606801	10.96621729781068	10.18919302848046	27.7272614967287	15.36780815841765
4_swing_1.set	1	gamma	32_45	10.69160190628355	28.54561584489053	18.7755327973606	13.41040858609141	29.9970237958262	23.81687909608094	91.83645213002791	24.07145350566121	3.640423075689205	3.938151882592029	5.84788060923441	6.24417814182107	23.66678621334298	9.751264543373559
4_twist_1.set	1	all	4_45	93.19902892597848	185.176826213813	49.23755377992454	31.63895020470682	328.3790311974497	51.16380177565623	250.4931569681298	59.80708341688455	20.04302079056005	20.58905157479586	36.64672618815093	29.97774003941484	40.6089915337971	38.48272803386152
4_twist_1.set	1	teta	4_8	40.34717864007366	96.79330570744	8.238203358819961	5.551384872916632	161.9209766365219	8.577075078536302	48.93553190658738	7.314576540511528	6.90324055365706	5.584394611725653	13.02865056375821	5.842718484233343	7.874077933538527	6.602224837764755
4_twist_1.set	1	alfa	8_13	8.44767126439694	11.39080364173145	5.275770986834159	2.860929028159805	55.02933881904562	5.49106973483378	19.82121478821778	5.12755926416269	3.204251928487487	3.700649229737873	8.78331031472116	6.772348642812699	5.509686083223457	7.097236825980699
4_twist_1.set	1	beta	13_32	21.12264700845395	37.8537422455973	21.56952584188883	12.88096185405984	81.52442607453997	21.55415853691572	105.4214497209687	27.36939903936108	6.122900338102994	6.618728355536199	9.637714936026661	10.26317365572728	14.31449711157207	15.14382242247282
4_twist_1.set	1	gamma	32_45	23.28153201305393	39.13897461904426	14.15405359238159	10.34567444957054	29.90428966734216	15.54149842537043	76.3149605523559	19.99554857284925	3.812627970312509	4.685279377796137	5.197050373644902	7.09949925664152	12.91073040546305	9.639443947643251
7_bolero_1.set	1	all	4_45	28.14905712622369	26.62848875201919	81.69735500220439	13.52421151465408	30.4701674399966	48.36128843237868	16.81409271039026	18.66617867052987	16.98505666436132	19.48940914264898	36.05849670018618	28.0837226002598	45.05207165835731	134.1172651874033
7_bolero_1.set	1	teta	4_8	5.230097186393376	6.371428493616881	36.52654420175868	3.335289707641243	4.594379382134265	8.095982781545503	2.144565572931798	2.409951328565906	3.271640165110457	3.067759754711604	6.155879764444759	4.048793866025646	5.720207554817963	20.80058709171539
7_bolero_1.set	1	alfa	8_13	4.597556517751001	5.730181464247163	18.27918199397843	2.177679015816874	5.32165734346965	8.912164543895685	2.670361582336629	3.558308900973346	3.162096569635946	3.691723909052421	6.973036879216809	5.451255646825134	8.556577683410955	23.20053601833235
7_bolero_1.set	1	beta	13_32	14.88827227202646	11.64974208151614	20.9320652201876	5.995373028270778	13.70908248323779	20.30485978546448	8.503490811799519	8.331289972700544	8.441834572356667	10.62782919431026	16.72446481958283	14.75083657846713	22.32104684109946	57.93969253199683
7_bolero_1.set	1	gamma	32_45	3.433131150052851	2.877136712639	5.959563586279675	2.015869762925188	6.845048231154896	11.04828132147301	3.495674743322316	4.366628468290072	2.109485357258245	2.102096284574703	6.205115236941791	3.832836508941894	8.454239579028933	32.17644954535881
7_fandango_1.set	1	all	4_45	234.6702691668497	133.540145586977	2710.156695640644	100.5894779631853	369.8619737364386	160.5194315003521	80.17190327343317	255.8000839867737	166.1975089054404	148.340446617021	3435.224319108237	134.9566068512496	228.8197349426104	3519.109902943114
7_fandango_1.set	1	teta	4_8	26.37343172440252	16.26945138724249	304.5624844714463	18.48356925364614	46.21054685974352	20.69369383182521	6.957454221949518	101.4036992445107	24.197764298453	14.72393114398926	361.2493486899207	16.48155372393706	20.53473657735904	438.8695569881111
7_fandango_1.set	1	alfa	8_13	83.39011766593559	48.34943685384001	1080.214139571644	34.1616959151818	129.5472963100765	53.56121145735532	20.5455746616735	59.97065009212464	57.2980252149414	48.1384793379387	1267.150818160455	44.85151917130781	63.29929747284149	1219.36760484594
7_fandango_1.set	1	beta	13_32	94.86406840989351	55.76206406935331	1002.771022428739	36.93836912246934	143.7823961286704	63.12540751308249	36.88941655671812	74.44243387661449	64.70279409592911	62.66224356632862	1361.099509025278	55.9761996899412	103.9894698785544	1496.476291246667
7_fandango_1.set	1	gamma	32_45	30.04265136661806	13.15919327654121	322.6090491688145	11.00584367188802	50.32173443794824	23.13911869808912	15.77945783309204	19.98330077352387	19.99892529611686	22.81579256876442	445.724643232584	17.6473342660635	40.99623101385542	364.3964498623965
7_habanera_1.set	1	all	4_45	41.87453718969172	27.73816523421222	56.10863916780721	19.39625656943405	38.95438785059453	111.7162922137644	19.07347003921782	20.50092575185048	23.40134826479068	18.67390761934415	40.06214888651218	34.76086122540423	35.88315020283537	133.1016804903401
7_habanera_1.set	1	teta	4_8	9.553383542116944	7.198452508006385	18.16037156571296	6.584057824806651	5.179227083680935	45.51111065774687	2.333109770025423	3.948644222666226	6.509051823896161	2.673121785779349	9.074810218957838	5.920169390996142	4.745557952167434	40.74009796037501
7_habanera_1.set	1	alfa	8_13	7.433922360728531	5.309270670301114	11.1796491140282	3.094194187381491	7.024275528588399	25.77883976241449	2.727250680645013	4.645272745822403	3.891651154454475	3.398500418458942	8.261703695785286	7.976797812155977	7.55004454111076	32.4509358727387
7_habanera_1.set	1	beta	13_32	19.98604956741661	12.07121065070009	21.07041188987657	7.550477752954003	19.17409052891497	31.33484381122691	9.554456155096066	9.575544186444404	10.47955452540967	10.53472624766396	17.56172117343832	17.69358791260017	18.40397752491059	49.21345725418323
7_habanera_1.set	1	gamma	32_45	4.901181719429634	3.15923140520463	5.698206598189481	2.167526804291908	7.576794709410224	9.091497982376136	4.458653433451315	2.331464596917445	2.521090761030365	2.067559167441894	5.163913798330732	3.170306109651931	5.183570184646586	10.69718940304315
7_jota_1.set	1	all	4_45	93.62670909299476	58.00874352845101	298.6019336097887	116.2161327183851	105.5934144270102	162.7468957669519	50.18913565344661	193.8355420326151	52.54433356029941	50.49722754506926	474.7914458973931	62.05588080608747	148.9872741597868	2023.42718213413
7_jota_1.set	1	teta	4_8	33.13348015645511	15.80627132510607	91.04871150497843	53.81089676137691	27.17463922993682	14.86820314078295	7.225716867931563	17.11913727457343	12.32487841195488	9.538749882593445	168.3125013895272	9.308279953281779	9.963050392160113	128.4025809010898
7_jota_1.set	1	alfa	8_13	14.67006054953369	7.692112228285761	72.50481793211824	24.12146922756128	21.98165882934612	12.80548421854233	5.595465606388913	13.24487509631219	8.04704037716311	8.300467087951844	105.2186987553549	12.02749630809403	21.56881178920801	101.9879075181216
7_jota_1.set	1	beta	13_32	35.65129687546035	28.19903746368594	109.497567675475	31.59353431090656	40.63672536386395	86.11888948279362	28.48182001310228	91.31780201034228	26.13541530192929	26.89343229778647	155.5153407152688	32.12433648084	75.76666387831827	1687.100756944276
7_jota_1.set	1	gamma	32_45	10.17187151154561	6.311322511373238	25.55083649721703	6.690232418540313	15.80039100386329	48.95431892483296	8.886133166023862	72.15372765138721	6.036999469252141	5.764578276737504	45.74490503724209	8.595768063871652	41.68874810010043	105.9359367706426
7_pasodoble_1.set	1	all	4_45	933.910923813411	610.3289377862468	2989.66319893739	2460.703829019142	1312.258687382129	907.2441956034979	622.2101183074274	1154.153436539791	1595.680718127615	804.1457231815489	3477.297885236552	639.2242188365142	908.4720359301677	3235.721966871576
7_pasodoble_1.set	1	teta	4_8	72.26476947267759	78.57126641417238	227.2326948027256	192.4203957885959	92.19829959915137	71.4613182276675	53.03313145625908	113.90537303621	66.7506908867185	61.92824864393418	416.8963122405161	63.65144652181149	80.61440850066731	174.2450660015463
7_pasodoble_1.set	1	alfa	8_13	42.15583109165296	67.75365471979043	108.826517229405	132.4034338275152	61.62075591407909	76.12695270748385	50.79788933140598	89.80765219889761	41.84154309042403	67.94921069824481	291.6167645114745	58.60784140162685	66.68625875266792	130.3409644969611
7_pasodoble_1.set	1	beta	13_32	694.2632783822787	339.7070130436603	2524.744599921229	2014.555213665688	997.2494064524562	569.3777495199108	397.9274456643946	685.4886722050134	1380.004491904987	537.1809214041	2645.684898323841	385.5629870965924	666.0237418063189	2635.116729955696
7_pasodoble_1.set	1	gamma	32_45	125.2270448668017	124.2970036086238	128.8593869840305	121.3247857373425	161.1902254164421	190.2781751484358	120.4516518553677	264.9517390996701	107.0839922454848	137.08734243527	123.0999101607202	131.4019438164834	95.14762687051358	296.019206417373
7_petenera_1.set	1	all	4_45	630.9438063935984	793.6584796837263	4024.610045005591	831.5009505162767	851.6127538105526	666.8641208197789	949.1605214089026	1594.111466032253	606.0377912131656	692.8391398732062	3910.914717395094	867.3683610547097	460.7641121680851	1423.745728417107
7_petenera_1.set	1	teta	4_8	45.95822156885859	58.3896646131258	241.6231599773899	72.20993939217257	54.3877140250879	48.71646227539753	60.9513646144426	87.83727704120966	50.03507821058967	35.81320498829294	158.874936318366	52.46879500155745	45.63344664343596	100.4272639450626
7_petenera_1.set	1	alfa	8_13	53.11684085957364	98.96223604695948	93.66873313508013	50.51865046988142	92.15560292481349	61.77473944307637	103.7437920778491	101.0550025306305	60.82288757032335	65.28891622203149	66.90615345138708	115.0739284122708	47.07467057856394	130.3228332009033
7_petenera_1.set	1	beta	13_32	462.2584142816684	507.7052376121831	3596.846727064609	621.0516049989255	602.3658730812942	462.0413241742394	666.8344563924231	1263.241965281204	416.1372212898441	495.1730650003738	3584.28449948718	572.1800709503993	302.9144910339428	1072.917245461854
7_petenera_1.set	1	gamma	32_45	69.61032968349777	128.601341411458	92.47142482851224	87.72075565529718	102.703563779357	94.33159492706551	117.6309083241877	141.9772211792088	79.04260414240855	96.56395366250806	100.8491281381602	127.645566690482	65.14150391214244	120.0783858092877
7_swing_1.set	1	all	4_45	41.31817890189693	28.93381244860693	21.47618516959135	43.62243582505785	57.46416291229046	68.35344432889458	29.43197854753157	67.35288970283361	37.96060857872105	23.59067858105897	231.7014245390184	44.80588469010944	99.23940844749916	333.3070498167206
7_swing_1.set	1	teta	4_8	11.83833631456211	9.578176464516108	4.089166247458621	16.02086716626895	12.72465926604257	14.19539997087382	3.074110021617399	15.03835675634386	14.90456785070069	3.929524344396908	115.5979472593893	11.24315838967179	9.89310644132186	115.4294252763267
7_swing_1.set	1	alfa	8_13	4.072935597187756	4.873256122742459	2.453420501026245	8.573527604292027	8.459038371387582	8.678486737165382	4.321868287538495	7.311411503753179	5.980999261171096	4.257269418690541	38.81492302244413	11.95965308574679	14.25710361533182	56.10319799848158
7_swing_1.set	1	beta	13_32	18.63787501138015	10.99662326377396	10.73706544585	15.10989069194112	24.00090757001109	29.1260001247264	15.26225168655347	29.53031677805616	13.3509178969718	12.33052338230297	57.28031613758746	16.59146840613244	50.56290020966284	111.4598130754164
7_swing_1.set	1	gamma	32_45	6.769031978766919	3.485756597574398	4.196532975256488	3.918150362555752	12.27955770484923	16.35355749612897	6.773748551822213	15.47280466468041	3.724123569877465	3.073361435668541	20.00823811959752	5.011604808558426	24.52629818118265	50.31461346649589
