
23/Feb/2020 22:52:25
0.00 - Opened log file.
0.34 - Loaded file C:\Users\Robert\Desktop\SetFiles\in\3_twist_1.set.
0.01 - Highpass filter: 4.000Hz, transition band: 0.50, order: 464.
0.01 - Lowpass filter: 45.000Hz, transition band: 2.50, order: 72.
0.01 - Notch filter: 48.500 to 51.500Hz, transition band: 1.00, order: 228.
10.71 - Ran ICA.
11.18 - Rejected no components.
11.69 - Finished.
Final baseline variance: NaN.
