1562224999164000;2.694654
1562224999414000;2.689528
1562224999664000;2.689528
1562224999914000;2.680558
1562225000164000;2.680558
1562225000414000;2.67287
1562225000664000;2.669026
1562225000914000;2.667744
1562225001164000;2.6639
1562225001414000;2.658775
1562225001664000;2.656212
1562225001914000;2.652368
1562225002164000;2.652368
1562225002414000;2.647242
1562225002664000;2.648523
1562225002914000;2.644679
1562225003164000;2.642116
1562225003414000;2.642116
1562225003664000;2.648523
1562225003914000;2.640835
1562225004164000;2.639554
1562225004414000;2.642116
1562225004664000;2.670307
1562225004914000;2.730533
1562225005164000;2.822795
1562225005414000;2.938122
1562225005664000;3.026737
1562225005914000;3.12028
1562225006164000;3.184351
1562225006414000;3.233044
1562225006664000;3.258672
1562225006914000;3.276612
1562225007164000;3.283019
1562225007414000;3.277894
1562225007664000;3.267642
1562225007914000;3.261235
1562225008164000;3.24714
1562225008414000;3.2292
1562225008664000;3.207416
1562225008914000;3.177944
1562225009164000;3.160004
1562225009414000;3.14719
1562225009664000;3.145909
1562225009914000;3.136939
1562225010164000;3.140783
1562225010414000;3.140783
1562225010664000;3.12925
1562225010914000;3.12925
1562225011164000;3.126687
1562225011414000;3.117718
1562225011664000;3.103622
1562225011914000;3.095934
1562225012164000;3.093371
1562225012414000;3.088245
1562225012664000;3.080557
1562225012914000;3.075431
1562225013164000;3.069024
1562225013414000;3.063898
1562225013664000;3.053647
1562225013914000;3.044677
1562225014164000;3.035707
1562225014414000;3.030582
1562225014664000;3.028019
1562225014914000;3.026737
1562225015164000;3.02033
1562225015414000;3.016486
1562225015664000;3.010079
1562225015914000;3.007516
1562225016164000;3.006235
1562225016414000;2.993421
1562225016664000;2.99214
1562225016914000;2.985733
1562225017164000;2.981888
1562225017414000;2.975481
1562225017664000;2.967793
1562225017914000;2.96523
1562225018164000;2.963948
1562225018414000;2.966511
1562225018664000;2.969074
1562225018914000;2.969074
1562225019164000;2.962667
1562225019414000;2.958823
1562225019664000;2.953697
1562225019914000;2.948572
1562225020164000;2.944727
1562225020414000;2.940883
1562225020664000;2.93832
1562225020914000;2.934476
1562225021164000;2.931913
1562225021414000;2.922943
1562225021664000;2.922943
1562225021914000;2.920381
1562225022164000;2.924225
1562225022414000;2.920381
1562225022664000;2.913974
1562225022914000;2.911411
1562225023164000;2.907567
1562225023414000;2.907567
1562225023664000;2.905004
1562225023914000;2.902441
1562225024164000;2.902441
1562225024414000;2.898597
1562225024664000;2.890908
1562225024914000;2.896034
1562225025164000;2.896034
1562225025414000;2.893471
1562225025664000;2.885783
1562225025914000;2.885783
1562225026164000;2.89219
1562225026414000;2.902441
1562225026664000;2.917818
1562225026914000;2.92935
1562225027164000;2.943446
1562225027414000;2.948572
1562225027664000;2.95626
1562225027914000;2.966511
1562225028164000;2.98317
1562225028414000;2.995984
1562225028664000;3.006235
1562225028914000;3.011361
1562225029164000;3.011361
1562225029414000;3.010079
1562225029664000;3.006235
1562225029914000;3.006235
1562225030164000;2.993421
1562225030414000;2.988295
1562225030664000;2.985733
1562225030914000;2.979325
1562225031164000;2.972918
1562225031414000;2.967793
1562225031664000;2.966511
1562225031914000;2.962667
1562225032164000;2.971637
1562225032414000;2.984451
1562225032664000;3.024175
1562225032914000;3.071587
1562225033164000;3.104903
1562225033414000;3.134376
1562225033664000;3.145909
1562225033914000;3.14719
1562225034164000;3.142064
1562225034414000;3.130532
1562225034664000;3.122843
1562225034914000;3.106185
1562225035164000;3.094652
1562225035414000;3.084401
1562225035664000;3.069024
1562225035914000;3.066461
1562225036164000;3.067743
1562225036414000;3.063898
1562225036664000;3.05621
1562225036914000;3.053647
1562225037164000;3.048522
1562225037414000;3.04724
1562225037664000;3.051084
1562225037914000;3.054929
1562225038164000;3.06518
1562225038414000;3.071587
1562225038664000;3.079275
1562225038914000;3.080557
1562225039164000;3.081838
1562225039414000;3.085682
1562225039664000;3.090808
1562225039914000;3.094652
1562225040164000;3.093371
1562225040414000;3.092089
1562225040664000;3.086964
1562225040914000;3.086964
1562225041164000;3.079275
1562225041414000;3.075431
1562225041664000;3.072868
1562225041914000;3.06518
1562225042164000;3.060054
1562225042414000;3.057491
1562225042664000;3.049803
1562225042914000;3.045959
1562225043164000;3.044677
1562225043414000;3.039551
1562225043664000;3.042114
1562225043914000;3.03827
1562225044164000;3.049803
1562225044414000;3.057491
1562225044664000;3.061336
1562225044914000;3.066461
1562225045164000;3.066461
1562225045414000;3.071587
1562225045664000;3.072868
1562225045914000;3.077994
1562225046164000;3.095934
1562225046414000;3.095934
1562225046664000;3.094652
1562225046914000;3.106185
1562225047164000;3.130532
1562225047414000;3.171537
1562225047664000;3.209979
1562225047914000;3.24714
1562225048164000;3.279175
1562225048414000;3.307366
1562225048664000;3.321461
1562225048914000;3.326587
1562225049164000;3.318899
1562225049414000;3.309929
1562225049664000;3.303522
1562225049914000;3.299677
1562225050164000;3.307366
1562225050414000;3.309929
1562225050664000;3.313773
1562225050914000;3.315054
1562225051164000;3.306084
1562225051414000;3.295833
1562225051664000;3.281738
1562225051914000;3.265079
1562225052164000;3.24714
1562225052414000;3.231763
1562225052664000;3.221512
1562225052914000;3.207416
1562225053164000;3.199728
1562225053414000;3.192039
1562225053664000;3.184351
1562225053914000;3.179225
1562225054164000;3.176662
1562225054414000;3.177944
1562225054664000;3.171537
1562225054914000;3.166411
1562225055164000;3.168974
1562225055414000;3.162567
1562225055664000;3.15616
1562225055914000;3.154878
1562225056164000;3.151034
1562225056414000;3.148471
1562225056664000;3.140783
1562225056914000;3.127969
1562225057164000;3.121562
1562225057414000;3.113873
1562225057664000;3.110029
1562225057914000;3.107466
1562225058164000;3.106185
1562225058414000;3.115155
1562225058664000;3.148471
1562225058914000;3.222793
1562225059164000;3.318899
1562225059414000;3.413723
1562225059664000;3.488045
1562225059914000;3.543403
1562225060164000;3.579283
1562225060414000;3.616443
1562225060664000;3.666418
1562225060914000;3.721519
1562225061164000;3.770212
1562225061414000;3.803529
1562225061664000;3.818906
1562225061914000;3.818906
1562225062164000;3.803529
1562225062414000;3.771494
1562225062664000;3.752273
1562225062914000;3.768931
1562225063164000;3.808655
1562225063414000;3.856067
1562225063664000;3.894509
1562225063914000;3.925263
1562225064164000;3.939436
1562225064414000;3.949688
1562225064664000;3.957376
1562225064914000;3.943281
1562225065164000;3.921497
1562225065414000;3.885617
1562225065664000;3.845894
1562225065914000;3.813859
1562225066164000;3.793356
1562225066414000;3.776698
1562225066664000;3.769009
1562225066914000;3.780542
1562225067164000;3.818984
1562225067414000;3.856145
1562225067664000;3.884336
1562225067914000;3.898432
1562225068164000;3.909964
1562225068414000;3.902276
1562225068664000;3.884336
1562225068914000;3.862552
1562225069164000;3.849738
1562225069414000;3.839487
1562225069664000;3.83308
1562225069914000;3.82411
1562225070164000;3.816421
1562225070414000;3.804889
1562225070664000;3.794637
1562225070914000;3.775416
1562225071164000;3.756195
1562225071414000;3.739537
1562225071664000;3.734411
1562225071914000;3.725441
1562225072164000;3.72416
1562225072414000;3.721597
1562225072664000;3.716471
1562225072914000;3.719034
1562225073164000;3.711346
1562225073414000;3.708783
1562225073664000;3.702376
1562225073914000;3.695969
1562225074164000;3.693406
1562225074414000;3.716471
1562225074664000;3.730567
1562225074914000;3.740818
1562225075164000;3.756195
1562225075414000;3.760039
1562225075664000;3.745944
1562225075914000;3.739537
1562225076164000;3.729285
1562225076414000;3.719034
1562225076664000;3.710064
1562225076914000;3.694688
1562225077164000;3.689562
1562225077414000;3.679311
1562225077664000;3.680592
1562225077914000;3.679311
1562225078164000;3.672904
1562225078414000;3.671622
1562225078664000;3.662652
1562225078914000;3.654964
1562225079164000;3.647275
1562225079414000;3.637024
1562225079664000;3.631899
1562225079914000;3.629336
1562225080164000;3.629336
1562225080414000;3.625492
1562225080664000;3.630617
1562225080914000;3.65112
1562225081164000;3.678029
1562225081414000;3.707502
1562225081664000;3.722878
1562225081914000;3.730567
1562225082164000;3.734411
1562225082414000;3.725441
1562225082664000;3.719034
1562225082914000;3.702376
1562225083164000;3.693406
1562225083414000;3.679311
1562225083664000;3.676748
1562225083914000;3.669059
1562225084164000;3.658808
1562225084414000;3.660089
1562225084664000;3.661371
1562225084914000;3.657527
1562225085164000;3.653682
1562225085414000;3.654964
1562225085664000;3.653682
1562225085914000;3.647275
1562225086164000;3.652401
1562225086414000;3.656245
1562225086664000;3.665215
1562225086914000;3.671622
1562225087164000;3.672904
1562225087414000;3.671622
1562225087664000;3.662652
1562225087914000;3.65112
1562225088164000;3.649838
1562225088414000;3.648557
1562225088664000;3.647275
1562225088914000;3.640868
1562225089164000;3.635743
1562225089414000;3.625492
1562225089664000;3.619084
1562225089914000;3.644713
1562225090164000;3.617803
1562225090414000;3.612677
1562225090664000;3.608833
1562225090914000;3.612677
1562225091164000;3.599863
1562225091414000;3.60627
1562225091664000;3.608833
1562225091914000;3.610115
1562225092164000;3.608833
1562225092414000;3.607552
1562225092664000;3.63318
1562225092914000;3.597301
1562225093164000;3.598582
1562225093414000;3.594738
1562225093664000;3.597301
1562225093914000;3.598582
1562225094164000;3.594738
1562225094414000;3.594738
1562225094664000;3.585768
1562225094914000;3.589612
1562225095164000;3.580642
1562225095414000;3.589612
1562225095664000;3.590894
1562225095914000;3.601145
1562225096164000;3.611396
1562225096414000;3.629336
1562225096664000;3.645994
1562225096914000;3.647275
1562225097164000;3.656245
1562225097414000;3.656245
1562225097664000;3.65112
1562225097914000;3.647275
1562225098164000;3.637024
1562225098414000;3.63318
1562225098664000;3.631899
1562225098914000;3.621647
1562225099164000;3.630617
1562225099414000;3.625492
1562225099664000;3.625492
1562225099914000;3.613959
1562225100164000;3.61524
1562225100414000;3.608833
1562225100664000;3.607552
1562225100914000;3.607552
1562225101164000;3.602426
1562225101414000;3.596019
1562225101664000;3.583205
1562225101914000;3.585768
1562225102164000;3.585768
1562225102414000;3.583205
1562225102664000;3.581924
1562225102914000;3.579361
1562225103164000;3.580642
1562225103414000;3.576798
1562225103664000;3.584486
1562225103914000;3.593456
1562225104164000;3.597301
1562225104414000;3.593456
1562225104664000;3.596019
1562225104914000;3.599863
1562225105164000;3.601145
1562225105414000;3.601145
1562225105664000;3.601145
1562225105914000;3.598582
1562225106164000;3.596019
1562225106414000;3.589612
1562225106664000;3.587049
1562225106914000;3.581924
1562225107164000;3.571672
1562225107414000;3.572954
1562225107664000;3.574235
1562225107914000;3.571672
1562225108164000;3.578079
1562225108414000;3.583205
1562225108664000;3.580642
1562225108914000;3.576798
1562225109164000;3.581924
1562225109414000;3.578079
1562225109664000;3.579361
1562225109914000;3.575517
1562225110164000;3.574235
1562225110414000;3.571672
1562225110664000;3.56014
1562225110914000;3.56014
1562225111164000;3.553733
1562225111414000;3.555014
1562225111664000;3.55117
1562225111914000;3.558858
1562225112164000;3.593456
1562225112414000;3.648557
1562225112664000;3.710064
1562225112914000;3.777979
1562225113164000;3.820266
1562225113414000;3.840768
1562225113664000;3.854864
1562225113914000;3.854864
1562225114164000;3.87024
1562225114414000;3.89715
1562225114664000;3.931748
1562225114914000;3.980442
1562225115164000;4.030416
1562225115414000;4.071422
1562225115664000;4.100894
1562225115914000;4.112427
1562225116164000;4.106019
1562225116414000;4.093205
1562225116664000;4.076547
1562225116914000;4.048356
1562225117164000;4.018884
1562225117414000;3.993256
1562225117664000;3.966346
1562225117914000;3.947125
1562225118164000;3.922778
1562225118414000;3.917653
1562225118664000;3.899713
1562225118914000;3.892025
1562225119164000;3.881773
1562225119414000;3.866396
1562225119664000;3.858708
1562225119914000;3.849738
1562225120164000;3.84205
1562225120414000;3.834361
1562225120664000;3.825391
1562225120914000;3.813859
1562225121164000;3.807451
1562225121414000;3.803607
1562225121664000;3.801044
1562225121914000;3.801044
1562225122164000;3.794637
1562225122414000;3.792075
1562225122664000;3.785668
1562225122914000;3.777979
1562225123164000;3.767728
1562225123414000;3.765165
1562225123664000;3.762602
1562225123914000;3.758758
1562225124164000;3.757477
1562225124414000;3.756195
1562225124664000;3.757477
1562225124914000;3.752351
1562225125164000;3.744663
1562225125414000;3.7421
1562225125664000;3.725441
1562225125914000;3.726723
1562225126164000;3.717753
1562225126414000;3.70622
1562225126664000;3.694688
1562225126914000;3.693406
1562225127164000;3.684436
1562225127414000;3.681874
1562225127664000;3.679311
1562225127914000;3.671622
1562225128164000;3.674185
1562225128414000;3.667778
1562225128664000;3.663934
1562225128914000;3.663934
1562225129164000;3.660089
1562225129414000;3.666497
1562225129664000;3.665215
1562225129914000;3.661371
1562225130164000;3.662652
1562225130414000;3.652401
1562225130664000;3.65112
1562225130914000;3.653682
1562225131164000;3.64215
1562225131414000;3.64215
1562225131664000;3.63318
1562225131914000;3.622929
1562225132164000;3.61524
1562225132414000;3.610115
1562225132664000;3.608833
1562225132914000;3.603708
1562225133164000;3.598582
1562225133414000;3.599863
1562225133664000;3.598582
1562225133914000;3.590894
1562225134164000;3.587049
1562225134414000;3.581924
1562225134664000;3.585768
1562225134914000;3.580642
1562225135164000;3.575517
1562225135414000;3.574235
1562225135664000;3.56014
1562225135914000;3.558858
1562225136164000;3.552451
1562225136414000;3.553733
1562225136664000;3.56014
1562225136914000;3.565265
1562225137164000;3.567828
1562225137414000;3.574235
1562225137664000;3.567828
1562225137914000;3.565265
1562225138164000;3.561421
1562225138414000;3.556295
1562225138664000;3.555014
1562225138914000;3.553733
1562225139164000;3.56014
1562225139414000;3.576798
1562225139664000;3.593456
1562225139914000;3.611396
1562225140164000;3.619084
1562225140414000;3.631899
1562225140664000;3.625492
1562225140914000;3.621647
1562225141164000;3.61524
1562225141414000;3.601145
1562225141664000;3.588331
1562225141914000;3.583205
1562225142164000;3.581924
1562225142414000;3.579361
1562225142664000;3.572954
1562225142914000;3.572954
1562225143164000;3.570391
1562225143414000;3.563984
1562225143664000;3.561421
1562225143914000;3.56014
1562225144164000;3.557577
1562225144414000;3.543481
1562225144664000;3.534512
1562225144914000;3.529386
1562225145164000;3.526823
1562225145414000;3.51529
1562225145664000;3.503758
1562225145914000;3.507602
1562225146164000;3.510165
1562225146414000;3.501195
1562225146664000;3.502476
1562225146914000;3.494788
1562225147164000;3.493506
1562225147414000;3.481974
1562225147664000;3.508883
1562225147914000;3.47813
1562225148164000;3.476848
1562225148414000;3.46916
1562225148664000;3.479411
1562225148914000;3.479411
1562225149164000;3.483255
1562225149414000;3.474285
1562225149664000;3.474285
1562225149914000;3.470441
1562225150164000;3.470441
1562225150414000;3.466597
1562225150664000;3.457627
1562225150914000;3.453783
1562225151164000;3.448657
1562225151414000;3.440969
1562225151664000;3.439687
1562225151914000;3.435843
1562225152164000;3.43328
1562225152414000;3.435765
1562225152664000;3.434484
1562225152914000;3.428077
1562225153164000;3.429358
1562225153414000;3.429358
1562225153664000;3.434484
1562225153914000;3.430639
1562225154164000;3.434484
1562225154414000;3.439609
1562225154664000;3.443453
1562225154914000;3.456267
1562225155164000;3.462674
1562225155414000;3.461393
1562225155664000;3.465237
1562225155914000;3.462674
1562225156164000;3.456267
1562225156414000;3.44986
1562225156664000;3.442172
1562225156914000;3.442172
1562225157164000;3.444735
1562225157414000;3.452423
1562225157664000;3.456267
1562225157914000;3.461393
1562225158164000;3.462674
1562225158414000;3.461393
1562225158664000;3.461393
1562225158914000;3.453705
1562225159164000;3.448579
1562225159414000;3.437046
1562225159664000;3.435765
1562225159914000;3.430639
1562225160164000;3.422951
1562225160414000;3.422951
1562225160664000;3.421669
1562225160914000;3.420388
1562225161164000;3.416544
1562225161414000;3.412699
1562225161664000;3.407574
1562225161914000;3.40373
1562225162164000;3.401167
1562225162414000;3.398604
1562225162664000;3.390916
1562225162914000;3.38579
1562225163164000;3.387071
1562225163414000;3.380664
1562225163664000;3.378102
1562225163914000;3.379383
1562225164164000;3.380664
1562225164414000;3.387071
1562225164664000;3.38579
1562225164914000;3.384509
1562225165164000;3.383227
1562225165414000;3.372976
1562225165664000;3.36785
1562225165914000;3.381946
1562225166164000;3.429358
1562225166414000;3.504961
1562225166664000;3.615162
1562225166914000;3.715112
1562225167164000;3.788152
1562225167414000;3.834283
1562225167664000;3.867599
1562225167914000;3.875288
1562225168164000;3.881695
1562225168414000;3.857348
1562225168664000;3.829157
1562225168914000;3.812499
1562225169164000;3.784308
1562225169414000;3.75868
1562225169664000;3.766368
1562225169914000;3.730489
1562225170164000;3.766368
1562225170414000;3.845815
1562225170664000;3.939358
1562225170914000;4.018884
1562225171164000;4.084236
1562225171414000;4.140618
1562225171664000;4.185467
1562225171914000;4.209814
1562225172164000;4.227753
1562225172414000;4.230316
1562225172664000;4.213658
1562225172914000;4.190593
1562225173164000;4.162402
1562225173414000;4.126522
1562225173664000;4.089361
1562225173914000;4.06117
1562225174164000;4.032979
1562225174414000;3.999663
1562225174664000;3.966346
1562225174914000;3.936874
1562225175164000;3.908683
1562225175414000;3.886899
1562225175664000;3.87024
1562225175914000;3.851019
1562225176164000;3.858708
1562225176414000;3.892025
1562225176664000;3.940718
1562225176914000;3.977879
1562225177164000;4.009914
1562225177414000;4.041949
1562225177664000;3.827954
1562225177914000;3.827954
1562225178164000;3.827954
1562225178414000;3.827954
1562225178664000;3.827954
1562225178914000;3.827954
1562225179164000;3.827954
1562225179414000;3.827954
1562225179664000;3.827954
1562225179914000;3.827954
1562225180164000;3.827954
1562225180414000;3.827954
1562225180664000;3.827954
1562225180914000;3.827954
1562225181164000;3.827954
1562225181414000;3.827954
1562225181664000;3.827954
1562225181914000;3.827954
1562225182164000;3.827954
1562225182414000;3.816421
1562225182664000;3.801044
1562225182914000;3.785668
1562225183164000;3.785668
1562225183414000;3.769009
1562225183664000;3.761321
1562225183914000;3.754914
1562225184164000;3.748507
1562225184414000;3.75107
1562225184664000;3.744663
1562225184914000;3.730567
1562225185164000;3.725441
1562225185414000;3.716471
1562225185664000;3.708783
1562225185914000;3.710064
1562225186164000;3.721597
1562225186414000;3.749788
1562225186664000;3.784386
1562225186914000;3.830517
1562225187164000;3.866396
1562225187414000;3.801044
1562225187664000;3.826673
1562225187914000;3.849738
1562225188164000;3.858708
1562225188414000;3.865115
1562225188664000;3.902276
1562225188914000;3.966346
1562225189164000;4.049638
1562225189414000;4.121397
1562225189664000;4.180341
1562225189914000;4.222628
1562225190164000;4.240568
1562225190414000;4.250819
1562225190664000;4.250819
1562225190914000;4.229035
1562225191164000;4.212377
1562225191414000;4.226472
1562225191664000;4.264914
1562225191914000;4.305919
1562225192164000;4.350769
1562225192414000;4.377678
1562225192664000;4.39818
1562225192914000;4.412276
1562225193164000;4.414839
1562225193414000;4.409713
1562225193664000;4.389211
1562225193914000;4.367427
1562225194164000;4.354613
1562225194414000;4.339236
1562225194664000;4.318733
1562225194914000;4.299512
1562225195164000;4.277728
1562225195414000;4.257226
1562225195664000;4.236723
1562225195914000;4.214939
1562225196164000;4.205969
1562225196414000;4.194437
1562225196664000;4.205969
1562225196914000;4.221346
1562225197164000;4.245693
1562225197414000;4.254663
1562225197664000;4.264914
1562225197914000;4.264914
1562225198164000;4.266196
1562225198414000;4.250819
1562225198664000;4.232879
1562225198914000;4.212377
1562225199164000;4.200844
1562225199414000;4.190593
1562225199664000;4.184186
1562225199914000;4.181623
1562225200164000;4.175216
1562225200414000;4.180341
1562225200664000;4.171371
1562225200914000;4.171371
1562225201164000;4.163683
1562225201414000;4.153432
1562225201664000;4.150869
1562225201914000;4.140618
1562225202164000;4.132929
1562225202414000;4.129085
1562225202664000;4.130366
1562225202914000;4.118834
1562225203164000;4.121397
1562225203414000;4.122678
1562225203664000;4.134211
1562225203914000;4.135492
1562225204164000;4.138055
1562225204414000;4.139336
1562225204664000;4.139336
1562225204914000;4.141899
1562225205164000;4.144462
1562225205414000;4.136774
1562225205664000;4.131648
1562225205914000;4.144462
1562225206164000;4.176497
1562225206414000;4.23416
1562225206664000;4.298231
1562225206914000;4.354613
1562225207164000;4.395618
1562225207414000;4.416121
1562225207664000;4.404588
1562225207914000;4.393055
1562225208164000;4.381522
1562225208414000;4.363583
1562225208664000;4.400743
1562225208914000;4.471221
1562225209164000;4.5604
1562225209414000;4.627033
1562225209664000;4.673163
1562225209914000;4.709043
1562225210164000;4.723138
1562225210414000;4.720576
1562225210664000;4.694948
1562225210914000;4.659068
1562225211164000;4.619344
1562225211414000;4.587309
1562225211664000;4.564244
1562225211914000;4.54246
1562225212164000;4.539897
1562225212414000;4.55143
1562225212664000;4.591154
1562225212914000;4.638566
1562225213164000;4.703918
1562225213414000;4.752611
1562225213664000;4.787209
1562225213914000;4.808993
1562225214164000;4.823088
1562225214414000;4.817963
1562225214664000;4.800023
1562225214914000;4.782084
1562225215164000;4.750048
1562225215414000;4.730827
1562225215664000;4.710324
1562225215914000;4.692385
1562225216164000;4.669319
1562225216414000;4.646254
1562225216664000;4.63344
1562225216914000;4.619344
1562225217164000;4.612937
1562225217414000;4.601405
1562225217664000;4.591154
1562225217914000;4.57834
1562225218164000;4.570651
1562225218414000;4.55143
1562225218664000;4.545023
1562225218914000;4.557837
1562225219164000;4.571932
1562225219414000;4.60653
1562225219664000;4.641129
1562225219914000;4.665475
1562225220164000;4.685977
1562225220414000;4.69751
1562225220664000;4.70648
1562225220914000;4.705199
1562225221164000;4.69751
1562225221414000;4.701355
1562225221664000;4.73339
1562225221914000;4.773113
1562225222164000;4.820526
1562225222414000;4.852561
1562225222664000;4.874345
1562225222914000;4.891003
1562225223164000;4.902536
1562225223414000;4.894847
1562225223664000;4.880752
1562225223914000;4.852561
1562225224164000;4.834621
1562225224414000;4.817963
1562225224664000;4.800023
1562225224914000;4.779521
1562225225164000;4.767988
1562225225414000;4.769269
1562225225664000;4.773113
1562225225914000;4.774395
1562225226164000;4.775676
1562225226414000;4.775676
1562225226664000;4.767988
1562225226914000;4.759018
1562225227164000;4.753892
1562225227414000;4.765425
1562225227664000;4.784646
1562225227914000;4.817963
1562225228164000;4.873063
1562225228414000;4.965325
1562225228664000;5.047748
1562225228914000;5.10413
1562225229164000;5.141291
1562225229414000;5.159231
1562225229664000;5.156668
1562225229914000;5.14898
1562225230164000;5.125914
1562225230414000;5.082346
1562225230664000;5.045186
1562225230914000;4.996492
1562225231164000;4.96702
1562225231414000;4.963175
1562225231664000;4.968301
1562225231914000;4.982397
1562225232164000;4.983678
1562225232414000;4.987522
1562225232664000;4.974708
1562225232914000;4.991366
1562225233164000;4.959331
1562225233414000;4.94908
1562225233664000;4.934984
1562225233914000;4.926014
1562225234164000;4.929859
1562225234414000;4.917045
1562225234664000;4.920889
1562225234914000;4.9132
1562225235164000;4.917045
1562225235414000;4.905512
1562225235664000;4.897823
1562225235914000;4.891417
1562225236164000;4.888854
1562225236414000;4.872195
1562225236664000;4.874758
1562225236914000;4.886291
1562225237164000;4.906793
1562225237414000;4.908075
1562225237664000;4.909356
1562225237914000;4.917045
1562225238164000;4.943954
1562225238414000;4.964457
1562225238664000;4.972145
1562225238914000;4.974708
1562225239164000;4.900386
1562225239414000;4.900386
1562225239664000;4.900386
1562225239914000;4.900386
1562225240164000;4.900386
1562225240414000;4.900386
1562225240664000;4.900386
1562225240914000;4.900386
1562225241164000;4.900386
1562225241414000;4.900386
1562225241664000;4.900386
1562225241914000;4.900386
1562225242164000;4.900386
1562225242414000;4.891417
1562225242664000;4.887572
1562225242914000;4.87604
1562225243164000;4.869632
1562225243414000;4.859381
1562225243664000;4.86707
1562225243914000;4.902949
1562225244164000;4.96702
1562225244414000;5.052874
1562225244664000;5.173326
1562225244914000;5.236115
1562225245164000;5.261744
1562225245414000;5.282246
1562225245664000;5.291216
1562225245914000;5.307874
1562225246164000;5.310437
1562225246414000;5.297623
1562225246664000;5.289934
1562225246914000;5.278402
1562225247164000;5.260462
1562225247414000;5.239959
1562225247664000;5.22202
1562225247914000;5.205361
1562225248164000;5.189984
1562225248414000;5.182296
1562225248664000;5.201517
1562225248914000;5.255336
1562225249164000;5.336065
1562225249414000;5.414231
1562225249664000;5.480864
1562225249914000;5.528904
1562225250164000;5.557095
1562225250414000;5.578879
1562225250664000;5.557095
1562225250914000;5.534029
1562225251164000;5.501995
1562225251414000;5.472522
1562225251664000;5.436643
1562225251914000;5.403326
1562225252164000;5.378979
1562225252414000;5.362321
1562225252664000;5.350788
1562225252914000;5.339256
1562225253164000;5.332849
1562225253414000;5.323879
1562225253664000;5.309783
1562225253914000;5.30722
1562225254164000;5.299532
1562225254414000;5.295688
1562225254664000;5.287999
1562225254914000;5.284155
1562225255164000;5.279029
1562225255414000;5.268778
1562225255664000;5.259808
1562225255914000;5.258527
1562225256164000;5.254683
1562225256414000;5.255964
1562225256664000;5.254683
1562225256914000;5.24315
1562225257164000;5.239306
1562225257414000;5.238024
1562225257664000;5.239306
1562225257914000;5.240587
1562225258164000;5.245713
1562225258414000;5.246994
1562225258664000;5.248276
1562225258914000;5.241868
1562225259164000;5.232899
1562225259414000;5.229054
1562225259664000;5.226491
1562225259914000;5.223929
1562225260164000;5.21624
1562225260414000;5.211115
1562225260664000;5.202145
1562225260914000;5.200863
1562225261164000;5.193175
1562225261414000;5.191894
1562225261664000;5.191894
1562225261914000;5.185487
1562225262164000;5.184205
1562225262414000;5.17011
1562225262664000;5.167547
1562225262914000;5.166265
1562225263164000;5.163702
1562225263414000;5.16114
1562225263664000;5.162421
1562225263914000;5.156014
1562225264164000;5.148326
1562225264414000;5.148326
1562225264664000;5.147044
1562225264914000;5.1432
1562225265164000;5.141919
1562225265414000;5.139356
1562225265664000;5.130386
1562225265914000;5.127823
1562225266164000;5.127823
1562225266414000;5.123979
1562225266664000;5.123979
1562225266914000;5.121416
1562225267164000;5.115009
1562225267414000;5.112446
1562225267664000;5.10604
1562225267914000;5.109883
1562225268164000;5.107321
1562225268414000;5.103477
1562225268664000;5.100914
1562225268914000;5.094507
1562225269164000;5.094507
1562225269414000;5.080411
1562225269664000;5.085537
1562225269914000;5.084255
1562225270164000;5.07913
1562225270414000;5.07913
1562225270664000;5.077848
1562225270914000;5.074004
1562225271164000;5.063753
1562225271414000;5.06119
1562225271664000;5.067597
1562225271914000;5.063753
1562225272164000;5.056065
1562225272414000;5.062471
1562225272664000;5.06119
1562225272914000;5.056065
1562225273164000;5.053502
1562225273414000;5.056065
1562225273664000;5.050939
1562225273914000;5.050939
1562225274164000;5.049657
1562225274414000;5.071441
1562225274664000;5.085537
1562225274914000;5.109883
1562225275164000;5.136793
1562225275414000;5.153451
1562225275664000;5.163702
1562225275914000;5.162421
1562225276164000;5.162421
1562225276414000;5.158577
1562225276664000;5.1432
1562225276914000;5.136793
1562225277164000;5.129105
1562225277414000;5.116291
1562225277664000;5.103477
1562225277914000;5.099632
1562225278164000;5.095788
1562225278414000;5.080411
1562225278664000;5.075285
1562225278914000;5.066316
1562225279164000;5.054783
1562225279414000;5.053502
1562225279664000;5.047094
1562225279914000;5.04325
1562225280164000;5.036843
1562225280414000;5.025311
1562225280664000;5.029155
1562225280914000;5.026592
1562225281164000;5.030436
1562225281414000;5.031718
1562225281664000;5.031718
1562225281914000;5.022748
1562225282164000;5.024029
1562225282414000;5.016341
1562225282664000;5.004808
1562225282914000;4.997119
1562225283164000;4.990713
1562225283414000;4.991994
1562225283664000;4.990713
1562225283914000;4.976617
1562225284164000;4.971491
1562225284414000;4.967647
1562225284664000;4.967647
1562225284914000;4.962522
1562225285164000;4.965085
1562225285414000;4.957396
1562225285664000;4.953552
1562225285914000;4.944582
1562225286164000;4.9433
1562225286414000;4.944582
1562225286664000;4.939456
1562225286914000;4.935612
1562225287164000;4.929205
1562225287414000;4.94011
1562225287664000;4.934984
1562225287914000;4.943954
1562225288164000;4.952924
1562225288414000;4.963175
1562225288664000;4.963175
1562225288914000;4.963175
1562225289164000;4.961894
1562225289414000;4.955487
1562225289664000;4.955487
1562225289914000;4.947798
1562225290164000;4.943954
1562225290414000;4.937547
1562225290664000;4.93114
1562225290914000;4.920889
1562225291164000;4.920889
1562225291414000;4.909356
1562225291664000;4.906793
1562225291914000;4.908075
1562225292164000;4.901668
1562225292414000;4.902949
1562225292664000;4.896542
1562225292914000;4.890135
1562225293164000;4.881165
1562225293414000;4.878603
1562225293664000;4.877321
1562225293914000;4.872195
1562225294164000;4.86707
1562225294414000;4.865788
1562225294664000;4.8581
1562225294914000;4.852974
1562225295164000;4.847848
1562225295414000;4.842723
1562225295664000;4.842723
1562225295914000;4.838879
1562225296164000;4.844004
1562225296414000;4.8581
1562225296664000;4.895261
1562225296914000;4.941391
1562225297164000;5.000336
1562225297414000;5.045186
1562225297664000;5.08619
1562225297914000;5.105412
1562225298164000;5.118226
1562225298414000;5.109256
1562225298664000;5.102849
1562225298914000;5.079783
1562225299164000;5.059281
1562225299414000;5.041341
1562225299664000;5.020839
1562225299914000;5.009306
1562225300164000;4.996492
1562225300414000;4.990085
1562225300664000;4.979834
1562225300914000;4.969582
1562225301164000;4.960612
1562225301414000;4.950361
1562225301664000;4.942673
1562225301914000;4.934984
1562225302164000;4.924733
1562225302414000;4.918326
1562225302664000;4.909356
1562225302914000;4.904231
1562225303164000;4.895261
1562225303414000;4.891417
1562225303664000;4.892698
1562225303914000;4.893979
1562225304164000;4.892698
1562225304414000;4.896542
1562225304664000;4.892698
1562225304914000;4.897823
1562225305164000;4.877321
1562225305414000;4.864507
1562225305664000;4.851693
1562225305914000;4.846567
1562225306164000;4.84913
1562225306414000;4.844004
1562225306664000;4.835034
1562225306914000;4.833753
1562225307164000;4.832471
1562225307414000;4.833753
1562225307664000;4.844004
1562225307914000;4.870914
1562225308164000;4.920889
1562225308414000;4.988803
1562225308664000;5.058
1562225308914000;5.116944
1562225309164000;5.159231
1562225309414000;5.184859
1562225309664000;5.19511
1562225309914000;5.181015
1562225310164000;5.165638
1562225310414000;5.133603
1562225310664000;5.100286
1562225310914000;5.072095
1562225311164000;5.047748
1562225311414000;5.023401
1562225311664000;5.001617
1562225311914000;4.990085
1562225312164000;4.98624
1562225312414000;4.988803
1562225312664000;4.984959
1562225312914000;4.983678
1562225313164000;4.982397
1562225313414000;4.973426
1562225313664000;4.964457
1562225313914000;4.959331
1562225314164000;4.947798
1562225314414000;4.941391
1562225314664000;4.933703
1562225314914000;4.918326
1562225315164000;4.906793
1562225315414000;4.897823
1562225315664000;4.887572
1562225315914000;4.885009
1562225316164000;4.883728
1562225316414000;4.870914
1562225316664000;4.861944
1562225316914000;4.852974
1562225317164000;4.861944
1562225317414000;4.911919
1562225317664000;5.010587
1562225317914000;5.133603
1562225318164000;5.259181
1562225318414000;5.364256
1562225318664000;5.429608
1562225318914000;5.469959
1562225319164000;5.486618
1562225319414000;5.482773
1562225319664000;5.458426
1562225319914000;5.412296
1562225320164000;5.371291
1562225320414000;5.326441
1562225320664000;5.291843
1562225320914000;5.255964
1562225321164000;5.229054
1562225321414000;5.199582
1562225321664000;5.190612
1562225321914000;5.194457
1562225322164000;5.199582
1562225322414000;5.204708
1562225322664000;5.212396
1562225322914000;5.200863
1562225323164000;5.221366
1562225323414000;5.271341
1562225323664000;5.353351
1562225323914000;5.446894
1562225324164000;5.500713
1562225324414000;5.531467
1562225324664000;5.537874
1562225324914000;5.526341
1562225325164000;5.499432
1562225325414000;5.458426
1562225325664000;5.414859
1562225325914000;5.368728
1562225326164000;5.321316
1562225326414000;5.282874
1562225326664000;5.254683
1562225326914000;5.246994
1562225327164000;5.253401
1562225327414000;5.304657
1562225327664000;5.389231
1562225327914000;5.462271
1562225328164000;5.513527
1562225328414000;5.537874
1562225328664000;5.566065
1562225328914000;5.560939
1562225329164000;5.534029
1562225329414000;5.509683
1562225329664000;5.542999
1562225329914000;5.618603
1562225330164000;5.719834
1562225330414000;5.767246
1562225330664000;5.803125
1562225330914000;5.801844
1562225331164000;5.794156
1562225331414000;5.76212
1562225331664000;5.726241
1562225331914000;5.663452
1562225332164000;5.62501
1562225332414000;5.585286
1562225332664000;5.550688
1562225332914000;5.530185
1562225333164000;5.508401
1562225333414000;5.481492
1562225333664000;5.471241
1562225333914000;5.450738
1562225334164000;5.441768
1562225334414000;5.423829
1562225334664000;5.400763
1562225334914000;5.382823
1562225335164000;5.427673
1562225335414000;5.526341
1562225335664000;5.591693
1562225335914000;5.648075
1562225336164000;5.674984
1562225336414000;5.682673
1562225336664000;5.68011
1562225336914000;5.657045
1562225337164000;5.637824
1562225337414000;5.599381
1562225337664000;5.605789
1562225337914000;5.648075
1562225338164000;5.683954
1562225338414000;5.701894
1562225338664000;5.749306
1562225338914000;5.774934
1562225339164000;5.791593
1562225339414000;5.783904
1562225339664000;5.776216
1562225339914000;5.763402
1562225340164000;5.742899
1562225340414000;5.726241
1562225340664000;5.704457
1562225340914000;5.685236
1562225341164000;5.664733
1562225341414000;5.645512
1562225341664000;5.623728
1562225341914000;5.599381
1562225342164000;5.581442
1562225342414000;5.555814
1562225342664000;5.536592
1562225342914000;5.522497
1562225343164000;5.508401
1562225343414000;5.499432
1562225343664000;5.493024
1562225343914000;5.486618
1562225344164000;5.477648
1562225344414000;5.464834
1562225344664000;5.453301
1562225344914000;5.443049
1562225345164000;5.440487
1562225345414000;5.441768
1562225345664000;5.457145
1562225345914000;5.472522
1562225346164000;5.494306
1562225346414000;5.509683
1562225346664000;5.52506
1562225346914000;5.530185
1562225347164000;5.530185
1562225347414000;5.523778
1562225347664000;5.514809
1562225347914000;5.500713
1562225348164000;5.490462
1562225348414000;5.48021
1562225348664000;5.467396
1562225348914000;5.462271
1562225349164000;5.460989
1562225349414000;5.460989
1562225349664000;5.462271
1562225349914000;5.455864
1562225350164000;5.454582
1562225350414000;5.444331
1562225350664000;5.441768
1562225350914000;5.437924
1562225351164000;5.436643
1562225351414000;5.430235
1562225351664000;5.423829
1562225351914000;5.417421
1562225352164000;5.41614
1562225352414000;5.40717
1562225352664000;5.40717
1562225352914000;5.399482
1562225353164000;5.395638
1562225353414000;5.391793
1562225353664000;5.386668
1562225353914000;5.382823
1562225354164000;5.382823
1562225354414000;5.377698
1562225354664000;5.375135
1562225354914000;5.375135
1562225355164000;5.378979
1562225355414000;5.375135
1562225355664000;5.372572
1562225355914000;5.371291
1562225356164000;5.367446
1562225356414000;5.364884
1562225356664000;5.358477
1562225356914000;5.363602
1562225357164000;5.354632
1562225357414000;5.355914
1562225357664000;5.354632
1562225357914000;5.354632
1562225358164000;5.3431
1562225358414000;5.348226
1562225358664000;5.337974
1562225358914000;5.330286
1562225359164000;5.332849
1562225359414000;5.326441
1562225359664000;5.327723
1562225359914000;5.322598
1562225360164000;5.314909
1562225360414000;5.31619
1562225360664000;5.318753
1562225360914000;5.317472
1562225361164000;5.317472
1562225361414000;5.311065
1562225361664000;5.30722
1562225361914000;5.30722
1562225362164000;5.295688
1562225362414000;5.300813
1562225362664000;5.294406
1562225362914000;5.293125
1562225363164000;5.289281
1562225363414000;5.286718
1562225363664000;5.284155
1562225363914000;5.282874
1562225364164000;5.285437
1562225364414000;5.285437
1562225364664000;5.284155
1562225364914000;5.282874
1562225365164000;5.285437
1562225365414000;5.275185
1562225365664000;5.271341
1562225365914000;5.277748
1562225366164000;5.282874
1562225366414000;5.285437
1562225366664000;5.276466
1562225366914000;5.280311
1562225367164000;5.279029
1562225367414000;5.279029
1562225367664000;5.271341
1562225367914000;5.27006
1562225368164000;5.271341
1562225368414000;5.257246
1562225368664000;5.257246
1562225368914000;5.249557
1562225369164000;5.249557
1562225369414000;5.246994
1562225369664000;5.263652
1562225369914000;5.280311
1562225370164000;5.302095
1562225370414000;5.314909
1562225370664000;5.322598
1562225370914000;5.32516
1562225371164000;5.318753
1562225371414000;5.320035
1562225371664000;5.313627
1562225371914000;5.300813
1562225372164000;5.295688
1562225372414000;5.291843
1562225372664000;5.282874
1562225372914000;5.277748
1562225373164000;5.276466
1562225373414000;5.282874
1562225373664000;5.277748
1562225373914000;5.277748
1562225374164000;5.277748
1562225374414000;5.267497
1562225374664000;5.263652
1562225374914000;5.259808
1562225375164000;5.258527
1562225375414000;5.253401
1562225375664000;5.25212
1562225375914000;5.248276
1562225376164000;5.245713
1562225376414000;5.249557
1562225376664000;5.249557
1562225376914000;5.259808
1562225377164000;5.259808
1562225377414000;5.263652
1562225377664000;5.263652
1562225377914000;5.259808
1562225378164000;5.262371
1562225378414000;5.266215
1562225378664000;5.275185
1562225378914000;5.303376
1562225379164000;5.340537
1562225379414000;5.373854
1562225379664000;5.404607
1562225379914000;5.409733
1562225380164000;5.41614
1562225380414000;5.414859
1562225380664000;5.414859
1562225380914000;5.398201
1562225381164000;5.384105
1562225381414000;5.364884
1562225381664000;5.354632
1562225381914000;5.332849
1562225382164000;5.320035
1562225382414000;5.311065
1562225382664000;5.308502
1562225382914000;5.298251
1562225383164000;5.295688
1562225383414000;5.287999
1562225383664000;5.284155
1562225383914000;5.272623
1562225384164000;5.27006
1562225384414000;5.263652
1562225384664000;5.257246
1562225384914000;5.25212
1562225385164000;5.248276
1562225385414000;5.250838
1562225385664000;5.236743
1562225385914000;5.235462
1562225386164000;5.231617
1562225386414000;5.232899
1562225386664000;5.231617
1562225386914000;5.223929
1562225387164000;5.221366
1562225387414000;5.218803
1562225387664000;5.211115
1562225387914000;5.209833
1562225388164000;5.204708
1562225388414000;5.204708
1562225388664000;5.194457
1562225388914000;5.194457
1562225389164000;5.193175
1562225389414000;5.185487
1562225389664000;5.181643
1562225389914000;5.173954
1562225390164000;5.175235
1562225390414000;5.171391
1562225390664000;5.168828
1562225390914000;5.167547
1562225391164000;5.167547
1562225391414000;5.158577
1562225391664000;5.158577
1562225391914000;5.156014
1562225392164000;5.153451
1562225392414000;5.149607
1562225392664000;5.147044
1562225392914000;5.1432
1562225393164000;5.129105
1562225393414000;5.127823
1562225393664000;5.127823
1562225393914000;5.135512
1562225394164000;5.127823
1562225394414000;5.121416
1562225394664000;5.117572
1562225394914000;5.113728
1562225395164000;5.107321
1562225395414000;5.108602
1562225395664000;5.104758
1562225395914000;5.103477
1562225396164000;5.103477
1562225396414000;5.103477
1562225396664000;5.097069
1562225396914000;5.097069
1562225397164000;5.089381
1562225397414000;5.084255
1562225397664000;5.086818
1562225397914000;5.081693
1562225398164000;5.085537
1562225398414000;5.080411
1562225398664000;5.076567
1562225398914000;5.071441
1562225399164000;5.080411
1562225399414000;5.093225
1562225399664000;5.100914
1562225399914000;5.109883
1562225400164000;5.118854
1562225400414000;5.116291
1562225400664000;5.12526
1562225400914000;5.129105
1562225401164000;5.157296
1562225401414000;5.189331
1562225401664000;5.22521
1562225401914000;5.249557
1562225402164000;5.267497
1562225402414000;5.271341
1562225402664000;5.267497
1562225402914000;5.266215
1562225403164000;5.25212
1562225403414000;5.239306
1562225403664000;5.223929
1562225403914000;5.213677
1562225404164000;5.195738
1562225404414000;5.182924
1562225404664000;5.166265
1562225404914000;5.150888
1562225405164000;5.139356
1562225405414000;5.126542
1562225405664000;5.129105
1562225405914000;5.116291
1562225406164000;5.122698
1562225406414000;5.107321
1562225406664000;5.108602
1562225406914000;5.126542
1562225407164000;5.16114
1562225407414000;5.208552
1562225407664000;5.30722
1562225407914000;5.431517
1562225408164000;5.55197
1562225408414000;5.649356
1562225408664000;5.722397
1562225408914000;5.759558
1562225409164000;5.77109
1562225409414000;5.750587
1562225409664000;5.714708
1562225409914000;5.67114
1562225410164000;5.641668
1562225410414000;5.677547
1562225410664000;5.778779
1562225410914000;5.909482
1562225411164000;6.006869
1562225411414000;6.083295
1562225411664000;6.114049
1562225411914000;6.128144
1562225412164000;6.114049
1562225412414000;6.083295
1562225412664000;6.046134
1562225412914000;5.985908
1562225413164000;5.919275
1562225413414000;5.848797
1562225413664000;5.78729
1562225413914000;5.734752
1562225414164000;5.695028
1562225414414000;5.661712
1562225414664000;5.630958
1562225414914000;5.597641
1562225415164000;5.568169
1562225415414000;5.554073
1562225415664000;5.533571
1562225415914000;5.516912
1562225416164000;5.500254
1562225416414000;5.490003
1562225416664000;5.475907
1562225416914000;5.469501
1562225417164000;5.460531
1562225417414000;5.450279
1562225417664000;5.441309
1562225417914000;5.43234
1562225418164000;5.42337
1562225418414000;5.417421
1562225418664000;5.408452
1562225418914000;5.393075
1562225419164000;5.413577
1562225419414000;5.413577
1562225419664000;5.413577
1562225419914000;5.413577
1562225420164000;5.413577
1562225420414000;5.413577
1562225420664000;5.413577
1562225420914000;5.413577
1562225421164000;5.413577
1562225421414000;5.413577
1562225421664000;5.413577
1562225421914000;5.413577
1562225422164000;5.413577
1562225422414000;5.413577
1562225422664000;5.413577
1562225422914000;5.413577
1562225423164000;5.413577
1562225423414000;5.413577
1562225423664000;5.413577
1562225423914000;5.402045
1562225424164000;5.393075
1562225424414000;5.38026
1562225424664000;5.373854
1562225424914000;5.364884
1562225425164000;5.35207
1562225425414000;5.339256
1562225425664000;5.345663
1562225425914000;5.329004
1562225426164000;5.321316
1562225426414000;5.31619
1562225426664000;5.313627
1562225426914000;5.308502
1562225427164000;5.304657
1562225427414000;5.295688
1562225427664000;5.289281
1562225427914000;5.282874
1562225428164000;5.284155
1562225428414000;5.281592
1562225428664000;5.277748
1562225428914000;5.264934
1562225429164000;5.267497
1562225429414000;5.257246
1562225429664000;5.229054
1562225429914000;5.214959
1562225430164000;5.213677
1562225430414000;5.222648
1562225430664000;5.241868
1562225430914000;5.250838
1562225431164000;5.255964
1562225431414000;5.264934
1562225431664000;5.282874
1562225431914000;5.368728
1562225432164000;5.467396
1562225432414000;5.587849
1562225432664000;5.676266
1562225432914000;5.76212
1562225433164000;5.796718
1562225433414000;5.813376
1562225433664000;5.803125
1562225433914000;5.785186
1562225434164000;5.767246
1562225434414000;5.777497
1562225434664000;5.837723
1562225434914000;5.89795
1562225435164000;5.947925
1562225435414000;5.964124
1562225435664000;5.939777
1562225435914000;5.952591
1562225436164000;6.002566
1562225436414000;6.030757
1562225436664000;6.055104
1562225436914000;6.062792
1562225437164000;6.049978
1562225437414000;6.020506
1562225437664000;5.964124
1562225437914000;5.916712
1562225438164000;5.873144
1562225438414000;5.83342
1562225438664000;5.791134
1562225438914000;5.750129
1562225439164000;5.720656
1562225439414000;5.683496
1562225439664000;5.668118
1562225439914000;5.645053
1562225440164000;5.625832
1562225440414000;5.610456
1562225440664000;5.593797
1562225440914000;5.577139
1562225441164000;5.560481
1562225441414000;5.552792
1562225441664000;5.545104
1562225441914000;5.53229
1562225442164000;5.528445
1562225442414000;5.518194
1562225442664000;5.50538
1562225442914000;5.495129
1562225443164000;5.490003
1562225443414000;5.484877
1562225443664000;5.482315
1562225443914000;5.472063
1562225444164000;5.470782
1562225444414000;5.469501
1562225444664000;5.479752
1562225444914000;5.447717
1562225445164000;5.442591
1562225445414000;5.436184
1562225445664000;5.441309
1562225445914000;5.434902
1562225446164000;5.43234
1562225446414000;5.429777
1562225446664000;5.423829
1562225446914000;5.423829
1562225447164000;5.422547
1562225447414000;5.422547
1562225447664000;5.418703
1562225447914000;5.411015
1562225448164000;5.409733
1562225448414000;5.409733
1562225448664000;5.400763
1562225448914000;5.400763
1562225449164000;5.398201
1562225449414000;5.391793
1562225449664000;5.387949
1562225449914000;5.382823
1562225450164000;5.378979
1562225450414000;5.375135
1562225450664000;5.367446
1562225450914000;5.355914
1562225451164000;5.359758
1562225451414000;5.358477
1562225451664000;5.359758
1562225451914000;5.354632
1562225452164000;5.350788
1562225452414000;5.348226
1562225452664000;5.348226
1562225452914000;5.345663
1562225453164000;5.345663
1562225453414000;5.330286
1562225453664000;5.331567
1562225453914000;5.326441
1562225454164000;5.326441
1562225454414000;5.323879
1562225454664000;5.318753
1562225454914000;5.314909
1562225455164000;5.313627
1562225455414000;5.308502
1562225455664000;5.30722
1562225455914000;5.299532
1562225456164000;5.296969
1562225456414000;5.293125
1562225456664000;5.293125
1562225456914000;5.291843
1562225457164000;5.287999
1562225457414000;5.279029
1562225457664000;5.273904
1562225457914000;5.268778
1562225458164000;5.27006
1562225458414000;5.267497
1562225458664000;5.259808
1562225458914000;5.254683
1562225459164000;5.249557
1562225459414000;5.253401
1562225459664000;5.249557
1562225459914000;5.244431
1562225460164000;5.244431
1562225460414000;5.239306
1562225460664000;5.231617
1562225460914000;5.23418
1562225461164000;5.232899
1562225461414000;5.232899
1562225461664000;5.232899
1562225461914000;5.231617
1562225462164000;5.230336
1562225462414000;5.221366
1562225462664000;5.226491
1562225462914000;5.221366
1562225463164000;5.227773
1562225463414000;5.220085
1562225463664000;5.223929
1562225463914000;5.220085
1562225464164000;5.222648
1562225464414000;5.207271
1562225464664000;5.203426
1562225464914000;5.207271
1562225465164000;5.200863
1562225465414000;5.198301
1562225465664000;5.199582
1562225465914000;5.191894
1562225466164000;5.190612
1562225466414000;5.185487
1562225466664000;5.198301
1562225466914000;5.17908
1562225467164000;5.176517
1562225467414000;5.172673
1562225467664000;5.171391
1562225467914000;5.167547
1562225468164000;5.17011
1562225468414000;5.17011
1562225468664000;5.189331
1562225468914000;5.22521
1562225469164000;5.273904
1562225469414000;5.32516
1562225469664000;5.373854
1562225469914000;5.398201
1562225470164000;5.418703
1562225470414000;5.427673
1562225470664000;5.431517
1562225470914000;5.419984
1562225471164000;5.40717
1562225471414000;5.390512
1562225471664000;5.367446
1562225471914000;5.346944
1562225472164000;5.33413
1562225472414000;5.312346
1562225472664000;5.303376
1562225472914000;5.289281
1562225473164000;5.284155
1562225473414000;5.276466
1562225473664000;5.268778
1562225473914000;5.26109
1562225474164000;5.246994
1562225474414000;5.24315
1562225474664000;5.239306
1562225474914000;5.232899
1562225475164000;5.226491
1562225475414000;5.220085
1562225475664000;5.212396
1562225475914000;5.209833
1562225476164000;5.203426
1562225476414000;5.199582
1562225476664000;5.197019
1562225476914000;5.204708
1562225477164000;5.204708
1562225477414000;5.214959
1562225477664000;5.21624
1562225477914000;5.218803
1562225478164000;5.218803
1562225478414000;5.222648
1562225478664000;5.241868
1562225478914000;5.262371
1562225479164000;5.268778
1562225479414000;5.272623
1562225479664000;5.273904
1562225479914000;5.272623
1562225480164000;5.255964
1562225480414000;5.25212
1562225480664000;5.239306
1562225480914000;5.22521
1562225481164000;5.209833
1562225481414000;5.203426
1562225481664000;5.198301
1562225481914000;5.188049
1562225482164000;5.180361
1562225482414000;5.177798
1562225482664000;5.175235
1562225482914000;5.176517
1562225483164000;5.177798
1562225483414000;5.172673
1562225483664000;5.173954
1562225483914000;5.16114
1562225484164000;5.16114
1562225484414000;5.15217
1562225484664000;5.15217
1562225484914000;5.148326
1562225485164000;5.140637
1562225485414000;5.132949
1562225485664000;5.131668
1562225485914000;5.1432
1562225486164000;5.113728
1562225486414000;5.116291
1562225486664000;5.108602
1562225486914000;5.112446
1562225487164000;5.115009
1562225487414000;5.112446
1562225487664000;5.100914
1562225487914000;5.098351
1562225488164000;5.094507
1562225488414000;5.093225
1562225488664000;5.093225
1562225488914000;5.085537
1562225489164000;5.080411
1562225489414000;5.077848
1562225489664000;5.072723
1562225489914000;5.068879
1562225490164000;5.063753
1562225490414000;5.063753
1562225490664000;5.059908
1562225490914000;5.050939
1562225491164000;5.053502
1562225491414000;5.047094
1562225491664000;5.047094
1562225491914000;5.041969
1562225492164000;5.036843
1562225492414000;5.041969
1562225492664000;5.045813
1562225492914000;5.035562
1562225493164000;5.032999
1562225493414000;5.032999
1562225493664000;5.024029
1562225493914000;5.024029
1562225494164000;5.022748
1562225494414000;5.027874
1562225494664000;5.041969
1562225494914000;5.044532
1562225495164000;5.057346
1562225495414000;5.062471
1562225495664000;5.072723
1562225495914000;5.086818
1562225496164000;5.121416
1562225496414000;5.154733
1562225496664000;5.195738
1562225496914000;5.236743
1562225497164000;5.231617
1562225497414000;5.240587
1562225497664000;5.238024
1562225497914000;5.23418
1562225498164000;5.22521
1562225498414000;5.202145
1562225498664000;5.177798
1562225498914000;5.16114
1562225499164000;5.147044
1562225499414000;5.13423
1562225499664000;5.12526
1562225499914000;5.109883
1562225500164000;5.10604
1562225500414000;5.090662
1562225500664000;5.085537
1562225500914000;5.076567
1562225501164000;5.072723
1562225501414000;5.071441
1562225501664000;5.067597
1562225501914000;5.063753
1562225502164000;5.058627
1562225502414000;5.067597
1562225502664000;5.098351
1562225502914000;5.139356
1562225503164000;5.177798
1562225503414000;5.213677
1562225503664000;5.235462
1562225503914000;5.263652
1562225504164000;5.322598
1562225504414000;5.399482
1562225504664000;5.471241
1562225504914000;5.52506
1562225505164000;5.568628
1562225505414000;5.584004
1562225505664000;5.595537
1562225505914000;5.590412
1562225506164000;5.600663
1562225506414000;5.60707
1562225506664000;5.596818
1562225506914000;5.577598
1562225507164000;5.548125
1562225507414000;5.530185
1562225507664000;5.491743
1562225507914000;5.457145
1562225508164000;5.41614
1562225508414000;5.395638
1562225508664000;5.363602
1562225508914000;5.348226
1562225509164000;5.331567
1562225509414000;5.318753
1562225509664000;5.300813
1562225509914000;5.289281
1562225510164000;5.280311
1562225510414000;5.281592
1562225510664000;5.277748
1562225510914000;5.281592
1562225511164000;5.279029
1562225511414000;5.280311
1562225511664000;5.279029
1562225511914000;5.273904
1562225512164000;5.263652
1562225512414000;5.255964
1562225512664000;5.245713
1562225512914000;5.226491
1562225513164000;5.221366
1562225513414000;5.21624
1562225513664000;5.217522
1562225513914000;5.21624
1562225514164000;5.221366
1562225514414000;5.227773
1562225514664000;5.223929
1562225514914000;5.222648
1562225515164000;5.227773
1562225515414000;5.238024
1562225515664000;5.246994
1562225515914000;5.250838
1562225516164000;5.255964
1562225516414000;5.254683
1562225516664000;5.24315
1562225516914000;5.23418
1562225517164000;5.249557
1562225517414000;5.305939
1562225517664000;5.387949
1562225517914000;5.494306
1562225518164000;5.594256
1562225518414000;5.653201
1562225518664000;5.699331
1562225518914000;5.730085
1562225519164000;5.70702
1562225519414000;5.678829
1562225519664000;5.631417
1562225519914000;5.592974
1562225520164000;5.576316
1562225520414000;5.5981
1562225520664000;5.657045
1562225520914000;5.719834
1562225521164000;5.767246
1562225521414000;5.794156
1562225521664000;5.804407
1562225521914000;5.796718
1562225522164000;5.773653
1562225522414000;5.732648
1562225522664000;5.687799
1562225522914000;5.641668
1562225523164000;5.601944
1562225523414000;5.572472
1562225523664000;5.545562
1562225523914000;5.517371
1562225524164000;5.501995
1562225524414000;5.484055
1562225524664000;5.468678
1562225524914000;5.457145
1562225525164000;5.446894
1562225525414000;5.432798
1562225525664000;5.41614
1562225525914000;5.40717
1562225526164000;5.394356
1562225526414000;5.385386
1562225526664000;5.391793
1562225526914000;5.423829
1562225527164000;5.471241
1562225527414000;5.50712
1562225527664000;5.535311
1562225527914000;5.553251
1562225528164000;5.566065
1562225528414000;5.566065
1562225528664000;5.553251
1562225528914000;5.536592
1562225529164000;5.528904
1562225529414000;5.548125
1562225529664000;5.590412
1562225529914000;5.646793
1562225530164000;5.691643
1562225530414000;5.726241
1562225530664000;5.736492
1562225530914000;5.741618
1562225531164000;5.718553
1562225531414000;5.691643
1562225531664000;5.669859
1562225531914000;5.713427
1562225532164000;5.818502
1562225532414000;5.936392
1562225532664000;6.043571
1562225532914000;6.116611
1562225533164000;6.164024
1562225533414000;6.184526
1562225533664000;6.190933
1562225533914000;6.171712
1562225534164000;6.137114
1562225534414000;6.089702
1562225534664000;6.041008
1562225534914000;5.991034
1562225535164000;5.941059
1562225535414000;5.892365
1562225535664000;5.838546
1562225535914000;5.783445
1562225536164000;5.73347
1562225536414000;5.701435
1562225536664000;5.670681
1562225536914000;5.641209
1562225537164000;5.6143
1562225537414000;5.595078
1562225537664000;5.579701
1562225537914000;5.565606
1562225538164000;5.548948
1562225538414000;5.542541
1562225538664000;5.525882
1562225538914000;5.520757
1562225539164000;5.506661
1562225539414000;5.493847
1562225539664000;5.493847
1562225539914000;5.492566
1562225540164000;5.490003
1562225540414000;5.483596
1562225540664000;5.479752
1562225540914000;5.468219
1562225541164000;5.461812
1562225541414000;5.450279
1562225541664000;5.446435
1562225541914000;5.442591
1562225542164000;5.441309
1562225542414000;5.442591
1562225542664000;5.438746
1562225542914000;5.438746
1562225543164000;5.440028
1562225543414000;5.440028
1562225543664000;5.431058
1562225543914000;5.43408
1562225544164000;5.42511
1562225544414000;5.423829
1562225544664000;5.41614
1562225544914000;5.411015
1562225545164000;5.404607
1562225545414000;5.404607
1562225545664000;5.396919
1562225545914000;5.393075
1562225546164000;5.393075
1562225546414000;5.390512
1562225546664000;5.381542
1562225546914000;5.378979
1562225547164000;5.372572
1562225547414000;5.390512
1562225547664000;5.439206
1562225547914000;5.530185
1562225548164000;5.649356
1562225548414000;5.75315
1562225548664000;5.839005
1562225548914000;5.891542
1562225549164000;5.923578
1562225549414000;5.9244
1562225549664000;5.901335
1562225549914000;5.866737
1562225550164000;5.82445
1562225550414000;5.777039
1562225550664000;5.732189
1562225550914000;5.701435
1562225551164000;5.683496
1562225551414000;5.662993
1562225551664000;5.650179
1562225551914000;5.668118
1562225552164000;5.629676
1562225552414000;5.618144
1562225552664000;5.606611
1562225552914000;5.610456
1562225553164000;5.607893
1562225553414000;5.600204
1562225553664000;5.586109
1562225553914000;5.572013
1562225554164000;5.565606
1562225554414000;5.559199
1562225554664000;5.552792
1562225554914000;5.547667
1562225555164000;5.542541
1562225555414000;5.538696
1562225555664000;5.536134
1562225555914000;5.525882
1562225556164000;5.520757
1562225556414000;5.516912
1562225556664000;5.516912
1562225556914000;5.513068
1562225557164000;5.502817
1562225557414000;5.493847
1562225557664000;5.49641
1562225557914000;5.484877
1562225558164000;5.47847
1562225558414000;5.481033
1562225558664000;5.484877
1562225558914000;5.483596
1562225559164000;5.486159
1562225559414000;5.486159
1562225559664000;5.475907
1562225559914000;5.472063
1562225560164000;5.490003
1562225560414000;5.463093
1562225560664000;5.460531
1562225560914000;5.450279
1562225561164000;5.45156
1562225561414000;5.446435
1562225561664000;5.437465
1562225561914000;5.437465
1562225562164000;5.443872
1562225562414000;5.446435
1562225562664000;5.446435
1562225562914000;5.440028
1562225563164000;5.443872
1562225563414000;5.436184
1562225563664000;5.427214
1562225563914000;5.427673
1562225564164000;5.426391
1562225564414000;5.422547
1562225564664000;5.41614
1562225564914000;5.413577
1562225565164000;5.412296
1562225565414000;5.403326
1562225565664000;5.398201
1562225565914000;5.400763
1562225566164000;5.400763
1562225566414000;5.389231
1562225566664000;5.393075
1562225566914000;5.385386
1562225567164000;5.378979
1562225567414000;5.375135
1562225567664000;5.375135
1562225567914000;5.372572
1562225568164000;5.366165
1562225568414000;5.368728
1562225568664000;5.362321
1562225568914000;5.362321
1562225569164000;5.35207
1562225569414000;5.346944
1562225569664000;5.35207
1562225569914000;5.346944
1562225570164000;5.344381
1562225570414000;5.339256
1562225570664000;5.337974
1562225570914000;5.332849
1562225571164000;5.330286
1562225571414000;5.327723
1562225571664000;5.330286
1562225571914000;5.323879
1562225572164000;5.329004
1562225572414000;5.326441
1562225572664000;5.318753
1562225572914000;5.321316
1562225573164000;5.314909
1562225573414000;5.314909
1562225573664000;5.30722
1562225573914000;5.305939
1562225574164000;5.30722
1562225574414000;5.303376
1562225574664000;5.295688
1562225574914000;5.294406
1562225575164000;5.291843
1562225575414000;5.296969
1562225575664000;5.296969
1562225575914000;5.289281
1562225576164000;5.284155
1562225576414000;5.282874
1562225576664000;5.276466
1562225576914000;5.275185
1562225577164000;5.272623
1562225577414000;5.264934
1562225577664000;5.268778
1562225577914000;5.264934
1562225578164000;5.258527
1562225578414000;5.257246
1562225578664000;5.244431
1562225578914000;5.232899
1562225579164000;5.244431
1562225579414000;5.239306
1562225579664000;5.250838
1562225579914000;5.279029
1562225580164000;5.336693
1562225580414000;5.395638
1562225580664000;5.459708
1562225580914000;5.514809
1562225581164000;5.545562
1562225581414000;5.569909
1562225581664000;5.575035
1562225581914000;5.569909
1562225582164000;5.558376
1562225582414000;5.55197
1562225582664000;5.582723
1562225582914000;5.628854
1562225583164000;5.681392
1562225583414000;5.719834
1562225583664000;5.739055
1562225583914000;5.746743
1562225584164000;5.751869
1562225584414000;5.726241
1562225584664000;5.695487
1562225584914000;5.68011
1562225585164000;5.621165
1562225585414000;5.591693
1562225585664000;5.568628
1562225585914000;5.544281
1562225586164000;5.532748
1562225586414000;5.517371
1562225586664000;5.508401
1562225586914000;5.499432
1562225587164000;5.486618
1562225587414000;5.476366
1562225587664000;5.469959
1562225587914000;5.454582
1562225588164000;5.439206
1562225588414000;5.430235
1562225588664000;5.428954
1562225588914000;5.423829
1562225589164000;5.426391
1562225589414000;5.431517
1562225589664000;5.431517
1562225589914000;5.42511
1562225590164000;5.42511
1562225590414000;5.431517
1562225590664000;5.445612
1562225590914000;5.446894
1562225591164000;5.446894
1562225591414000;5.449457
1562225591664000;5.455864
1562225591914000;5.468678
1562225592164000;5.499432
1562225592414000;5.530185
1562225592664000;5.562221
1562225592914000;5.582723
1562225593164000;5.591693
1562225593414000;5.600663
1562225593664000;5.599381
1562225593914000;5.585286
1562225594164000;5.566065
1562225594414000;5.546844
1562225594664000;5.530185
1562225594914000;5.504557
1562225595164000;5.493024
1562225595414000;5.48021
1562225595664000;5.467396
1562225595914000;5.455864
1562225596164000;5.449457
1562225596414000;5.443049
1562225596664000;5.435361
1562225596914000;5.427673
1562225597164000;5.422547
1562225597414000;5.413577
1562225597664000;5.402045
1562225597914000;5.391793
1562225598164000;5.389231
1562225598414000;5.390512
1562225598664000;5.389231
1562225598914000;5.386668
1562225599164000;5.389231
1562225599414000;5.404607
1562225599664000;5.421266
1562225599914000;5.431517
1562225600164000;5.444331
1562225600414000;5.464834
1562225600664000;5.505839
1562225600914000;5.566065
1562225601164000;5.62501
1562225601414000;5.667296
1562225601664000;5.701894
1562225601914000;5.727522
1562225602164000;5.78006
1562225602414000;5.839005
1562225602664000;5.886417
1562225602914000;5.922297
1562225603164000;5.937214
1562225603414000;5.938496
1562225603664000;5.920556
1562225603914000;5.896209
1562225604164000;5.906461
1562225604414000;5.952591
1562225604664000;6.038445
1562225604914000;6.071762
1562225605164000;6.096109
1562225605414000;6.092265
1562225605664000;6.082014
1562225605914000;6.055104
1562225606164000;6.017943
1562225606414000;5.965405
1562225606664000;5.916712
1562225606914000;5.866737
1562225607164000;5.827013
1562225607414000;5.792415
1562225607664000;5.770631
1562225607914000;5.759099
1562225608164000;5.753973
1562225608414000;5.747566
1562225608664000;5.737315
1562225608914000;5.715531
1562225609164000;5.705279
1562225609414000;5.68734
1562225609664000;5.671963
1562225609914000;5.656586
1562225610164000;5.639928
1562225610414000;5.62327
1562225610664000;5.613018
1562225610914000;5.592515
1562225611164000;5.584827
1562225611414000;5.572013
1562225611664000;5.568169
1562225611914000;5.555355
1562225612164000;5.545104
1562225612414000;5.53229
1562225612664000;5.524601
1562225612914000;5.515631
1562225613164000;5.500254
1562225613414000;5.501535
1562225613664000;5.498973
1562225613914000;5.491284
1562225614164000;5.48744
1562225614414000;5.482315
1562225614664000;5.465656
1562225614914000;5.463093
1562225615164000;5.457968
1562225615414000;5.459249
1562225615664000;5.448998
1562225615914000;5.434902
1562225616164000;5.441309
1562225616414000;5.443872
1562225616664000;5.437465
1562225616914000;5.440028
1562225617164000;5.434902
1562225617414000;5.431058
1562225617664000;5.440487
1562225617914000;5.43408
1562225618164000;5.426391
1562225618414000;5.443049
1562225618664000;5.475085
1562225618914000;5.534029
1562225619164000;5.5981
1562225619414000;5.659607
1562225619664000;5.701894
1562225619914000;5.731367
1562225620164000;5.735211
1562225620414000;5.732648
1562225620664000;5.703176
1562225620914000;5.676266
1562225621164000;5.648075
1562225621414000;5.623728
1562225621664000;5.5981
1562225621914000;5.576316
1562225622164000;5.558376
1562225622414000;5.544281
1562225622664000;5.530185
1562225622914000;5.519934
1562225623164000;5.513527
1562225623414000;5.50712
1562225623664000;5.504557
1562225623914000;5.487899
1562225624164000;5.482773
1562225624414000;5.476366
1562225624664000;5.466115
1562225624914000;5.458426
1562225625164000;5.448175
1562225625414000;5.449457
1562225625664000;5.443049
1562225625914000;5.441768
1562225626164000;5.440487
1562225626414000;5.437924
1562225626664000;5.426391
1562225626914000;5.413577
1562225627164000;5.417421
1562225627414000;5.408452
1562225627664000;5.400763
1562225627914000;5.395638
1562225628164000;5.387949
1562225628414000;5.386668
1562225628664000;5.390512
1562225628914000;5.38026
1562225629164000;5.377698
1562225629414000;5.373854
1562225629664000;5.370009
1562225629914000;5.367446
1562225630164000;5.364884
1562225630414000;5.354632
1562225630664000;5.35207
1562225630914000;5.344381
1562225631164000;5.337974
1562225631414000;5.33413
1562225631664000;5.329004
1562225631914000;5.329004
1562225632164000;5.322598
1562225632414000;5.321316
1562225632664000;5.320035
1562225632914000;5.314909
1562225633164000;5.313627
1562225633414000;5.305939
1562225633664000;5.30722
1562225633914000;5.304657
1562225634164000;5.299532
1562225634414000;5.302095
1562225634664000;5.294406
1562225634914000;5.293125
1562225635164000;5.286718
1562225635414000;5.287999
1562225635664000;5.282874
1562225635914000;5.281592
1562225636164000;5.282874
1562225636414000;5.282874
1562225636664000;5.287999
1562225636914000;5.285437
1562225637164000;5.291843
1562225637414000;5.285437
1562225637664000;5.285437
1562225637914000;5.276466
1562225638164000;5.281592
1562225638414000;5.276466
1562225638664000;5.27006
1562225638914000;5.268778
1562225639164000;5.268778
1562225639414000;5.26109
1562225639664000;5.250838
1562225639914000;5.267497
1562225640164000;5.250838
1562225640414000;5.246994
1562225640664000;5.24315
1562225640914000;5.238024
1562225641164000;5.238024
1562225641414000;5.226491
1562225641664000;5.226491
1562225641914000;5.231617
1562225642164000;5.232899
1562225642414000;5.229054
1562225642664000;5.22521
1562225642914000;5.223929
1562225643164000;5.21624
1562225643414000;5.213677
1562225643664000;5.209833
1562225643914000;5.212396
1562225644164000;5.209833
1562225644414000;5.208552
1562225644664000;5.208552
1562225644914000;5.205989
1562225645164000;5.195738
1562225645414000;5.193175
1562225645664000;5.193175
1562225645914000;5.191894
1562225646164000;5.186768
1562225646414000;5.189331
1562225646664000;5.185487
1562225646914000;5.181643
1562225647164000;5.176517
1562225647414000;5.177798
1562225647664000;5.180361
1562225647914000;5.181643
1562225648164000;5.177798
1562225648414000;5.184205
1562225648664000;5.172673
1562225648914000;5.167547
1562225649164000;5.167547
1562225649414000;5.162421
1562225649664000;5.158577
1562225649914000;5.158577
1562225650164000;5.154733
1562225650414000;5.157296
1562225650664000;5.15217
1562225650914000;5.150888
1562225651164000;5.15217
1562225651414000;5.159858
1562225651664000;5.168828
1562225651914000;5.190612
1562225652164000;5.198301
1562225652414000;5.203426
1562225652664000;5.209833
1562225652914000;5.207271
1562225653164000;5.200863
1562225653414000;5.197019
1562225653664000;5.195738
1562225653914000;5.220085
1562225654164000;5.285437
1562225654414000;5.393075
1562225654664000;5.495587
1562225654914000;5.586567
1562225655164000;5.648075
1562225655414000;5.691643
1562225655664000;5.714708
1562225655914000;5.723678
1562225656164000;5.694206
1562225656414000;5.660889
1562225656664000;5.623728
1562225656914000;5.58913
1562225657164000;5.546844
1562225657414000;5.52506
1562225657664000;5.499432
1562225657914000;5.478929
1562225658164000;5.460989
1562225658414000;5.441768
1562225658664000;5.427673
1562225658914000;5.412296
1562225659164000;5.404607
1562225659414000;5.389231
1562225659664000;5.385386
1562225659914000;5.372572
1562225660164000;5.371291
1562225660414000;5.363602
1562225660664000;5.363602
1562225660914000;5.355914
1562225661164000;5.353351
1562225661414000;5.341818
1562225661664000;5.336693
1562225661914000;5.329004
1562225662164000;5.332849
1562225662414000;5.331567
1562225662664000;5.312346
1562225662914000;5.304657
1562225663164000;5.355914
1562225663414000;5.462271
1562225663664000;5.628854
1562225663914000;5.814658
1562225664164000;5.992774
1562225664414000;6.135833
1562225664664000;6.216561
1562225664914000;6.284476
1562225665164000;6.348547
1562225665414000;6.417743
1562225665664000;6.472254
1562225665914000;6.481224
1562225666164000;6.496601
1562225666414000;6.492756
1562225666664000;6.509415
1562225666914000;6.531199
1562225667164000;6.556827
1562225667414000;6.556827
1562225667664000;6.544013
1562225667914000;6.528636
1562225668164000;6.487631
1562225668414000;6.449188
1562225668664000;6.453032
1562225668914000;6.463284
1562225669164000;6.472254
1562225669414000;6.467128
1562225669664000;6.4415
1562225669914000;6.412027
1562225670164000;6.36846
1562225670414000;6.304389
1562225670664000;6.235193
1562225670914000;6.173686
1562225671164000;6.116022
1562225671414000;6.071173
1562225671664000;6.039138
1562225671914000;6.018635
1562225672164000;6.003258
1562225672414000;5.9866
1562225672664000;5.964816
1562225672914000;5.944314
1562225673164000;5.917404
1562225673414000;5.901335
1562225673664000;5.879551
1562225673914000;5.864174
1562225674164000;5.855204
1562225674414000;5.865456
1562225674664000;5.902617
1562225674914000;5.966687
1562225675164000;6.021787
1562225675414000;6.070481
1562225675664000;6.099953
1562225675914000;6.119174
1562225676164000;6.107642
1562225676414000;6.085858
1562225676664000;6.061511
1562225676914000;6.017943
1562225677164000;5.982064
1562225677414000;5.948747
1562225677664000;5.914149
1562225677914000;5.891084
1562225678164000;5.880833
1562225678414000;5.859048
1562225678664000;5.843672
1562225678914000;5.841109
1562225679164000;5.871862
1562225679414000;5.939777
1562225679664000;6.014099
1562225679914000;6.079451
1562225680164000;6.126863
1562225680414000;6.16018
1562225680664000;6.165305
1562225680914000;6.16018
1562225681164000;6.135833
1562225681414000;6.101235
1562225681664000;6.065355
1562225681914000;6.035883
1562225682164000;6.030757
1562225682414000;6.044853
1562225682664000;6.089702
1562225682914000;6.148647
1562225683164000;6.212717
1562225683414000;6.265255
1562225683664000;6.290883
1562225683914000;6.313949
1562225684164000;6.338295
1562225684414000;6.337014
1562225684664000;6.322918
1562225684914000;6.322918
1562225685164000;6.335732
1562225685414000;6.344702
1562225685664000;6.35111
1562225685914000;6.339577
1562225686164000;6.333169
1562225686414000;6.331888
1562225686664000;6.322918
1562225686914000;6.319074
1562225687164000;6.30626
1562225687414000;6.272943
1562225687664000;6.25116
1562225687914000;6.22425
1562225688164000;6.190933
1562225688414000;6.161461
1562225688664000;6.13327
1562225688914000;6.111486
1562225689164000;6.097391
1562225689414000;6.085858
1562225689664000;6.080732
1562225689914000;6.087139
1562225690164000;6.111486
1562225690414000;6.139677
1562225690664000;6.161461
1562225690914000;6.176838
1562225691164000;6.217843
1562225691414000;6.301135
1562225691664000;6.411335
1562225691914000;6.498471
1562225692164000;6.574767
1562225692414000;6.617053
1562225692664000;6.631148
1562225692914000;6.61449
1562225693164000;6.581173
1562225693414000;6.531199
1562225693664000;6.481224
1562225693914000;6.447907
1562225694164000;6.41459
1562225694414000;6.387681
1562225694664000;6.371023
1562225694914000;6.354364
1562225695164000;6.336424
1562225695414000;6.315922
1562225695664000;6.297982
1562225695914000;6.285168
1562225696164000;6.280043
1562225696414000;6.265947
1562225696664000;6.249289
1562225696914000;6.239038
1562225697164000;6.23263
1562225697414000;6.222379
1562225697664000;6.233912
1562225697914000;6.251852
1562225698164000;6.291575
1562225698414000;6.314641
1562225698664000;6.346676
1562225698914000;6.362052
1562225699164000;6.374867
1562225699414000;6.376148
1562225699664000;6.371023
1562225699914000;6.35949
1562225700164000;6.35052
1562225700414000;6.335143
1562225700664000;6.324892
1562225700914000;6.306952
1562225701164000;6.296701
1562225701414000;6.287731
1562225701664000;6.278761
1562225701914000;6.269791
1562225702164000;6.263384
1562225702414000;6.255696
1562225702664000;6.248007
1562225702914000;6.236475
1562225703164000;6.239038
1562225703414000;6.228786
1562225703664000;6.219816
1562225703914000;6.219816
1562225704164000;6.236475
1562225704414000;6.273635
1562225704664000;6.342832
1562225704914000;6.451751
1562225705164000;6.581173
1562225705414000;6.695219
1562225705664000;6.76954
1562225705914000;6.799013
1562225706164000;6.804139
1562225706414000;6.793887
1562225706664000;6.761852
1562225706914000;6.72341
1562225707164000;6.688812
1562225707414000;6.663184
1562225707664000;6.6414
1562225707914000;6.618334
1562225708164000;6.59655
1562225708414000;6.565796
1562225708664000;6.545294
1562225708914000;6.53248
1562225709164000;6.500445
1562225709414000;6.491475
1562225709664000;6.474817
1562225709914000;6.472254
1562225710164000;6.473535
1562225710414000;6.486349
1562225710664000;6.518384
1562225710914000;6.55939
1562225711164000;6.600395
1562225711414000;6.626023
1562225711664000;6.643962
1562225711914000;6.645244
1562225712164000;6.642681
1562225712414000;6.622179
1562225712664000;6.626023
1562225712914000;6.681123
1562225713164000;6.781073
1562225713414000;6.874616
1562225713664000;6.911777
1562225713914000;6.932279
1562225714164000;6.941961
1562225714414000;6.886861
1562225714664000;6.865077
1562225714914000;6.842011
1562225715164000;6.807414
1562225715414000;6.763845
1562225715664000;6.734373
1562225715914000;6.707464
1562225716164000;6.686961
1562225716414000;6.672866
1562225716664000;6.653645
1562225716914000;6.640831
1562225717164000;6.630579
1562225717414000;6.635705
1562225717664000;6.635705
1562225717914000;6.640831
1562225718164000;6.638268
1562225718414000;6.633142
1562225718664000;6.628016
1562225718914000;6.621609
1562225719164000;6.610076
1562225719414000;6.598544
1562225719664000;6.580604
1562225719914000;6.583167
1562225720164000;6.599825
1562225720414000;6.633142
1562225720664000;6.680554
1562225720914000;6.716434
1562225721164000;6.742062
1562225721414000;6.74975
1562225721664000;6.747187
1562225721914000;6.738217
1562225722164000;6.713871
1562225722414000;6.699775
1562225722664000;6.679273
1562225722914000;6.6498
1562225723164000;6.625453
1562225723414000;6.616484
1562225723664000;6.610076
1562225723914000;6.599825
1562225724164000;6.598544
1562225724414000;6.588293
1562225724664000;6.583167
1562225724914000;6.57676
1562225725164000;6.566509
1562225725414000;6.554976
1562225725664000;6.554976
1562225725914000;6.54985
1562225726164000;6.552413
1562225726414000;6.556258
1562225726664000;6.54985
1562225726914000;6.546006
1562225727164000;6.540881
1562225727414000;6.538318
1562225727664000;6.533192
1562225727914000;6.557539
1562225728164000;6.526785
1562225728414000;6.519097
1562225728664000;6.511408
1562225728914000;6.510127
1562225729164000;6.507564
1562225729414000;6.498594
1562225729664000;6.493468
1562225729914000;6.493468
1562225730164000;6.489625
1562225730414000;6.48578
1562225730664000;6.483217
1562225730914000;6.483217
1562225731164000;6.474247
1562225731414000;6.466559
1562225731664000;6.487062
1562225731914000;6.528067
1562225732164000;6.597262
1562225732414000;6.662614
1562225732664000;6.718997
1562225732914000;6.753594
1562225733164000;6.766408
1562225733414000;6.771534
1562225733664000;6.760001
1562225733914000;6.736936
1562225734164000;6.708745
1562225734414000;6.69465
1562225734664000;6.663896
1562225734914000;6.635705
1562225735164000;6.613921
1562225735414000;6.599825
1562225735664000;6.588293
1562225735914000;6.592137
1562225736164000;6.604951
1562225736414000;6.626735
1562225736664000;6.648519
1562225736914000;6.653645
1562225737164000;6.665177
1562225737414000;6.657489
1562225737664000;6.645956
1562225737914000;6.642112
1562225738164000;6.625453
1562225738414000;6.607514
1562225738664000;6.593418
1562225738914000;6.579323
1562225739164000;6.575479
1562225739414000;6.55882
1562225739664000;6.54985
1562225739914000;6.542162
1562225740164000;6.537036
1562225740414000;6.533192
1562225740664000;6.525504
1562225740914000;6.520378
1562225741164000;6.521659
1562225741414000;6.510127
1562225741664000;6.508845
1562225741914000;6.498594
1562225742164000;6.498594
1562225742414000;6.487062
1562225742664000;6.489625
1562225742914000;6.483217
1562225743164000;6.480654
1562225743414000;6.470403
1562225743664000;6.466559
1562225743914000;6.463996
1562225744164000;6.472966
1562225744414000;6.469122
1562225744664000;6.469122
1562225744914000;6.461433
1562225745164000;6.444775
1562225745414000;6.444775
1562225745664000;6.438368
1562225745914000;6.443493
1562225746164000;6.452464
1562225746414000;6.465278
1562225746664000;6.478092
1562225746914000;6.478092
1562225747164000;6.478092
1562225747414000;6.480654
1562225747664000;6.466559
1562225747914000;6.452464
1562225748164000;6.442212
1562225748414000;6.439649
1562225748664000;6.430679
1562225748914000;6.417865
1562225749164000;6.420998
1562225749414000;6.409465
1562225749664000;6.404339
1562225749914000;6.417153
1562225750164000;6.387681
1562225750414000;6.387681
1562225750664000;6.386399
1562225750914000;6.381274
1562225751164000;6.369741
1562225751414000;6.360771
1562225751664000;6.351801
1562225751914000;6.345394
1562225752164000;6.338987
1562225752414000;6.338987
1562225752664000;6.337706
1562225752914000;6.327455
1562225753164000;6.32361
1562225753414000;6.312078
1562225753664000;6.317204
1562225753914000;6.312078
1562225754164000;6.306952
1562225754414000;6.303108
1562225754664000;6.299263
1562225754914000;6.290294
1562225755164000;6.287731
1562225755414000;6.287731
1562225755664000;6.289012
1562225755914000;6.289012
1562225756164000;6.291575
1562225756414000;6.301826
1562225756664000;6.309515
1562225756914000;6.313359
1562225757164000;6.309515
1562225757414000;6.312078
1562225757664000;6.299263
1562225757914000;6.291575
1562225758164000;6.287731
1562225758414000;6.273635
1562225758664000;6.263384
1562225758914000;6.256977
1562225759164000;6.256977
1562225759414000;6.25057
1562225759664000;6.244163
1562225759914000;6.242882
1562225760164000;6.241601
1562225760414000;6.237756
1562225760664000;6.230068
1562225760914000;6.224942
1562225761164000;6.221098
1562225761414000;6.214691
1562225761664000;6.210846
1562225761914000;6.209565
1562225762164000;6.207002
1562225762414000;6.20444
1562225762664000;6.199314
1562225762914000;6.192907
1562225763164000;6.189063
1562225763414000;6.181374
1562225763664000;6.178811
1562225763914000;6.173686
1562225764164000;6.17753
1562225764414000;6.167279
1562225764664000;6.162153
1562225764914000;6.162153
1562225765164000;6.155746
1562225765414000;6.153183
1562225765664000;6.144213
1562225765914000;6.146776
1562225766164000;6.151902
1562225766414000;6.162153
1562225766664000;6.167279
1562225766914000;6.154465
1562225767164000;6.13268
1562225767414000;6.146776
1562225767664000;6.153183
1562225767914000;6.149339
1562225768164000;6.140369
1562225768414000;6.16856
1562225768664000;6.248007
1562225768914000;6.381274
1562225769164000;6.533762
1562225769414000;6.674716
1562225769664000;6.791325
1562225769914000;6.861802
1562225770164000;6.920747
1562225770414000;6.948369
1562225770664000;6.966308
1562225770914000;7.027816
1562225771164000;7.109826
1562225771414000;7.166208
1562225771664000;7.20465
1562225771914000;7.209775
1562225772164000;7.211057
1562225772414000;7.190555
1562225772664000;7.171333
1562225772914000;7.098293
1562225773164000;7.020127
1562225773414000;6.947087
1562225773664000;6.903519
1562225773914000;6.874047
1562225774164000;6.850981
1562225774414000;6.829197
1562225774664000;6.798444
1562225774914000;6.780504
1562225775164000;6.753594
1562225775414000;6.731811
1562225775664000;6.706182
1562225775914000;6.702338
1562225776164000;6.715152
1562225776414000;6.735655
1562225776664000;6.756157
1562225776914000;6.808695
1562225777164000;6.877891
1562225777414000;6.936836
1562225777664000;6.977841
1562225777914000;6.994499
1562225778164000;6.988092
1562225778414000;6.975278
1562225778664000;6.943243
1562225778914000;6.895831
1562225779164000;6.856107
1562225779414000;6.815102
1562225779664000;6.7946
1562225779914000;6.820228
1562225780164000;6.856107
1562225780414000;6.890705
1562225780664000;6.907363
1562225780914000;6.909926
1562225781164000;6.908645
1562225781414000;6.886861
1562225781664000;6.85867
1562225781914000;6.824072
1562225782164000;6.7946
1562225782414000;6.763845
1562225782664000;6.736936
1562225782914000;6.726685
1562225783164000;6.677991
1562225783414000;6.666459
1562225783664000;6.647237
1562225783914000;6.639549
1562225784164000;6.626735
1562225784414000;6.608795
1562225784664000;6.599825
1562225784914000;6.602388
1562225785164000;6.613921
1562225785414000;6.639549
1562225785664000;6.653645
1562225785914000;6.665177
1562225786164000;6.663896
1562225786414000;6.660051
1562225786664000;6.65877
1562225786914000;6.665177
1562225787164000;6.720278
1562225787414000;6.799725
1562225787664000;6.883017
1562225787914000;6.950931
1562225788164000;6.999625
1562225788414000;7.011158
1562225788664000;7.016283
1562225788914000;7.000906
1562225789164000;6.961183
1562225789414000;6.918896
1562225789664000;6.868921
1562225789914000;6.822791
1562225790164000;6.799725
1562225790414000;6.76769
1562225790664000;6.738217
1562225790914000;6.713871
1562225791164000;6.695931
1562225791414000;6.674147
1562225791664000;6.662614
1562225791914000;6.652363
1562225792164000;6.648519
1562225792414000;6.647237
1562225792664000;6.636986
1562225792914000;6.630579
1562225793164000;6.616484
1562225793414000;6.601107
1562225793664000;6.57676
1562225793914000;6.554976
1562225794164000;6.54985
1562225794414000;6.530629
1562225794664000;6.533192
1562225794914000;6.553695
1562225795164000;6.530629
1562225795414000;6.524222
1562225795664000;6.525504
1562225795914000;6.570353
1562225796164000;6.665177
1562225796414000;6.788192
1562225796664000;6.930429
1562225796914000;7.041911
1562225797164000;7.12264
1562225797414000;7.180303
1562225797664000;7.20465
1562225797914000;7.199524
1562225798164000;7.173896
1562225798414000;7.125203
1562225798664000;7.075228
1562225798914000;7.023972
1562225799164000;6.971434
1562225799414000;6.921459
1562225799664000;6.870203
1562225799914000;6.812539
1562225800164000;6.766408
1562225800414000;6.74078
1562225800664000;6.715152
1562225800914000;6.715152
1562225801164000;6.788192
1562225801414000;6.877891
1562225801664000;6.973997
1562225801914000;7.043192
1562225802164000;7.085479
1562225802414000;7.108544
1562225802664000;7.103419
1562225802914000;7.098293
1562225803164000;7.094449
1562225803414000;7.081635
1562225803664000;7.064977
1562225803914000;7.045755
1562225804164000;7.018846
1562225804414000;6.980403
1562225804664000;6.943243
1562225804914000;6.908645
1562225805164000;6.880454
1562225805414000;6.853544
1562225805664000;6.817665
1562225805914000;6.798444
1562225806164000;6.775378
1562225806414000;6.762564
1562225806664000;6.748469
1562225806914000;6.738217
1562225807164000;6.730529
1562225807414000;6.724122
1562225807664000;6.712589
1562225807914000;6.702338
1562225808164000;6.69465
1562225808414000;6.684398
1562225808664000;6.679273
1562225808914000;6.672866
1562225809164000;6.666459
1562225809414000;6.661333
1562225809664000;6.654926
1562225809914000;6.652363
1562225810164000;6.654926
1562225810414000;6.651082
1562225810664000;6.643393
1562225810914000;6.639549
1562225811164000;6.635705
1562225811414000;6.630579
1562225811664000;6.621609
1562225811914000;6.620328
1562225812164000;6.612639
1562225812414000;6.615202
1562225812664000;6.611358
1562225812914000;6.606233
1562225813164000;6.615202
1562225813414000;6.6498
1562225813664000;6.68568
1562225813914000;6.717715
1562225814164000;6.74078
1562225814414000;6.753594
1562225814664000;6.757439
1562225814914000;6.753594
1562225815164000;6.748469
1562225815414000;6.743343
1562225815664000;6.74975
1562225815914000;6.75872
1562225816164000;6.762564
1562225816414000;6.761283
1562225816664000;6.761283
1562225816914000;6.753594
1562225817164000;6.738217
1562225817414000;6.724122
1562225817664000;6.721559
1562225817914000;6.702338
1562225818164000;6.699775
1562225818414000;6.68568
1562225818664000;6.679273
1562225818914000;6.671584
1562225819164000;6.666459
1562225819414000;6.661333
1562225819664000;6.657489
1562225819914000;6.651082
1562225820164000;6.647237
1562225820414000;6.644675
1562225820664000;6.638268
1562225820914000;6.633142
1562225821164000;6.636986
1562225821414000;6.638268
1562225821664000;6.636986
1562225821914000;6.636986
1562225822164000;6.647237
1562225822414000;6.6498
1562225822664000;6.651082
1562225822914000;6.644675
1562225823164000;6.647237
1562225823414000;6.652363
1562225823664000;6.660051
1562225823914000;6.66774
1562225824164000;6.681836
1562225824414000;6.684398
1562225824664000;6.689524
1562225824914000;6.671584
1562225825164000;6.669022
1562225825414000;6.665177
1562225825664000;6.65877
1562225825914000;6.654926
1562225826164000;6.648519
1562225826414000;6.633142
1562225826664000;6.630579
1562225826914000;6.638268
1562225827164000;6.604951
1562225827414000;6.607514
1562225827664000;6.589574
1562225827914000;6.587011
1562225828164000;6.574197
1562225828414000;6.569072
1562225828664000;6.56779
1562225828914000;6.557539
1562225829164000;6.554976
1562225829414000;6.557539
1562225829664000;6.546006
1562225829914000;6.547287
1562225830164000;6.537036
1562225830414000;6.538318
1562225830664000;6.553695
1562225830914000;6.561383
1562225831164000;6.571634
1562225831414000;6.574197
1562225831664000;6.574197
1562225831914000;6.571634
1562225832164000;6.566509
1562225832414000;6.557539
1562225832664000;6.556258
1562225832914000;6.543443
1562225833164000;6.537036
1562225833414000;6.544725
1562225833664000;6.547287
1562225833914000;6.557539
1562225834164000;6.55882
1562225834414000;6.56779
1562225834664000;6.570353
1562225834914000;6.572916
1562225835164000;6.584448
1562225835414000;6.587011
1562225835664000;6.588293
1562225835914000;6.58573
1562225836164000;6.581886
1562225836414000;6.587011
1562225836664000;6.579323
1562225836914000;6.57676
1562225837164000;6.566509
1562225837414000;6.56779
1562225837664000;6.571634
1562225837914000;6.588293
1562225838164000;6.597262
1562225838414000;6.598544
1562225838664000;6.598544
1562225838914000;6.598544
1562225839164000;6.570353
1562225839414000;6.570353
1562225839664000;6.570353
1562225839914000;6.570353
1562225840164000;6.570353
1562225840414000;6.570353
1562225840664000;6.570353
1562225840914000;6.570353
1562225841164000;6.570353
1562225841414000;6.570353
1562225841664000;6.570353
1562225841914000;6.570353
1562225842164000;6.570353
1562225842414000;6.570353
1562225842664000;6.570353
1562225842914000;6.570353
1562225843164000;6.570353
1562225843414000;6.570353
1562225843664000;6.570353
1562225843914000;6.565228
1562225844164000;6.557539
1562225844414000;6.551132
1562225844664000;6.548569
1562225844914000;6.537036
1562225845164000;6.535755
1562225845414000;6.55882
1562225845664000;6.589574
1562225845914000;6.642112
1562225846164000;6.681836
1562225846414000;6.711308
1562225846664000;6.730529
1562225846914000;6.733092
1562225847164000;6.731811
1562225847414000;6.717715
1562225847664000;6.703619
1562225847914000;6.693368
1562225848164000;6.684398
1562225848414000;6.681836
1562225848664000;6.674147
1562225848914000;6.663896
1562225849164000;6.669022
1562225849414000;6.674147
1562225849664000;6.671584
1562225849914000;6.681836
1562225850164000;6.704901
1562225850414000;6.736936
1562225850664000;6.766408
1562225850914000;6.78563
1562225851164000;6.802288
1562225851414000;6.808695
1562225851664000;6.792037
1562225851914000;6.788192
1562225852164000;6.768971
1562225852414000;6.745906
1562225852664000;6.731811
1562225852914000;6.710026
1562225853164000;6.695931
1562225853414000;6.683117
1562225853664000;6.669022
1562225853914000;6.654926
1562225854164000;6.644675
1562225854414000;6.633142
1562225854664000;6.628016
1562225854914000;6.620328
1562225855164000;6.606233
1562225855414000;6.610076
1562225855664000;6.601107
1562225855914000;6.593418
1562225856164000;6.580604
1562225856414000;6.578042
1562225856664000;6.570353
1562225856914000;6.560102
1562225857164000;6.547287
1562225857414000;6.542162
1562225857664000;6.535755
1562225857914000;6.525504
1562225858164000;6.528067
1562225858414000;6.528067
1562225858664000;6.522941
1562225858914000;6.511408
1562225859164000;6.507564
1562225859414000;6.506283
1562225859664000;6.490906
1562225859914000;6.489625
1562225860164000;6.48578
1562225860414000;6.480654
1562225860664000;6.47681
1562225860914000;6.475529
1562225861164000;6.470403
1562225861414000;6.469122
1562225861664000;6.465278
1562225861914000;6.461433
1562225862164000;6.45887
1562225862414000;6.449901
1562225862664000;6.443493
1562225862914000;6.435805
1562225863164000;6.430679
1562225863414000;6.428117
1562225863664000;6.437656
1562225863914000;6.442781
1562225864164000;6.45944
1562225864414000;6.492756
1562225864664000;6.52351
1562225864914000;6.54145
1562225865164000;6.558108
1562225865414000;6.55939
1562225865664000;6.552982
1562225865914000;6.547857
1562225866164000;6.540168
1562225866414000;6.55042
1562225866664000;6.561953
1562225866914000;6.588862
1562225867164000;6.606802
1562225867414000;6.627304
1562225867664000;6.62346
1562225867914000;6.626023
1562225868164000;6.620897
1562225868414000;6.615771
1562225868664000;6.626023
1562225868914000;6.700345
1562225869164000;6.829767
1562225869414000;6.979692
1562225869664000;7.112389
1562225869914000;7.196961
1562225870164000;7.261032
1562225870414000;7.282816
1562225870664000;7.285379
1562225870914000;7.298193
1562225871164000;7.358419
1562225871414000;7.427615
1562225871664000;7.47456
1562225871914000;7.493781
1562225872164000;7.482248
1562225872414000;7.461746
1562225872664000;7.420741
1562225872914000;7.36564
1562225873164000;7.311821
1562225873414000;7.249032
1562225873664000;7.193932
1562225873914000;7.143957
1562225874164000;7.104233
1562225874414000;7.04657
1562225874664000;7.004283
1562225874914000;6.963278
1562225875164000;6.927399
1562225875414000;6.899675
1562225875664000;6.86764
1562225875914000;6.845856
1562225876164000;6.821509
1562225876414000;6.803569
1562225876664000;6.790755
1562225876914000;6.776659
1562225877164000;6.768971
1562225877414000;6.74975
1562225877664000;6.727966
1562225877914000;6.718997
1562225878164000;6.711308
1562225878414000;6.701056
1562225878664000;6.689524
1562225878914000;6.677991
1562225879164000;6.67671
1562225879414000;6.66774
1562225879664000;6.669022
1562225879914000;6.662614
1562225880164000;6.65877
1562225880414000;6.6498
1562225880664000;6.642112
1562225880914000;6.634423
1562225881164000;6.626735
1562225881414000;6.612639
1562225881664000;6.612639
1562225881914000;6.604951
1562225882164000;6.602388
1562225882414000;6.597262
1562225882664000;6.593418
1562225882914000;6.583167
1562225883164000;6.574197
1562225883414000;6.563946
1562225883664000;6.565228
1562225883914000;6.557539
1562225884164000;6.56779
1562225884414000;6.630579
1562225884664000;6.720278
1562225884914000;6.822791
1562225885164000;6.902238
1562225885414000;6.954775
1562225885664000;6.988092
1562225885914000;6.998343
1562225886164000;6.986811
1562225886414000;6.965027
1562225886664000;6.92274
1562225886914000;6.88558
1562225887164000;6.850981
1562225887414000;6.820228
1562225887664000;6.804851
1562225887914000;6.784348
1562225888164000;6.76769
1562225888414000;6.763845
1562225888664000;6.74078
1562225888914000;6.711308
1562225889164000;6.690805
1562225889414000;6.665177
1562225889664000;6.65877
1562225889914000;6.651082
1562225890164000;6.645956
1562225890414000;6.644675
1562225890664000;6.683117
1562225890914000;6.763845
1562225891164000;6.880454
1562225891414000;6.984248
1562225891664000;7.072665
1562225891914000;7.123921
1562225892164000;7.155957
1562225892414000;7.163645
1562225892664000;7.145705
1562225892914000;7.125203
1562225893164000;7.132891
1562225893414000;7.22259
1562225893664000;7.346886
1562225893914000;7.446836
1562225894164000;7.521972
1562225894414000;7.551445
1562225894664000;7.554008
1562225894914000;7.537349
1562225895164000;7.495062
1562225895414000;7.470716
1562225895664000;7.519409
1562225895914000;7.618078
1562225896164000;7.689837
1562225896414000;7.723153
1562225896664000;7.752625
1562225896914000;7.748781
1562225897164000;7.746219
1562225897414000;7.719309
1562225897664000;7.668053
1562225897914000;7.591168
1562225898164000;7.509158
1562225898414000;7.436118
1562225898664000;7.369484
1562225898914000;7.315665
1562225899164000;7.264409
1562225899414000;7.232374
1562225899664000;7.20162
1562225899914000;7.181118
1562225900164000;7.160615
1562225900414000;7.14652
1562225900664000;7.134987
1562225900914000;7.120892
1562225901164000;7.109359
1562225901414000;7.10167
1562225901664000;7.090137
1562225901914000;7.077323
1562225902164000;7.074761
1562225902414000;7.072198
1562225902664000;7.059384
1562225902914000;7.054258
1562225903164000;7.052977
1562225903414000;7.045288
