
23/Feb/2020 22:50:46
0.00 - Opened log file.
0.35 - Loaded file C:\Users\Robert\Desktop\SetFiles\in\3_fandango_1.set.
0.01 - Highpass filter: 4.000Hz, transition band: 0.50, order: 464.
0.02 - Lowpass filter: 45.000Hz, transition band: 2.50, order: 72.
0.01 - Notch filter: 48.500 to 51.500Hz, transition band: 1.00, order: 228.
14.29 - Ran ICA.
14.78 - Rejected no components.
15.29 - Finished.
Final baseline variance: NaN.
