1545046526911300;0,9375434

1545046579507490;1,015672

1545046580429410;0,9219179

1545046581429450;1,000046

1545046582398250;0,9687948

1545046583476420;1,078175

1545046598492740;1,156303

1545046680168400;0,9219177

1545046681137190;0,9687948

1545046724904850;1,015672

1545046803267850;0,9219177

1545047087890410;1,046924

1545047089015460;1,125052

1545047215443190;1,125052

1545047311010110;0,9531691

1545047312103910;1,093801

1545047410655350;0,9219177

1545047507159820;1,000046

1545047508144240;0,9844205

1545047656322980;0,9687948

1545047657354280;1,031298

