1565262983872000;7.082916
1565262984122000;7.088042
1565262984372000;7.091886
1565262984622000;7.09573
1565262984872000;7.093167
1565262985122000;7.1047
1565262985372000;7.094449
1565262985622000;7.107263
1565262985872000;7.109826
1565262986122000;7.103419
1565262986372000;7.111107
1565262986622000;7.1047
1565262986872000;7.102138
1565262987122000;7.109826
1565262987372000;7.1047
1565262987622000;7.102138
1565262987872000;7.1047
1565262988122000;7.105982
1565262988372000;7.109826
1565262988622000;7.108544
1565262988872000;7.105982
1565262989122000;7.11367
1565262989372000;7.114952
1565262989622000;7.117514
1565262989872000;7.12264
1565262990122000;7.125203
1565262990372000;7.121358
1565262990622000;7.127766
1565262990872000;7.129047
1565262991122000;7.136735
1565262991372000;7.136735
1565262991622000;7.129047
1565262991872000;7.129047
1565262992122000;7.141861
1565262992372000;7.135454
1565262992622000;7.13161
1565262992872000;7.136735
1565262993122000;7.134172
1565262993372000;7.139298
1565262993622000;7.134172
1565262993872000;7.138017
1565262994122000;7.139298
1565262994372000;7.135454
1565262994622000;7.14058
1565262994872000;7.145705
1565262995122000;7.150831
1565262995372000;7.146986
1565262995622000;7.139298
1565262995872000;7.14058
1565262996122000;7.149549
1565262996372000;7.139298
1565262996622000;7.141861
1565262996872000;7.148268
1565262997122000;7.141861
1565262997372000;7.141861
1565262997622000;7.139298
1565262997872000;7.155957
1565262998122000;7.159801
1565262998372000;7.153394
1565262998622000;7.162364
1565262998872000;7.167489
1565262999122000;7.164927
1565262999372000;7.166208
1565262999622000;7.164927
1565262999872000;7.167489
1565263000122000;7.168771
1565263000372000;7.162364
1565263000622000;7.161082
1565263000872000;7.159801
1565263001122000;7.155957
1565263001372000;7.163645
1565263001622000;7.170052
1565263001872000;7.163645
1565263002122000;7.173896
1565263002372000;7.171333
1565263002622000;7.182866
1565263002872000;7.18671
1565263003122000;7.187992
1565263003372000;7.19568
1565263003622000;7.198243
1565263003872000;7.200806
1565263004122000;7.203369
1565263004372000;7.20465
1565263004622000;7.198243
1565263004872000;7.202087
1565263005122000;7.212338
1565263005372000;7.207213
1565263005622000;7.205932
1565263005872000;7.200806
1565263006122000;7.205932
1565263006372000;7.205932
1565263006622000;7.211057
1565263006872000;7.218746
1565263007122000;7.225152
1565263007372000;7.227715
1565263007622000;7.234122
1565263007872000;7.243093
1565263008122000;7.24053
1565263008372000;7.245655
1565263008622000;7.258469
1565263008872000;7.255907
1565263009122000;7.253344
1565263009372000;7.259751
1565263009622000;7.259751
1565263009872000;7.263595
1565263010122000;7.258469
1565263010372000;7.255907
1565263010622000;7.255907
1565263010872000;7.255907
1565263011122000;7.257188
1565263011372000;7.267439
1565263011622000;7.255907
1565263011872000;7.261032
1565263012122000;7.253344
1565263012372000;7.254625
1565263012622000;7.259751
1565263012872000;7.259751
1565263013122000;7.267439
1565263013372000;7.275127
1565263013622000;7.278972
1565263013872000;7.287941
1565263014122000;7.290504
1565263014372000;7.28666
1565263014622000;7.289223
1565263014872000;7.289223
1565263015122000;7.290504
1565263015372000;7.29563
1565263015622000;7.293067
1565263015872000;7.29563
1565263016122000;7.298193
1565263016372000;7.289223
1565263016622000;7.281535
1565263016872000;7.27769
1565263017122000;7.287941
1565263017372000;7.285379
1565263017622000;7.271283
1565263017872000;7.267439
1565263018122000;7.271283
1565263018372000;7.259751
1565263018622000;7.263595
1565263018872000;7.263595
1565263019122000;7.258469
1565263019372000;7.264876
1565263019622000;7.253344
1565263019872000;7.253344
1565263020122000;7.255907
1565263020372000;7.246936
1565263020622000;7.244374
1565263020872000;7.250781
1565263021122000;7.244374
1565263021372000;7.243093
1565263021622000;7.244374
1565263021872000;7.244374
1565263022122000;7.245655
1565263022372000;7.237967
1565263022622000;7.241811
1565263022872000;7.239248
1565263023122000;7.241811
1565263023372000;7.241811
1565263023622000;7.241811
1565263023872000;7.232841
1565263024122000;7.239248
1565263024372000;7.248218
1565263024622000;7.237967
1565263024872000;7.232841
1565263025122000;7.237967
1565263025372000;7.23156
1565263025622000;7.226434
1565263025872000;7.230278
1565263026122000;7.226434
1565263026372000;7.225152
1565263026622000;7.216183
1565263026872000;7.218746
1565263027122000;7.216183
1565263027372000;7.211057
1565263027622000;7.208494
1565263027872000;7.212338
1565263028122000;7.207213
1565263028372000;7.202087
1565263028622000;7.200806
1565263028872000;7.196961
1565263029122000;7.196961
1565263029372000;7.196961
1565263029622000;7.19568
1565263029872000;7.196961
1565263030122000;7.207213
1565263030372000;7.202087
1565263030622000;7.207213
1565263030872000;7.208494
1565263031122000;7.208494
1565263031372000;7.205932
1565263031622000;7.200806
1565263031872000;7.203369
1565263032122000;7.208494
1565263032372000;7.198243
1565263032622000;7.193117
1565263032872000;7.199524
1565263033122000;7.187992
1565263033372000;7.180303
1565263033622000;7.180303
1565263033872000;7.173896
1565263034122000;7.166208
1565263034372000;7.172615
1565263034622000;7.161082
1565263034872000;7.161082
1565263035122000;7.158519
1565263035372000;7.152112
1565263035622000;7.146986
1565263035872000;7.143142
1565263036122000;7.149549
1565263036372000;7.171333
1565263036622000;7.191836
1565263036872000;7.227715
1565263037122000;7.287941
1565263037372000;7.321258
1565263037622000;7.354575
1565263037872000;7.372515
1565263038122000;7.396861
1565263038372000;7.394299
1565263038622000;7.398143
1565263038872000;7.398143
1565263039122000;7.396861
1565263039372000;7.37764
1565263039622000;7.373796
1565263039872000;7.362263
1565263040122000;7.339198
1565263040372000;7.326384
1565263040622000;7.32254
1565263040872000;7.316133
1565263041122000;7.3046
1565263041372000;7.29563
1565263041622000;7.273846
1565263041872000;7.278972
1565263042122000;7.267439
1565263042372000;7.254625
1565263042622000;7.248218
1565263042872000;7.245655
1565263043122000;7.232841
1565263043372000;7.236685
1565263043622000;7.236685
1565263043872000;7.232841
1565263044122000;7.24053
1565263044372000;7.24053
1565263044622000;7.230278
1565263044872000;7.226434
1565263045122000;7.230278
1565263045372000;7.22259
1565263045622000;7.214901
1565263045872000;7.208494
1565263046122000;7.212338
1565263046372000;7.211057
1565263046622000;7.208494
1565263046872000;7.227715
1565263047122000;7.225152
1565263047372000;7.23156
1565263047622000;7.235404
1565263047872000;7.246936
1565263048122000;7.244374
1565263048372000;7.255907
1565263048622000;7.273846
1565263048872000;7.291786
1565263049122000;7.327665
1565263049372000;7.349449
1565263049622000;7.366107
1565263049872000;7.376359
1565263050122000;7.393017
1565263050372000;7.389173
1565263050622000;7.399424
1565263050872000;7.39558
1565263051122000;7.391736
1565263051372000;7.382766
1565263051622000;7.363544
1565263051872000;7.354575
1565263052122000;7.346886
1565263052372000;7.344324
1565263052622000;7.336635
1565263052872000;7.323821
1565263053122000;7.334072
1565263053372000;7.337916
1565263053622000;7.357138
1565263053872000;7.362263
1565263054122000;7.376359
1565263054372000;7.390454
1565263054622000;7.391736
1565263054872000;7.399424
1565263055122000;7.412238
1565263055372000;7.401987
1565263055622000;7.396861
1565263055872000;7.394299
1565263056122000;7.381485
1565263056372000;7.375077
1565263056622000;7.373796
1565263056872000;7.353293
1565263057122000;7.341761
1565263057372000;7.340479
1565263057622000;7.330228
1565263057872000;7.323821
1565263058122000;7.321258
1565263058372000;7.319977
1565263058622000;7.314851
1565263058872000;7.307163
1565263059122000;7.311007
1565263059372000;7.303319
1565263059622000;7.298193
1565263059872000;7.296911
1565263060122000;7.287941
1565263060372000;7.29563
1565263060622000;7.285379
1565263060872000;7.291786
1565263061122000;7.290504
1565263061372000;7.281535
1565263061622000;7.280253
1565263061872000;7.281535
1565263062122000;7.307163
1565263062372000;7.35073
1565263062622000;7.394299
1565263062872000;7.440429
1565263063122000;7.502751
1565263063372000;7.53863
1565263063622000;7.566822
1565263063872000;7.591168
1565263064122000;7.591168
1565263064372000;7.588605
1565263064622000;7.582198
1565263064872000;7.570666
1565263065122000;7.562977
1565263065372000;7.56554
1565263065622000;7.550163
1565263065872000;7.537349
1565263066122000;7.516847
1565263066372000;7.507877
1565263066622000;7.498907
1565263066872000;7.486093
1565263067122000;7.480967
1565263067372000;7.463027
1565263067622000;7.452776
1565263067872000;7.450213
1565263068122000;7.434836
1565263068372000;7.427148
1565263068622000;7.432273
1565263068872000;7.428429
1565263069122000;7.415615
1565263069372000;7.409208
1565263069622000;7.39255
1565263069872000;7.389987
1565263070122000;7.395113
1565263070372000;7.38358
1565263070622000;7.37461
1565263070872000;7.379736
1565263071122000;7.363078
1565263071372000;7.35667
1565263071622000;7.361796
1565263071872000;7.352826
1565263072122000;7.357952
1565263072372000;7.35667
1565263072622000;7.341294
1565263072872000;7.338731
1565263073122000;7.340012
1565263073372000;7.351545
1565263073622000;7.350264
1565263073872000;7.35667
1565263074122000;7.366922
1565263074372000;7.378454
1565263074622000;7.379736
1565263074872000;7.382298
1565263075122000;7.384861
1565263075372000;7.396394
1565263075622000;7.384861
1565263075872000;7.382298
1565263076122000;7.384861
1565263076372000;7.391269
1565263076622000;7.378454
1565263076872000;7.381017
1565263077122000;7.377173
1565263077372000;7.369484
1565263077622000;7.370766
1565263077872000;7.372047
1565263078122000;7.360515
1565263078372000;7.351545
1565263078622000;7.338731
1565263078872000;7.334887
1565263079122000;7.333605
1565263079372000;7.341294
1565263079622000;7.332324
1565263079872000;7.323354
1565263080122000;7.325917
1565263080372000;7.322073
1565263080622000;7.315665
1565263080872000;7.31054
1565263081122000;7.304133
1565263081372000;7.299007
1565263081622000;7.293881
1565263081872000;7.296444
1565263082122000;7.293881
1565263082372000;7.304133
1565263082622000;7.299007
1565263082872000;7.305414
1565263083122000;7.327198
1565263083372000;7.334887
1565263083622000;7.364359
1565263083872000;7.400239
1565263084122000;7.414334
1565263084372000;7.427148
1565263084622000;7.443806
1565263084872000;7.450213
1565263085122000;7.461746
1565263085372000;7.46559
1565263085622000;7.459183
1565263085872000;7.459183
1565263086122000;7.460464
1565263086372000;7.454058
1565263086622000;7.432273
1565263086872000;7.422022
1565263087122000;7.419459
1565263087372000;7.418178
1565263087622000;7.404083
1565263087872000;7.397676
1565263088122000;7.388706
1565263088372000;7.39255
1565263088622000;7.386143
1565263088872000;7.396394
1565263089122000;7.381017
1565263089372000;7.378454
1565263089622000;7.372047
1565263089872000;7.357952
1565263090122000;7.369484
1565263090372000;7.360515
1565263090622000;7.345138
1565263090872000;7.33745
1565263091122000;7.341294
1565263091372000;7.328479
1565263091622000;7.324636
1565263091872000;7.309258
1565263092122000;7.322073
1565263092372000;7.313103
1565263092622000;7.299007
1565263092872000;7.295163
1565263093122000;7.28363
1565263093372000;7.287475
1565263093622000;7.2926
1565263093872000;7.284912
1565263094122000;7.279786
1565263094372000;7.273379
1565263094622000;7.266972
1565263094872000;7.26569
1565263095122000;7.260565
1565263095372000;7.263128
1565263095622000;7.259284
1565263095872000;7.266972
1565263096122000;7.273379
1565263096372000;7.263128
1565263096622000;7.260565
1565263096872000;7.268253
1565263097122000;7.278504
1565263097372000;7.266972
1565263097622000;7.26569
1565263097872000;7.259284
1565263098122000;7.270816
1565263098372000;7.274661
1565263098622000;7.281067
1565263098872000;7.299007
1565263099122000;7.325917
1565263099372000;7.370766
1565263099622000;7.384861
1565263099872000;7.413053
1565263100122000;7.443806
1565263100372000;7.469434
1565263100622000;7.469434
1565263100872000;7.47456
1565263101122000;7.463027
1565263101372000;7.450213
1565263101622000;7.450213
1565263101872000;7.44765
1565263102122000;7.443806
1565263102372000;7.433555
1565263102622000;7.404083
1565263102872000;7.397676
1565263103122000;7.391269
1565263103372000;7.378454
1565263103622000;7.366922
1565263103872000;7.37461
1565263104122000;7.350264
1565263104372000;7.345138
1565263104622000;7.332324
1565263104872000;7.328479
1565263105122000;7.316947
1565263105372000;7.31054
1565263105622000;7.304133
1565263105872000;7.30157
1565263106122000;7.297726
1565263106372000;7.291319
1565263106622000;7.288756
1565263106872000;7.284912
1565263107122000;7.28363
1565263107372000;7.264409
1565263107622000;7.258002
1565263107872000;7.279786
1565263108122000;7.282349
1565263108372000;7.30157
1565263108622000;7.2926
1565263108872000;7.304133
1565263109122000;7.30157
1565263109372000;7.305414
1565263109622000;7.316947
1565263109872000;7.345138
1565263110122000;7.366922
1565263110372000;7.393831
1565263110622000;7.395113
1565263110872000;7.406645
1565263111122000;7.419459
1565263111372000;7.413053
1565263111622000;7.414334
1565263111872000;7.424585
1565263112122000;7.419459
1565263112372000;7.413053
1565263112622000;7.41049
1565263112872000;7.39255
1565263113122000;7.382298
1565263113372000;7.381017
1565263113622000;7.364359
1565263113872000;7.35667
1565263114122000;7.35667
1565263114372000;7.354108
1565263114622000;7.33745
1565263114872000;7.348982
1565263115122000;7.324636
1565263115372000;7.314384
1565263115622000;7.314384
1565263115872000;7.316947
1565263116122000;7.299007
1565263116372000;7.290037
1565263116622000;7.278504
1565263116872000;7.272098
1565263117122000;7.266972
1565263117372000;7.247751
1565263117622000;7.256721
1565263117872000;7.258002
1565263118122000;7.241344
1565263118372000;7.240062
1565263118622000;7.243906
1565263118872000;7.228529
1565263119122000;7.223404
1565263119372000;7.222123
1565263119622000;7.215715
1565263119872000;7.215715
1565263120122000;7.209309
1565263120372000;7.21059
1565263120622000;7.209309
1565263120872000;7.206746
1565263121122000;7.209309
1565263121372000;7.197776
1565263121622000;7.19265
1565263121872000;7.191369
1565263122122000;7.187525
1565263122372000;7.188806
1565263122622000;7.181118
1565263122872000;7.172148
1565263123122000;7.173429
1565263123372000;7.173429
1565263123622000;7.172148
1565263123872000;7.16574
1565263124122000;7.156771
1565263124372000;7.156771
1565263124622000;7.151645
1565263124872000;7.149082
1565263125122000;7.14652
1565263125372000;7.147801
1565263125622000;7.145238
1565263125872000;7.133706
1565263126122000;7.132424
1565263126372000;7.124736
1565263126622000;7.123454
1565263126872000;7.122173
1565263127122000;7.124736
1565263127372000;7.109359
1565263127622000;7.100389
1565263127872000;7.115766
1565263128122000;7.114484
1565263128372000;7.113203
1565263128622000;7.102952
1565263128872000;7.090137
1565263129122000;7.087575
1565263129372000;7.096545
1565263129622000;7.093982
1565263129872000;7.104233
1565263130122000;7.102952
1565263130372000;7.10167
1565263130622000;7.109359
1565263130872000;7.113203
1565263131122000;7.11064
1565263131372000;7.113203
1565263131622000;7.108078
1565263131872000;7.113203
1565263132122000;7.100389
1565263132372000;7.096545
1565263132622000;7.091419
1565263132872000;7.100389
1565263133122000;7.096545
1565263133372000;7.085012
1565263133622000;7.076042
1565263133872000;7.065791
1565263134122000;7.070917
1565263134372000;7.065791
1565263134622000;7.058103
1565263134872000;7.061946
1565263135122000;7.051695
1565263135372000;7.044007
1565263135622000;7.041444
1565263135872000;7.041444
1565263136122000;7.040163
1565263136372000;7.032474
1565263136622000;7.026067
1565263136872000;7.038881
1565263137122000;7.041444
1565263137372000;7.026067
1565263137622000;7.01966
1565263137872000;7.009409
1565263138122000;7.014534
1565263138372000;7.009409
1565263138622000;7.011971
1565263138872000;7.01966
1565263139122000;7.018379
1565263139372000;7.017097
1565263139622000;6.996595
1565263139872000;6.994032
1565263140122000;7.003002
1565263140372000;7.004283
1565263140622000;6.990188
1565263140872000;7.000439
1565263141122000;6.985062
1565263141372000;6.979937
1565263141622000;6.983781
1565263141872000;6.977374
1565263142122000;6.969685
1565263142372000;6.967123
1565263142622000;6.954309
1565263142872000;6.961997
1565263143122000;6.963278
1565263143372000;6.96456
1565263143622000;6.958153
1565263143872000;6.956871
1565263144122000;6.96456
1565263144372000;6.947901
1565263144622000;6.947901
1565263144872000;6.953027
1565263145122000;6.950464
1565263145372000;6.949183
1565263145622000;6.950464
1565263145872000;6.949183
1565263146122000;6.958153
1565263146372000;6.963278
1565263146622000;6.968404
1565263146872000;6.961997
1565263147122000;6.956871
1565263147372000;6.961997
1565263147622000;6.945338
1565263147872000;6.953027
1565263148122000;6.956871
1565263148372000;6.94662
1565263148622000;6.940213
1565263148872000;6.944057
1565263149122000;6.92868
1565263149372000;6.943243
1565263149622000;6.943243
1565263149872000;6.930429
1565263150122000;6.943243
1565263150372000;6.936836
1565263150622000;6.929147
1565263150872000;6.936836
1565263151122000;6.935555
1565263151372000;6.938117
1565263151622000;6.947087
1565263151872000;6.950931
1565263152122000;6.966308
1565263152372000;6.963745
1565263152622000;6.966308
1565263152872000;6.972715
1565263153122000;6.962464
1565263153372000;6.977841
1565263153622000;6.972715
1565263153872000;6.965027
1565263154122000;6.961183
1565263154372000;6.970152
1565263154622000;6.959901
1565263154872000;6.95862
1565263155122000;6.950931
1565263155372000;6.952213
1565263155622000;6.944524
1565263155872000;6.939399
1565263156122000;6.941961
1565263156372000;6.930429
1565263156622000;6.925303
1565263156872000;6.924022
1565263157122000;6.916333
1565263157372000;6.909926
1565263157622000;6.906082
1565263157872000;6.903519
1565263158122000;6.899675
1565263158372000;6.91377
1565263158622000;6.893268
1565263158872000;6.897112
1565263159122000;6.891986
1565263159372000;6.883017
1565263159622000;6.876609
1565263159872000;6.874047
1565263160122000;6.886861
1565263160372000;6.876609
1565263160622000;6.876609
1565263160872000;6.879172
1565263161122000;6.871484
1565263161372000;6.868921
1565263161622000;6.868921
1565263161872000;6.865077
1565263162122000;6.859951
1565263162372000;6.859951
1565263162622000;6.862514
1565263162872000;6.861233
1565263163122000;6.854825
1565263163372000;6.845856
1565263163622000;6.847137
1565263163872000;6.835605
1565263164122000;6.835605
1565263164372000;6.842011
1565263164622000;6.830479
1565263164872000;6.827916
1565263165122000;6.830479
1565263165372000;6.817665
1565263165622000;6.825353
1565263165872000;6.852263
1565263166122000;6.891986
1565263166372000;6.952213
1565263166622000;7.023972
1565263166872000;7.105982
1565263167122000;7.166208
1565263167372000;7.208494
1565263167622000;7.246936
1565263167872000;7.264876
1565263168122000;7.272565
1565263168372000;7.285379
1565263168622000;7.28666
1565263168872000;7.287941
1565263169122000;7.287941
1565263169372000;7.299474
1565263169622000;7.284097
1565263169872000;7.280253
1565263170122000;7.272565
1565263170372000;7.268721
1565263170622000;7.248218
1565263170872000;7.245655
1565263171122000;7.230278
1565263171372000;7.218746
1565263171622000;7.19568
1565263171872000;7.176459
1565263172122000;7.159801
1565263172372000;7.145705
1565263172622000;7.132891
1565263172872000;7.120077
1565263173122000;7.103419
1565263173372000;7.090605
1565263173622000;7.084198
1565263173872000;7.076509
1565263174122000;7.066258
1565263174372000;7.063695
1565263174622000;7.050881
1565263174872000;7.043192
1565263175122000;7.045755
1565263175372000;7.038067
1565263175622000;7.026534
1565263175872000;7.020127
1565263176122000;7.023972
1565263176372000;7.018846
1565263176622000;7.007313
1565263176872000;6.998343
1565263177122000;6.994499
1565263177372000;6.989374
1565263177622000;6.985529
1565263177872000;6.970152
1565263178122000;6.970152
1565263178372000;6.971434
1565263178622000;6.966308
1565263178872000;6.963745
1565263179122000;6.966308
1565263179372000;6.976559
1565263179622000;6.966308
1565263179872000;6.968871
1565263180122000;6.95862
1565263180372000;6.957338
1565263180622000;6.947087
1565263180872000;6.944524
1565263181122000;6.941961
1565263181372000;6.947087
1565263181622000;6.935555
1565263181872000;6.938117
1565263182122000;6.932992
1565263182372000;6.936836
1565263182622000;6.935555
1565263182872000;6.939399
1565263183122000;6.926584
1565263183372000;6.925303
1565263183622000;6.921459
1565263183872000;6.93171
1565263184122000;6.932992
1565263184372000;6.934273
1565263184622000;6.921459
1565263184872000;6.916333
1565263185122000;6.921459
1565263185372000;6.908645
1565263185622000;6.911208
1565263185872000;6.903519
1565263186122000;6.9048
1565263186372000;6.907363
1565263186622000;6.912489
1565263186872000;6.948369
1565263187122000;7.016283
1565263187372000;7.091886
1565263187622000;7.182866
1565263187872000;7.28666
1565263188122000;7.360982
1565263188372000;7.39558
1565263188622000;7.418645
1565263188872000;7.463027
1565263189122000;7.466872
1565263189372000;7.441244
1565263189622000;7.416897
1565263189872000;7.40152
1565263190122000;7.386143
1565263190372000;7.360515
1565263190622000;7.33745
1565263190872000;7.334887
1565263191122000;7.323354
1565263191372000;7.297726
1565263191622000;7.281067
1565263191872000;7.277223
1565263192122000;7.254158
1565263192372000;7.233655
1565263192622000;7.223404
1565263192872000;7.218278
1565263193122000;7.214434
1565263193372000;7.199057
1565263193622000;7.208027
1565263193872000;7.21059
1565263194122000;7.196495
1565263194372000;7.199057
1565263194622000;7.190087
1565263194872000;7.196495
1565263195122000;7.20162
1565263195372000;7.204183
1565263195622000;7.197776
1565263195872000;7.191369
1565263196122000;7.20162
1565263196372000;7.184962
1565263196622000;7.178555
1565263196872000;7.178555
1565263197122000;7.156771
1565263197372000;7.167022
1565263197622000;7.143957
1565263197872000;7.141394
1565263198122000;7.127298
1565263198372000;7.117047
1565263198622000;7.109359
1565263198872000;7.102952
1565263199122000;7.097826
1565263199372000;7.095263
1565263199622000;7.082449
1565263199872000;7.077323
1565263200122000;7.099107
1565263200372000;7.114484
1565263200622000;7.13755
1565263200872000;7.167022
1565263201122000;7.204183
1565263201372000;7.224686
1565263201622000;7.2375
1565263201872000;7.246469
1565263202122000;7.261846
1565263202372000;7.293881
1565263202622000;7.345138
1565263202872000;7.39255
1565263203122000;7.436118
1565263203372000;7.477123
1565263203622000;7.495062
1565263203872000;7.519409
1565263204122000;7.518128
1565263204372000;7.195213
1565263204622000;7.195213
1565263204872000;7.195213
1565263205122000;7.195213
1565263205372000;7.195213
1565263205622000;7.195213
1565263205872000;7.195213
1565263206122000;7.195213
1565263206372000;7.195213
1565263206622000;7.195213
1565263206872000;7.195213
1565263207122000;7.195213
1565263207372000;7.195213
1565263207622000;7.195213
1565263207872000;7.195213
1565263208122000;7.195213
1565263208372000;7.195213
1565263208622000;7.195213
1565263208872000;7.195213
1565263209122000;7.181118
1565263209372000;7.177273
1565263209622000;7.163178
1565263209872000;7.163178
1565263210122000;7.167022
1565263210372000;7.16574
1565263210622000;7.169585
1565263210872000;7.163178
1565263211122000;7.178555
1565263211372000;7.16574
1565263211622000;7.159334
1565263211872000;7.163178
1565263212122000;7.151645
1565263212372000;7.140112
1565263212622000;7.129861
1565263212872000;7.118329
1565263213122000;7.118329
1565263213372000;7.111921
1565263213622000;7.099107
1565263213872000;7.104233
1565263214122000;7.095263
1565263214372000;7.097826
1565263214622000;7.083731
1565263214872000;7.082449
1565263215122000;7.073479
1565263215372000;7.087575
1565263215622000;7.078605
1565263215872000;7.087575
1565263216122000;7.072198
1565263216372000;7.070917
1565263216622000;7.124736
1565263216872000;7.152926
1565263217122000;7.204183
1565263217372000;7.273379
1565263217622000;7.333605
1565263217872000;7.395113
1565263218122000;7.430992
1565263218372000;7.457902
1565263218622000;7.454058
1565263218872000;7.439962
1565263219122000;7.439962
1565263219372000;7.41049
1565263219622000;7.389987
1565263219872000;7.373329
1565263220122000;7.338731
1565263220372000;7.311821
1565263220622000;7.291319
1565263220872000;7.274661
1565263221122000;7.251595
1565263221372000;7.241344
1565263221622000;7.238781
1565263221872000;7.250314
1565263222122000;7.28363
1565263222372000;7.359233
1565263222622000;7.406645
1565263222872000;7.459183
1565263223122000;7.497625
1565263223372000;7.509158
1565263223622000;7.513002
1565263223872000;7.504033
1565263224122000;7.493781
1565263224372000;7.46559
1565263224622000;7.441244
1565263224872000;7.41049
1565263225122000;7.38358
1565263225372000;7.357952
1565263225622000;7.333605
1565263225872000;7.325917
1565263226122000;7.307977
1565263226372000;7.291319
1565263226622000;7.2926
1565263226872000;7.299007
1565263227122000;7.300289
1565263227372000;7.291319
1565263227622000;7.304133
1565263227872000;7.315665
1565263228122000;7.322073
1565263228372000;7.332324
1565263228622000;7.325917
1565263228872000;7.315665
1565263229122000;7.307977
1565263229372000;7.314384
1565263229622000;7.300289
1565263229872000;7.296444
1565263230122000;7.278504
1565263230372000;7.282349
1565263230622000;7.263128
1565263230872000;7.266972
1565263231122000;7.291319
1565263231372000;7.31951
1565263231622000;7.370766
1565263231872000;7.416897
1565263232122000;7.463027
1565263232372000;7.498907
1565263232622000;7.513002
1565263232872000;7.516847
1565263233122000;7.510439
1565263233372000;7.498907
1565263233622000;7.484811
1565263233872000;7.460464
1565263234122000;7.442525
1565263234372000;7.425867
1565263234622000;7.40152
1565263234872000;7.391269
1565263235122000;7.36564
1565263235372000;7.360515
1565263235622000;7.33745
1565263235872000;7.332324
1565263236122000;7.329761
1565263236372000;7.318228
1565263236622000;7.314384
1565263236872000;7.322073
1565263237122000;7.352826
1565263237372000;7.387424
1565263237622000;7.438681
1565263237872000;7.487374
1565263238122000;7.536067
1565263238372000;7.598856
1565263238622000;7.628329
1565263238872000;7.648831
1565263239122000;7.659083
1565263239372000;7.664208
1565263239622000;7.64755
1565263239872000;7.632173
1565263240122000;7.636017
1565263240372000;7.655239
1565263240622000;7.721872
1565263240872000;7.803882
1565263241122000;7.882048
1565263241372000;7.932023
1565263241622000;7.989551
1565263241872000;8.020305
1565263242122000;8.033118
1565263242372000;8.0344
1565263242622000;8.022867
1565263242872000;8.00749
1565263243122000;7.965204
1565263243372000;7.935731
1565263243622000;7.884475
1565263243872000;7.844752
1565263244122000;7.821686
1565263244372000;7.78837
1565263244622000;7.755053
1565263244872000;7.724299
1565263245122000;7.707641
1565263245372000;7.68842
1565263245622000;7.669199
1565263245872000;7.649978
1565263246122000;7.642289
1565263246372000;7.633319
1565263246622000;7.628194
1565263246872000;7.630756
1565263247122000;7.639726
1565263247372000;7.656384
1565263247622000;7.65254
1565263247872000;7.65254
1565263248122000;7.644852
1565263248372000;7.634601
1565263248622000;7.628194
1565263248872000;7.619224
1565263249122000;7.605128
1565263249372000;7.589751
1565263249622000;7.5795
1565263249872000;7.5795
1565263250122000;7.57053
1565263250372000;7.574375
1565263250622000;7.591033
1565263250872000;7.59744
1565263251122000;7.614098
1565263251372000;7.617942
1565263251622000;7.615379
1565263251872000;7.619224
1565263252122000;7.612817
1565263252372000;7.607691
1565263252622000;7.594877
1565263252872000;7.605128
1565263253122000;7.608973
1565263253372000;7.635882
1565263253622000;7.710204
1565263253872000;7.820405
1565263254122000;7.937013
1565263254372000;8.019023
1565263254622000;8.092064
1565263254872000;8.149727
1565263255122000;8.165104
1565263255372000;8.170229
1565263255622000;8.167666
1565263255872000;8.13435
1565263256122000;8.117692
1565263256372000;8.086938
1565263256622000;8.035682
1565263256872000;7.993395
1565263257122000;7.983144
1565263257372000;7.998521
1565263257622000;8.004928
1565263257872000;8.024149
1565263258122000;8.047215
1565263258372000;8.051059
1565263258622000;8.044651
1565263258872000;8.036963
1565263259122000;8.030556
1565263259372000;8.006209
1565263259622000;7.981863
1565263259872000;7.967767
1565263260122000;7.942139
1565263260372000;7.926762
1565263260622000;7.92548
1565263260872000;7.924199
1565263261122000;7.911385
1565263261372000;7.908822
1565263261622000;7.888319
1565263261872000;7.876787
1565263262122000;7.86141
1565263262372000;7.858847
1565263262622000;7.837063
1565263262872000;7.839626
1565263263122000;7.811435
1565263263372000;7.811435
1565263263622000;7.794777
1565263263872000;7.787088
1565263264122000;7.78837
1565263264372000;7.798621
1565263264622000;7.797339
1565263264872000;7.806309
1565263265122000;7.825531
1565263265372000;7.840908
1565263265622000;7.853722
1565263265872000;8.430155
1565263266122000;8.430155
1565263266372000;8.430155
1565263266622000;8.430155
1565263266872000;8.430155
1565263267122000;8.430155
1565263267372000;8.430155
1565263267622000;8.430155
1565263267872000;8.430155
1565263268122000;8.430155
1565263268372000;8.430155
1565263268622000;8.430155
1565263268872000;8.430155
1565263269122000;8.378899
1565263269372000;8.318672
1565263269622000;8.253321
1565263269872000;8.21616
1565263270122000;8.166184
1565263270372000;8.129024
1565263270622000;8.103395
1565263270872000;8.091863
1565263271122000;8.057265
1565263271372000;8.030355
1565263271622000;8.0342
1565263271872000;8.031637
1565263272122000;8.032918
1565263272372000;8.048295
1565263272622000;8.058546
1565263272872000;8.094426
1565263273122000;8.127743
1565263273372000;8.16234
1565263273622000;8.208471
1565263273872000;8.239225
1565263274122000;8.253321
1565263274372000;8.284075
1565263274622000;8.273823
1565263274872000;8.281511
1565263275122000;8.263572
1565263275372000;8.245632
1565263275622000;8.245632
1565263275872000;8.232818
1565263276122000;8.226411
1565263276372000;8.19822
1565263276622000;8.177717
1565263276872000;8.167466
1565263277122000;8.155933
1565263277372000;8.139276
1565263277622000;8.129024
1565263277872000;8.111084
1565263278122000;8.11621
1565263278372000;8.096989
1565263278622000;8.091863
1565263278872000;8.0893
1565263279122000;8.079049
1565263279372000;8.079049
1565263279622000;8.075205
1565263279872000;8.094426
1565263280122000;8.121335
1565263280372000;8.166184
1565263280622000;8.199501
1565263280872000;8.231537
1565263281122000;8.268698
1565263281372000;8.304577
1565263281622000;8.323798
1565263281872000;8.367366
1565263282122000;8.38018
1565263282372000;8.405808
1565263282622000;8.416059
1565263282872000;8.423748
1565263283122000;8.427592
1565263283372000;8.454501
1565263283622000;8.504477
1565263283872000;8.551888
1565263284122000;8.574954
1565263284372000;8.610833
1565263284622000;8.606989
1565263284872000;8.605708
1565263285122000;8.59802
1565263285372000;8.568547
1565263285622000;8.548044
1565263285872000;8.52626
1565263286122000;8.504477
1565263286372000;8.485255
1565263286622000;8.541637
1565263286872000;8.576236
1565263287122000;8.587769
1565263287372000;8.591612
1565263287622000;8.613397
1565263287872000;8.609552
1565263288122000;8.609552
1565263288372000;8.608271
1565263288622000;8.578798
1565263288872000;8.577517
1565263289122000;8.557014
1565263289372000;8.537793
1565263289622000;8.527542
1565263289872000;8.510883
1565263290122000;8.483974
1565263290372000;8.457065
1565263290622000;8.439125
1565263290872000;8.518572
1565263291122000;8.665934
1565263291372000;8.88121
1565263291622000;9.061889
1565263291872000;9.341137
1565263292122000;9.43468
1565263292372000;9.542922
1565263292622000;9.522419
1565263292872000;9.494228
1565263293122000;9.451941
1565263293372000;9.381465
1565263293622000;9.296891
1565263293872000;9.202067
1565263294122000;9.118775
1565263294372000;9.063675
1565263294622000;9.02267
1565263294872000;8.989353
1565263295122000;8.9586
1565263295372000;8.928523
1565263295622000;8.890081
1565263295872000;8.854201
1565263296122000;8.813196
1565263296372000;8.778599
1565263296622000;8.740156
1565263296872000;8.702995
1565263297122000;8.644051
1565263297372000;8.596639
1565263297622000;8.565885
1565263297872000;8.522317
1565263298122000;8.500533
1565263298372000;8.474905
1565263298622000;8.455684
1565263298872000;8.42493
1565263299122000;8.421185
1565263299372000;8.412215
1565263299622000;8.391712
1565263299872000;8.381461
1565263300122000;8.386587
1565263300372000;8.359677
1565263300622000;8.351989
1565263300872000;8.345582
1565263301122000;8.328923
1565263301372000;8.318672
1565263301622000;8.296888
1565263301872000;8.290482
1565263302122000;8.2892
1565263302372000;8.285356
1565263302622000;8.275105
1565263302872000;8.27126
1565263303122000;8.27126
1565263303372000;8.296888
1565263303622000;8.392994
1565263303872000;8.535231
1565263304122000;8.703094
1565263304372000;8.847894
1565263304622000;8.936311
1565263304872000;9.020784
1565263305122000;9.04385
1565263305372000;9.033599
1565263305622000;9.007971
1565263305872000;8.96184
1565263306122000;8.905458
1565263306372000;8.831137
1565263306622000;8.767066
1565263306872000;8.71581
1565263307122000;8.663272
1565263307372000;8.624829
1565263307622000;8.585106
1565263307872000;8.563322
1565263308122000;8.535131
1565263308372000;8.509502
1565263308622000;8.492845
1565263308872000;8.491563
1565263309122000;8.468498
1565263309372000;8.464654
1565263309622000;8.449277
1565263309872000;8.445433
1565263310122000;8.464654
1565263310372000;8.536412
1565263310622000;8.653021
1565263310872000;8.837543
1565263311122000;9.001564
1565263311372000;9.145082
1565263311622000;9.22581
1565263311872000;9.287317
1565263312122000;9.289881
1565263312372000;9.274504
1565263312622000;9.224528
1565263312872000;9.171991
1565263313122000;9.111765
1565263313372000;9.029755
1565263313622000;8.95287
1565263313872000;8.881111
1565263314122000;8.790132
1565263314372000;8.752971
1565263314622000;8.718372
1565263314872000;8.687618
1565263315122000;8.650457
1565263315372000;8.622267
1565263315622000;8.578699
1565263315872000;8.56076
1565263316122000;8.549227
1565263316372000;8.518473
1565263316622000;8.500533
1565263316872000;8.485156
1565263317122000;8.46209
1565263317372000;8.453121
1565263317622000;8.445433
1565263317872000;8.435182
1565263318122000;8.4339
1565263318372000;8.436462
1565263318622000;8.447995
1565263318872000;8.441588
1565263319122000;8.446713
1565263319372000;8.46209
1565263319622000;8.46081
1565263319872000;8.474905
1565263320122000;8.48003
1565263320372000;8.467216
1565263320622000;8.468498
1565263320872000;8.473623
1565263321122000;8.471061
1565263321372000;8.477468
1565263321622000;8.477468
1565263321872000;8.481312
1565263322122000;8.491563
1565263322372000;8.504377
1565263322622000;8.51591
1565263322872000;8.528724
1565263323122000;8.554352
1565263323372000;8.585106
1565263323622000;8.609452
1565263323872000;8.646613
1565263324122000;8.678649
1565263324372000;8.702995
1565263324622000;8.69787
1565263324872000;8.687618
1565263325122000;8.668398
1565263325372000;8.659428
1565263325622000;8.651739
1565263325872000;8.635081
1565263326122000;8.637644
1565263326372000;8.628674
1565263326622000;8.612016
1565263326872000;8.604327
1565263327122000;8.619704
1565263327372000;8.619704
1565263327622000;8.608171
1565263327872000;8.604327
1565263328122000;8.59792
1565263328372000;8.592794
1565263328622000;8.599201
1565263328872000;8.587668
1565263329122000;8.57998
1565263329372000;8.565885
1565263329622000;8.564604
1565263329872000;8.556915
1565263330122000;8.555634
1565263330372000;8.573573
1565263330622000;8.576136
1565263330872000;8.601765
1565263331122000;8.603045
1565263331372000;8.629955
1565263331622000;8.656865
1565263331872000;8.67096
1565263332122000;8.668398
1565263332372000;8.67096
1565263332622000;8.674805
1565263332872000;8.705559
1565263333122000;8.737594
1565263333372000;8.772192
1565263333622000;8.800383
1565263333872000;8.813196
1565263334122000;8.822166
1565263334372000;8.823448
1565263334622000;8.820885
1565263334872000;8.827292
1565263335122000;8.819604
1565263335372000;8.799101
1565263335622000;8.77091
1565263335872000;8.769629
1565263336122000;8.764503
1565263336372000;8.77091
1565263336622000;8.799101
1565263336872000;8.842669
1565263337122000;8.873423
1565263337372000;8.87086
1565263337622000;8.890081
1565263337872000;8.892644
1565263338122000;8.890081
1565263338372000;8.869578
1565263338622000;8.854201
1565263338872000;8.837543
1565263339122000;8.823448
1565263339372000;8.808071
1565263339622000;8.793976
1565263339872000;8.785006
1565263340122000;8.769629
1565263340372000;8.76194
1565263340622000;8.756815
1565263340872000;8.749126
1565263341122000;8.742719
1565263341372000;8.733749
1565263341622000;8.723498
1565263341872000;8.720935
1565263342122000;8.708121
1565263342372000;8.705559
1565263342622000;8.691463
1565263342872000;8.681211
1565263343122000;8.674805
1565263343372000;8.687618
1565263343622000;8.674805
1565263343872000;8.676085
1565263344122000;8.668398
1565263344372000;8.669679
1565263344622000;8.683774
1565263344872000;8.769629
1565263345122000;8.906739
1565263345372000;9.105358
1565263345622000;9.29885
1565263345872000;9.444931
1565263346122000;9.598022
1565263346372000;9.644154
1565263346622000;9.644154
1565263346872000;9.619806
1565263347122000;9.592896
1565263347372000;9.516012
1565263347622000;9.442972
1565263347872000;9.355836
1565263348122000;9.284078
1565263348372000;9.199505
1565263348622000;9.136716
1565263348872000;9.082896
1565263349122000;9.029078
1565263349372000;8.985509
1565263349622000;8.941941
1565263349872000;8.910583
1565263350122000;8.886237
1565263350372000;8.873423
1565263350622000;8.842669
1565263350872000;8.836262
1565263351122000;8.81704
1565263351372000;8.792694
1565263351622000;8.778599
1565263351872000;8.77091
1565263352122000;8.765784
1565263352372000;8.749126
1565263352622000;8.733749
1565263352872000;8.728623
1565263353122000;8.727343
1565263353372000;8.741438
1565263353622000;8.763222
1565263353872000;8.793976
1565263354122000;8.818322
1565263354372000;8.837543
1565263354622000;8.838825
1565263354872000;8.840106
1565263355122000;8.850357
1565263355372000;8.84395
1565263355622000;8.834981
1565263355872000;8.846513
1565263356122000;8.860609
1565263356372000;8.928523
1565263356622000;9.013096
1565263356872000;9.092544
1565263357122000;9.163021
1565263357372000;9.211715
1565263357622000;9.232217
1565263357872000;9.248876
1565263358122000;9.245031
1565263358372000;9.219403
1565263358622000;9.189931
1565263358872000;9.168147
1565263359122000;9.128423
1565263359372000;9.078448
1565263359622000;9.054101
1565263359872000;9.028473
1565263360122000;9.000282
1565263360372000;8.982343
1565263360622000;8.954151
1565263360872000;8.938775
1565263361122000;8.960559
1565263361372000;9.019504
1565263361622000;9.106639
1565263361872000;9.202744
1565263362122000;9.283473
1565263362372000;9.346262
1565263362622000;9.370609
1565263362872000;9.387267
1565263363122000;9.385986
1565263363372000;9.370609
1565263363622000;9.346262
1565263363872000;9.315509
1565263364122000;9.279629
1565263364372000;9.232217
1565263364622000;9.192493
1565263364872000;9.155333
1565263365122000;9.150207
1565263365372000;9.157895
1565263365622000;9.20787
1565263365872000;9.286036
1565263366122000;9.368047
1565263366372000;9.433398
1565263366622000;9.501917
1565263366872000;9.509605
1565263367122000;9.512168
1565263367372000;9.485258
1565263367622000;9.451941
1565263367872000;9.4135
1565263368122000;9.364806
1565263368372000;9.318675
1565263368622000;9.269982
1565263368872000;9.227695
1565263369122000;9.184128
1565263369372000;9.152092
1565263369622000;9.121339
1565263369872000;9.105962
1565263370122000;9.080334
1565263370372000;9.057268
1565263370622000;9.047017
1565263370872000;9.035484
1565263371122000;9.048299
1565263371372000;9.066238
1565263371622000;9.082896
1565263371872000;9.107244
1565263372122000;9.109806
1565263372372000;9.12262
1565263372622000;9.107244
1565263372872000;9.098273
1565263373122000;9.085459
1565263373372000;9.068801
1565263373622000;9.057268
1565263373872000;9.04958
1565263374122000;9.062394
1565263374372000;9.054706
1565263374622000;9.05855
1565263374872000;9.066238
1565263375122000;9.061112
1565263375372000;9.059831
1565263375622000;9.05855
1565263375872000;9.050861
1565263376122000;9.047017
1565263376372000;9.057268
1565263376622000;9.04061
1565263376872000;9.026514
1565263377122000;9.026514
1565263377372000;9.012419
1565263377622000;9.014982
1565263377872000;9.026514
1565263378122000;9.03164
1565263378372000;9.055986
1565263378622000;9.082896
1565263378872000;9.118775
1565263379122000;9.14056
1565263379372000;9.1585
1565263379622000;9.168751
1565263379872000;9.179002
1565263380122000;9.198223
1565263380372000;9.207193
1565263380622000;9.193097
1565263380872000;9.196941
1565263381122000;9.202067
1565263381372000;9.189253
1565263381622000;9.205912
1565263381872000;9.252042
1565263382122000;9.335334
1565263382372000;9.463474
1565263382622000;9.617244
1565263382872000;9.747948
1565263383122000;9.845334
1565263383372000;9.908123
1565263383622000;9.926063
1565263383872000;9.914531
1565263384122000;9.881214
1565263384372000;9.835083
1565263384622000;9.769732
1565263384872000;9.715912
1565263385122000;9.636465
1565263385372000;9.571113
1565263385622000;9.524982
1565263385872000;9.510887
1565263386122000;9.512168
1565263386372000;9.531389
1565263386622000;9.55958
1565263386872000;9.583927
1565263387122000;9.581365
1565263387372000;9.569832
1565263387622000;9.557017
1565263387872000;9.523701
1565263388122000;9.487822
1565263388372000;9.457067
1565263388622000;9.416062
1565263388872000;9.367369
1565263389122000;9.363524
1565263389372000;9.380183
1565263389622000;9.230258
1565263389872000;8.799706
1565263390122000;8.272443
1565263390372000;7.917592
1565263390622000;8.117692
1565263390872000;8.233018
1565263391122000;8.157415
1565263391372000;8.543119
1565263391622000;8.783824
1565263391872000;8.923497
1565263392122000;9.032317
1565263392372000;9.127142
1565263392622000;9.148926
1565263392872000;9.122016
1565263393122000;9.081011
1565263393372000;8.987468
1565263393622000;9.007971
1565263393872000;8.911865
1565263394122000;8.765784
1565263394372000;8.614578
1565263394622000;8.545382
1565263394872000;8.450558
1565263395122000;8.41596
1565263395372000;8.340456
1565263395622000;8.280231
1565263395872000;8.213597
1565263396122000;8.141838
1565263396372000;8.081612
1565263396622000;8.035481
1565263396872000;8.000883
1565263397122000;7.963722
1565263397372000;7.954752
1565263397622000;7.930406
1565263397872000;7.912466
1565263398122000;7.901134
1565263398372000;7.880631
1565263398622000;7.87038
1565263398872000;7.858847
1565263399122000;7.847314
1565263399372000;7.846033
1565263399622000;7.848596
1565263399872000;7.856284
1565263400122000;7.880631
1565263400372000;7.907541
1565263400622000;7.928043
1565263400872000;7.944702
1565263401122000;7.966486
1565263401372000;7.9793
1565263401622000;7.9793
1565263401872000;7.974174
1565263402122000;7.974174
1565263402372000;7.974174
1565263402622000;7.988269
1565263402872000;7.981863
1565263403122000;7.962641
1565263403372000;7.945983
1565263403622000;7.928043
1565263403872000;7.935731
1565263404122000;7.929325
1565263404372000;7.924199
1565263404622000;7.921636
1565263404872000;7.935731
1565263405122000;7.937013
1565263405372000;7.93445
1565263405622000;7.940857
1565263405872000;7.963923
1565263406122000;8.019023
1565263406372000;8.05234
1565263406622000;8.080531
1565263406872000;8.108722
1565263407122000;8.170229
1565263407372000;8.293244
1565263407622000;8.44317
1565263407872000;8.633899
1565263408122000;8.805608
1565263408372000;8.905558
1565263408622000;8.950407
1565263408872000;9.027192
1565263409122000;9.007971
1565263409372000;8.978498
1565263409622000;8.915709
1565263409872000;8.849076
1565263410122000;8.790132
1565263410372000;8.714528
1565263410622000;8.656865
1565263410872000;8.599201
1565263411122000;8.549227
1565263411372000;8.510784
1565263411622000;8.477468
1565263411872000;8.450558
1565263412122000;8.437744
1565263412372000;8.405709
1565263412622000;8.381461
1565263412872000;8.375054
1565263413122000;8.349426
1565263413372000;8.336612
1565263413622000;8.319954
1565263413872000;8.312265
1565263414122000;8.296888
1565263414372000;8.2892
1565263414622000;8.284075
1565263414872000;8.284075
1565263415122000;8.280231
1565263415372000;8.280231
1565263415622000;8.303295
1565263415872000;8.323798
1565263416122000;8.322516
1565263416372000;8.339175
1565263416622000;8.354551
1565263416872000;8.357115
1565263417122000;8.36224
1565263417372000;8.376336
1565263417622000;8.390431
1565263417872000;8.417341
1565263418122000;8.482693
1565263418372000;8.619803
1565263418622000;8.792793
1565263418872000;8.968347
1565263419122000;9.166865
1565263419372000;9.271941
1565263419622000;9.311665
1565263419872000;9.321916
1565263420122000;9.297569
1565263420372000;9.256564
1565263420622000;9.302694
1565263420872000;9.4539
1565263421122000;9.667218
1565263421372000;9.810737
1565263421622000;9.87737
1565263421872000;9.846616
1565263422122000;9.785109
1565263422372000;9.700535
1565263422622000;9.431439
1565263422872000;9.199505
1565263423122000;8.988072
1565263423372000;8.820208
1565263423622000;8.685056
1565263423872000;8.694026
1565263424122000;8.793976
1565263424372000;8.902895
1565263424622000;9.031036
1565263424872000;9.089981
1565263425122000;9.068197
1565263425372000;9.013096
1565263425622000;8.934931
1565263425872000;8.856765
1565263426122000;8.769629
1565263426372000;8.640206
1565263426622000;8.501815
1565263426872000;8.378799
1565263427122000;8.255883
1565263427372000;8.137994
1565263427622000;8.049577
1565263427872000;7.999602
1565263428122000;8.004727
1565263428372000;8.099551
1565263428622000;8.212316
1565263428872000;8.326361
1565263429122000;8.386587
1565263429372000;8.410933
1565263429622000;8.405808
1565263429872000;8.358396
1565263430122000;8.303295
1565263430372000;8.240506
1565263430622000;8.154652
1565263430872000;8.080331
1565263431122000;8.017542
1565263431372000;7.957315
1565263431622000;7.8894
1565263431872000;7.847314
1565263432122000;7.799902
1565263432372000;7.751209
1565263432622000;7.711485
1565263432872000;7.680731
1565263433122000;7.662792
1565263433372000;7.647415
1565263433622000;7.625631
1565263433872000;7.611536
1565263434122000;7.602565
1565263434372000;7.589751
1565263434622000;7.584626
1565263434872000;7.575656
1565263435122000;7.573093
1565263435372000;7.57053
1565263435622000;7.573093
1565263435872000;7.574375
1565263436122000;7.576937
1565263436372000;7.585907
1565263436622000;7.594877
1565263436872000;7.611536
1565263437122000;7.612817
1565263437372000;7.626912
1565263437622000;7.628194
1565263437872000;7.633319
1565263438122000;7.637164
1565263438372000;7.651259
1565263438622000;7.646133
1565263438872000;7.648696
1565263439122000;7.655103
1565263439372000;7.666636
1565263439622000;7.699953
1565263439872000;7.726862
1565263440122000;7.758897
1565263440372000;7.780681
1565263440622000;7.794777
1565263440872000;7.820405
1565263441122000;7.820405
1565263441372000;7.825531
1565263441622000;7.826812
1565263441872000;7.817842
1565263442122000;7.828094
1565263442372000;7.831938
1565263442622000;7.821686
1565263442872000;7.828094
1565263443122000;7.825531
1565263443372000;7.828094
1565263443622000;7.839626
1565263443872000;7.85244
1565263444122000;7.871661
1565263444372000;7.889601
1565263444622000;7.894727
1565263444872000;7.921636
1565263445122000;7.944702
1565263445372000;7.972892
1565263445622000;8.001083
1565263445872000;8.133068
1565263446122000;8.133068
1565263446372000;8.133068
1565263446622000;8.133068
1565263446872000;8.133068
1565263447122000;8.133068
1565263447372000;8.133068
1565263447622000;8.133068
1565263447872000;8.133068
1565263448122000;8.133068
1565263448372000;8.133068
1565263448622000;8.133068
1565263448872000;8.133068
1565263449122000;8.133068
1565263449372000;8.133068
1565263449622000;8.133068
1565263449872000;8.133068
1565263450122000;8.133068
1565263450372000;8.133068
1565263450622000;8.149727
1565263450872000;8.190732
1565263451122000;8.258647
1565263451372000;8.341938
1565263451622000;8.422667
1565263451872000;8.495506
1565263452122000;8.541637
1565263452372000;8.567266
1565263452622000;8.57111
1565263452872000;8.58008
1565263453122000;8.57111
1565263453372000;8.563421
1565263453622000;8.5442
1565263453872000;8.536511
1565263454122000;8.533949
1565263454372000;8.530105
1565263454622000;8.528823
1565263454872000;8.527542
1565263455122000;8.532667
1565263455372000;8.524979
1565263455622000;8.52626
1565263455872000;8.539075
1565263456122000;8.537793
1565263456372000;8.5442
1565263456622000;8.540356
1565263456872000;8.5442
1565263457122000;8.536511
1565263457372000;8.537793
1565263457622000;8.549326
1565263457872000;8.5442
1565263458122000;8.546763
1565263458372000;8.555733
1565263458622000;8.58008
1565263458872000;8.601864
1565263459122000;8.627492
1565263459372000;8.659527
1565263459622000;8.676186
1565263459872000;8.694125
1565263460122000;8.710783
1565263460372000;8.723598
1565263460622000;8.722316
1565263460872000;8.719753
1565263461122000;8.717191
1565263461372000;8.723598
1565263461622000;8.719753
1565263461872000;8.718472
1565263462122000;8.733849
1565263462372000;8.750507
1565263462622000;8.776135
1565263462872000;8.810733
1565263463122000;8.840205
1565263463372000;8.865833
1565263463622000;8.882492
1565263463872000;8.896587
1565263464122000;8.900432
1565263464372000;8.904276
1565263464622000;8.894025
1565263464872000;8.888899
1565263465122000;8.886336
1565263465372000;8.887618
1565263465622000;8.877366
1565263465872000;8.873522
1565263466122000;8.88121
1565263466372000;8.876085
1565263466622000;8.894025
1565263466872000;8.940155
1565263467122000;9.046412
1565263467372000;9.147644
1565263467622000;9.212996
1565263467872000;9.266815
1565263468122000;9.309102
1565263468372000;9.311665
1565263468622000;9.306539
1565263468872000;9.293725
1565263469122000;9.274504
1565263469372000;9.255282
1565263469622000;9.233499
1565263469872000;9.206589
1565263470122000;9.186087
1565263470372000;9.171991
1565263470622000;9.157895
1565263470872000;9.154051
1565263471122000;9.145082
1565263471372000;9.145082
1565263471622000;9.150207
1565263471872000;9.164303
1565263472122000;9.160459
1565263472372000;9.168147
1565263472622000;9.17071
1565263472872000;9.178398
1565263473122000;9.184805
1565263473372000;9.192493
1565263473622000;9.189931
1565263473872000;9.202744
1565263474122000;9.200182
1565263474372000;9.204026
1565263474622000;9.224528
1565263474872000;9.293725
1565263475122000;9.424428
1565263475372000;9.637746
1565263475622000;9.836365
1565263475872000;9.985008
1565263476122000;10.12467
1565263476372000;10.16696
1565263476622000;10.18106
1565263476872000;10.15543
1565263477122000;10.12339
1565263477372000;10.06829
1565263477622000;9.999096
1565263477872000;9.933743
1565263478122000;9.877362
1565263478372000;9.813292
1565263478622000;9.742814
1565263478872000;9.680025
1565263479122000;9.626205
1565263479372000;9.590326
1565263479622000;9.536508
1565263479872000;9.499347
1565263480122000;9.477563
1565263480372000;9.442965
1565263480622000;9.421188
1565263480872000;9.405811
1565263481122000;9.390434
1565263481372000;9.371213
1565263481622000;9.360962
1565263481872000;9.346867
1565263482122000;9.34046
1565263482372000;9.335334
1565263482622000;9.335334
1565263482872000;9.336616
1565263483122000;9.336616
1565263483372000;9.357118
1565263483622000;9.385308
1565263483872000;9.434002
1565263484122000;9.480133
1565263484372000;9.524982
1565263484622000;9.560862
1565263484872000;9.582645
1565263485122000;9.603148
1565263485372000;9.608274
1565263485622000;9.610837
1565263485872000;9.59546
1565263486122000;9.590334
1565263486372000;9.55958
1565263486622000;9.549329
1565263486872000;9.530107
1565263487122000;9.517294
1565263487372000;9.504479
1565263487622000;9.494228
1565263487872000;9.490384
1565263488122000;9.489102
1565263488372000;9.485258
1565263488622000;9.485258
1565263488872000;9.504479
1565263489122000;9.522419
1565263489372000;9.558299
1565263489622000;9.572394
1565263489872000;9.585209
1565263490122000;9.592896
1565263490372000;9.605711
1565263490622000;9.605711
1565263490872000;9.603148
1565263491122000;9.598022
1565263491372000;9.587771
1565263491622000;9.590334
1565263491872000;9.591616
1565263492122000;9.583927
1565263492372000;9.59546
1565263492622000;9.598022
1565263492872000;9.615962
1565263493122000;9.644154
1565263493372000;9.678751
1565263493622000;9.69541
1565263493872000;9.712068
1565263494122000;9.728726
1565263494372000;9.738977
1565263494622000;9.735133
1565263494872000;9.727445
1565263495122000;9.717194
1565263495372000;9.704379
1565263495622000;9.700535
1565263495872000;9.694128
1565263496122000;9.682595
1565263496372000;9.687721
1565263496622000;9.67747
1565263496872000;9.680033
1565263497122000;9.682595
1565263497372000;9.705661
1565263497622000;9.708223
1565263497872000;9.735133
1565263498122000;9.746666
1565263498372000;9.737696
1565263498622000;9.726163
1565263498872000;9.496791
1565263499122000;9.011138
1565263499372000;8.954756
1565263499622000;9.014378
1565263499872000;9.037443
1565263500122000;9.054101
1565263500372000;9.063071
1565263500622000;9.055383
1565263500872000;9.092544
1565263501122000;9.579479
1565263501372000;9.833801
1565263501622000;9.973475
1565263501872000;10.33098
1565263502122000;10.36045
1565263502372000;10.42837
1565263502622000;10.38993
1565263502872000;10.36302
1565263503122000;10.35533
1565263503372000;10.29638
1565263503622000;10.19771
1565263503872000;10.09905
1565263504122000;9.987563
1565263504372000;9.888895
1565263504622000;9.809447
1565263504872000;9.737688
1565263505122000;9.668492
1565263505372000;9.618518
1565263505622000;9.581357
1565263505872000;9.54804
1565263506122000;9.513442
1565263506372000;9.48397
1565263506622000;9.463467
1565263506872000;9.445527
1565263507122000;9.434002
1565263507372000;9.414782
1565263507622000;9.418625
1565263507872000;9.410937
1565263508122000;9.389153
1565263508372000;9.362244
1565263508622000;9.348148
1565263508872000;9.334052
1565263509122000;9.328927
1565263509372000;9.321239
1565263509622000;9.323801
1565263509872000;9.317394
1565263510122000;9.303299
1565263510372000;9.339178
1565263510622000;9.290484
1565263510872000;9.31355
1565263511122000;9.500635
1565263511372000;9.615962
1565263511622000;9.713349
1565263511872000;9.792796
1565263512122000;9.83252
1565263512372000;9.958098
1565263512622000;10.12339
1565263512872000;10.22719
1565263513122000;10.28229
1565263513372000;10.32073
1565263513622000;10.32329
1565263513872000;10.28741
1565263514122000;10.25794
1565263514372000;10.21181
1565263514622000;10.14902
1565263514872000;10.10417
1565263515122000;10.05676
1565263515372000;10.00935
1565263515622000;9.973468
1565263515872000;9.938869
1565263516122000;9.908115
1565263516372000;9.888895
1565263516622000;9.877362
1565263516872000;9.872236
1565263517122000;9.879925
1565263517372000;9.879925
1565263517622000;9.888895
1565263517872000;9.891458
1565263518122000;9.895302
1565263518372000;9.885051
1565263518622000;9.888895
1565263518872000;9.90299
1565263519122000;9.897864
1565263519372000;9.895302
1565263519622000;9.897864
1565263519872000;9.899146
1565263520122000;9.89402
1565263520372000;9.864548
1565263520622000;9.863266
1565263520872000;9.859422
1565263521122000;9.872236
1565263521372000;9.865829
1565263521622000;9.923492
1565263521872000;10.08239
1565263522122000;10.31176
1565263522372000;10.56163
1565263522622000;10.84128
1565263522872000;10.99249
1565263523122000;11.11472
1565263523372000;11.12882
1565263523622000;11.08653
1565263523872000;11.03528
1565263524122000;10.93533
1565263524372000;10.80078
1565263524622000;10.66879
1565263524872000;10.54706
1565263525122000;10.44583
1565263525372000;10.35948
1565263525622000;10.27875
1565263525872000;10.21724
1565263526122000;10.16598
1565263526372000;10.12113
1565263526622000;10.0955
1565263526872000;10.06347
1565263527122000;10.0404
1565263527372000;10.01734
1565263527622000;10.00324
1565263527872000;9.986586
1565263528122000;9.969927
1565263528372000;9.95455
1565263528622000;9.952965
1565263528872000;9.950402
1565263529122000;9.941432
1565263529372000;9.946558
1565263529622000;9.937588
1565263529872000;9.926055
1565263530122000;9.933743
1565263530372000;9.942714
1565263530622000;9.938869
1565263530872000;9.942714
1565263531122000;9.932463
1565263531372000;9.938869
1565263531622000;9.936307
1565263531872000;9.936307
1565263532122000;9.938869
1565263532372000;9.945276
1565263532622000;9.946558
1565263532872000;9.960653
1565263533122000;9.96706
1565263533372000;9.961935
1565263533622000;9.969624
1565263533872000;9.970904
1565263534122000;9.978593
1565263534372000;9.988845
1565263534622000;9.987563
1565263534872000;9.988845
1565263535122000;10.00294
1565263535372000;9.999096
1565263535622000;10.00038
1565263535872000;10.0055
1565263536122000;10.01704
1565263536372000;10.01704
1565263536622000;10.02216
1565263536872000;10.03113
1565263537122000;10.026
1565263537372000;10.03498
1565263537622000;10.03626
1565263537872000;10.04779
1565263538122000;10.04138
1565263538372000;10.05035
1565263538622000;10.05548
1565263538872000;10.05804
1565263539122000;10.05676
1565263539372000;10.06445
1565263539622000;10.07342
1565263539872000;10.0747
1565263540122000;10.08239
1565263540372000;10.09392
1565263540622000;10.08367
1565263540872000;10.08495
1565263541122000;10.08367
1565263541372000;10.09264
1565263541622000;10.10417
1565263541872000;10.12339
1565263542122000;10.16312
1565263542372000;10.19259
1565263542622000;10.23231
1565263542872000;10.27332
1565263543122000;10.33739
1565263543372000;10.40274
1565263543622000;10.46553
1565263543872000;10.58372
1565263544122000;10.64779
1565263544372000;10.6952
1565263544622000;10.73108
1565263544872000;10.74518
1565263545122000;10.74902
1565263545372000;10.7439
1565263545622000;10.73365
1565263545872000;10.71699
1565263546122000;10.69777
1565263546372000;10.68752
1565263546622000;10.6747
1565263546872000;10.67598
1565263547122000;10.67855
1565263547372000;10.6747
1565263547622000;10.67214
1565263547872000;10.67726
1565263548122000;10.67855
1565263548372000;10.68239
1565263548622000;10.67342
1565263548872000;10.67855
1565263549122000;10.67086
1565263549372000;10.67086
1565263549622000;10.66189
1565263549872000;10.6542
1565263550122000;10.65035
1565263550372000;10.66829
1565263550622000;10.69008
1565263550872000;10.73877
1565263551122000;10.77593
1565263551372000;10.82078
1565263551622000;10.8541
1565263551872000;10.86435
1565263552122000;10.87716
1565263552372000;10.89126
1565263552622000;10.88357
1565263552872000;10.87332
1565263553122000;10.86563
1565263553372000;10.85922
1565263553622000;10.84128
1565263553872000;10.83616
1565263554122000;10.82591
1565263554372000;10.82591
1565263554622000;10.81309
1565263554872000;10.80156
1565263555122000;10.79644
1565263555372000;10.79644
1565263555622000;10.79003
1565263555872000;10.799
1565263556122000;10.83616
1565263556372000;10.92458
1565263556622000;11.03478
1565263556872000;11.27874
1565263557122000;11.43379
1565263557372000;11.52221
1565263557622000;11.62254
1565263557872000;11.65458
1565263558122000;11.64433
1565263558372000;11.62382
1565263558622000;11.59307
1565263558872000;11.55463
1565263559122000;11.49825
1565263559372000;11.43418
1565263559622000;11.36754
1565263559872000;11.31757
1565263560122000;11.26118
1565263560372000;11.2189
1565263560622000;11.17917
1565263560872000;11.14842
1565263561122000;11.12536
1565263561372000;11.11382
1565263561622000;11.17917
1565263561872000;11.41239
1565263562122000;11.76734
1565263562372000;12.06335
1565263562622000;12.35589
1565263562872000;12.46096
1565263563122000;12.50669
1565263563372000;12.39264
1565263563622000;12.26065
1565263563872000;12.1197
1565263564122000;11.94927
1565263564372000;11.75106
1565263564622000;11.54988
1565263564872000;11.37689
1565263565122000;11.20224
1565263565372000;11.07282
1565263565622000;10.96902
1565263565872000;10.9088
1565263566122000;10.81872
1565263566372000;10.76618
1565263566622000;10.43942
1565263566872000;10.09935
1565263567122000;10.00068
1565263567372000;10.14035
1565263567622000;10.02631
1565263567872000;9.972489
1565263568122000;9.899449
1565263568372000;9.865829
1565263568622000;9.891458
1565263568872000;10.03369
1565263569122000;10.31048
1565263569372000;10.56676
1565263569622000;10.85154
1565263569872000;11.01427
1565263570122000;11.14676
1565263570372000;11.08012
1565263570622000;10.96736
1565263570872000;10.82641
1565263571122000;10.35869
1565263571372000;10.28644
1565263571622000;10.13651
1565263571872000;9.866133
1565263572122000;9.673618
1565263572372000;9.482688
1565263572622000;9.371205
1565263572872000;9.371213
1565263573122000;9.335334
1565263573372000;9.326364
1565263573622000;9.300735
1565263573872000;9.25973
1565263574122000;9.222569
1565263574372000;9.180284
1565263574622000;9.132872
1565263574872000;9.103399
1565263575122000;9.039329
1565263575372000;9.012419
1565263575622000;8.957318
1565263575872000;8.925961
1565263576122000;8.874704
1565263576372000;8.838825
1565263576622000;8.804227
1565263576872000;8.791412
1565263577122000;8.783724
1565263577372000;8.774755
1565263577622000;8.76194
1565263577872000;8.760659
1565263578122000;8.752971
1565263578372000;8.733749
1565263578622000;8.731187
1565263578872000;8.723498
1565263579122000;8.722217
1565263579372000;8.726061
1565263579622000;8.718372
1565263579872000;8.720935
1565263580122000;8.722217
1565263580372000;8.723498
1565263580622000;8.727343
1565263580872000;8.741438
1565263581122000;8.785006
1565263581372000;8.851639
1565263581622000;8.920835
1565263581872000;9.005408
1565263582122000;9.074604
1565263582372000;9.132267
1565263582622000;9.173272
1565263582872000;9.186087
1565263583122000;9.200182
1565263583372000;9.179679
1565263583622000;9.157895
1565263583872000;9.128423
1565263584122000;9.095106
1565263584372000;9.069478
1565263584622000;9.024629
1565263584872000;8.993876
1565263585122000;8.996438
1565263585372000;8.986187
1565263585622000;8.986187
1565263585872000;8.974654
1565263586122000;8.968247
1565263586372000;8.973372
1565263586622000;8.964403
1565263586872000;8.963121
1565263587122000;8.969528
1565263587372000;8.981061
1565263587622000;8.982343
1565263587872000;8.987468
1565263588122000;8.993876
1565263588372000;8.995156
1565263588622000;8.991312
1565263588872000;8.995156
1565263589122000;8.986187
1565263589372000;8.98875
1565263589622000;8.990031
1565263589872000;9.007971
1565263590122000;9.001564
1565263590372000;9.000282
1565263590622000;9.004127
1565263590872000;9.011815
1565263591122000;9.027192
1565263591372000;9.024629
1565263591622000;9.032317
1565263591872000;9.038725
1565263592122000;9.05282
1565263592372000;9.063071
1565263592622000;9.064353
1565263592872000;9.078448
1565263593122000;9.093825
1565263593372000;9.093825
1565263593622000;9.09767
1565263593872000;9.107921
1565263594122000;9.114327
1565263594372000;9.120734
1565263594622000;9.137393
1565263594872000;9.146362
1565263595122000;9.178398
1565263595372000;9.221966
1565263595622000;9.291162
1565263595872000;9.364202
1565263596122000;9.435961
1565263596372000;9.531389
1565263596622000;9.6134
1565263596872000;9.738977
1565263597122000;9.926063
1565263597372000;10.09777
1565263597622000;10.33482
1565263597872000;10.42965
1565263598122000;10.44631
1565263598372000;10.43093
1565263598622000;10.3643
1565263598872000;10.26563
1565263599122000;10.14646
1565263599372000;10.00422
1565263599622000;9.861985
1565263599872000;9.73897
1565263600122000;9.605703
1565263600372000;9.498065
1565263600622000;9.404522
1565263600872000;9.327645
1565263601122000;9.262294
1565263601372000;9.199505
1565263601622000;9.149529
1565263601872000;9.100836
1565263602122000;9.072645
1565263602372000;9.050861
1565263602622000;9.026514
1565263602872000;9.007294
1565263603122000;8.995761
1565263603372000;9.011138
1565263603622000;9.009856
1565263603872000;9.018826
1565263604122000;9.029078
1565263604372000;9.038047
1565263604622000;9.04061
1565263604872000;9.041891
1565263605122000;9.043173
1565263605372000;9.059831
1565263605622000;9.094429
1565263605872000;9.155936
1565263606122000;9.230258
1565263606372000;9.308424
1565263606622000;9.346867
1565263606872000;9.375057
1565263607122000;9.387872
1565263607372000;9.385308
1565263607622000;9.382746
1565263607872000;9.355836
1565263608122000;9.327645
1565263608372000;9.305861
1565263608622000;9.275107
1565263608872000;9.24051
1565263609122000;9.216163
1565263609372000;9.20463
1565263609622000;9.179002
1565263609872000;9.167469
1565263610122000;9.149529
1565263610372000;9.150811
1565263610622000;9.136716
1565263610872000;9.134152
1565263611122000;9.145685
1565263611372000;9.162344
1565263611622000;9.185409
1565263611872000;9.216163
1565263612122000;9.24051
1565263612372000;9.248199
1565263612622000;9.257168
1565263612872000;9.253324
1565263613122000;9.244354
1565263613372000;9.237947
1565263613622000;9.245635
1565263613872000;9.244354
1565263614122000;9.253324
1565263614372000;9.272545
1565263614622000;9.287922
1565263614872000;9.294329
1565263615122000;9.299455
1565263615372000;9.31355
1565263615622000;9.325083
1565263615872000;9.343022
1565263616122000;9.337896
1565263616372000;9.339178
1565263616622000;9.346867
1565263616872000;9.34046
1565263617122000;9.348148
1565263617372000;9.345585
1565263617622000;9.351992
1565263617872000;9.344304
1565263618122000;9.336616
1565263618372000;9.334052
1565263618622000;9.328927
1565263618872000;9.325083
1565263619122000;9.335334
1565263619372000;9.334052
1565263619622000;9.328927
1565263619872000;9.34046
1565263620122000;9.341741
1565263620372000;9.355836
1565263620622000;9.367369
1565263620872000;9.378901
1565263621122000;9.394279
1565263621372000;9.390434
1565263621622000;9.396841
1565263621872000;9.408374
1565263622122000;9.409656
1565263622372000;9.430158
1565263622622000;9.44041
1565263622872000;9.458349
1565263623122000;9.467319
1565263623372000;9.487822
1565263623622000;9.49551
1565263623872000;9.514731
1565263624122000;9.564706
1565263624372000;9.628777
1565263624622000;9.713349
1565263624872000;9.782545
1565263625122000;9.847898
1565263625372000;9.909405
1565263625622000;9.937595
1565263625872000;9.942721
1565263626122000;9.917093
1565263626372000;9.885058
1565263626622000;9.833801
1565263626872000;9.804329
1565263627122000;9.754354
1565263627372000;9.719756
1565263627622000;9.682595
1565263627872000;9.6685
1565263628122000;9.667218
1565263628372000;9.681314
1565263628622000;9.705661
1565263628872000;9.756917
1565263629122000;9.827394
1565263629372000;9.897872
1565263629622000;9.938877
1565263629872000;9.960661
1565263630122000;9.988845
1565263630372000;9.97603
1565263630622000;9.94784
1565263630872000;9.92093
1565263631122000;9.883769
1565263631372000;9.854297
1565263631622000;9.817136
1565263631872000;9.796633
1565263632122000;9.760754
1565263632372000;9.744096
1565263632622000;9.727437
1565263632872000;9.72103
1565263633122000;9.718468
1565263633372000;9.710779
1565263633622000;9.704371
1565263633872000;9.69412
1565263634122000;9.695402
1565263634372000;9.688995
1565263634622000;9.696683
1565263634872000;9.697965
1565263635122000;9.692839
1565263635372000;9.697965
1565263635622000;9.687714
1565263635872000;9.696683
1565263636122000;9.722312
1565263636372000;9.776131
1565263636622000;9.849171
1565263636872000;9.932463
1565263637122000;9.99397
1565263637372000;10.04907
1565263637622000;10.06188
1565263637872000;10.06957
1565263638122000;10.05804
1565263638372000;10.03626
1565263638622000;10.00935
1565263638872000;9.979875
1565263639122000;9.955528
1565263639372000;9.926055
1565263639622000;9.901709
1565263639872000;9.876081
1565263640122000;9.865829
1565263640372000;9.865829
1565263640622000;9.856859
1565263640872000;9.856859
1565263641122000;9.83892
1565263641372000;9.833794
1565263641622000;9.831231
1565263641872000;9.836357
1565263642122000;9.829949
1565263642372000;9.829949
1565263642622000;9.817136
1565263642872000;9.817136
1565263643122000;9.823543
1565263643372000;9.829949
1565263643622000;9.82098
1565263643872000;9.813292
1565263644122000;9.808166
1565263644372000;9.817136
1565263644622000;9.813292
1565263644872000;9.814573
1565263645122000;9.813292
1565263645372000;9.805603
1565263645622000;9.795352
1565263645872000;9.796633
1565263646122000;9.813292
1565263646372000;9.817136
1565263646622000;9.840201
1565263646872000;9.846608
1565263647122000;9.863266
1565263647372000;9.879925
1565263647622000;9.899146
1565263647872000;9.919648
1565263648122000;9.924774
1565263648372000;9.929899
1565263648622000;9.929899
1565263648872000;9.935025
1565263649122000;9.929899
1565263649372000;9.937588
1565263649622000;9.919648
1565263649872000;9.914523
1565263650122000;9.914523
1565263650372000;9.914523
1565263650622000;9.915804
1565263650872000;9.915804
1565263651122000;9.922212
1565263651372000;9.927337
1565263651622000;9.931181
1565263651872000;9.940151
1565263652122000;9.949121
1565263652372000;9.961935
1565263652622000;9.961935
1565263652872000;9.974749
1565263653122000;9.972186
1565263653372000;9.987563
1565263653622000;9.985001
1565263653872000;9.988845
1565263654122000;10.00422
1565263654372000;10.00166
1565263654622000;10.00935
1565263654872000;10.00935
1565263655122000;10.02216
1565263655372000;10.0196
1565263655622000;10.02344
1565263655872000;10.02216
1565263656122000;10.02857
1565263656372000;10.01832
1565263656622000;10.00935
1565263656872000;10.01832
1565263657122000;10.01191
1565263657372000;10.01447
1565263657622000;10.01704
1565263657872000;10.02216
1565263658122000;10.01575
1565263658372000;10.02729
1565263658622000;10.01832
1565263658872000;10.02729
1565263659122000;10.02216
1565263659372000;10.04266
1565263659622000;10.07726
1565263659872000;10.12083
1565263660122000;10.18746
1565263660372000;10.25666
1565263660622000;10.32714
1565263660872000;10.38608
1565263661122000;10.42068
1565263661372000;10.43734
1565263661622000;10.4399
1565263661872000;10.44118
1565263662122000;10.42324
1565263662372000;10.41812
1565263662622000;10.38993
1565263662872000;10.3707
1565263663122000;10.35789
1565263663372000;10.34508
1565263663622000;10.33354
1565263663872000;10.33098
1565263664122000;10.33354
1565263664372000;10.32586
1565263664622000;10.32714
1565263664872000;10.33354
1565263665122000;10.32586
1565263665372000;10.32586
1565263665622000;10.32586
1565263665872000;10.33226
1565263666122000;10.32073
1565263666372000;10.32457
1565263666622000;10.31817
1565263666872000;10.30791
1565263667122000;10.30279
1565263667372000;10.30151
1565263667622000;10.30535
1565263667872000;10.31176
1565263668122000;10.31945
1565263668372000;10.32329
1565263668622000;10.33995
1565263668872000;10.34123
1565263669122000;10.34508
1565263669372000;10.35533
1565263669622000;10.3502
1565263669872000;10.34764
1565263670122000;10.34636
1565263670372000;10.35148
1565263670622000;10.34379
1565263670872000;10.34636
1565263671122000;10.34636
1565263671372000;10.36558
1565263671622000;10.43606
1565263671872000;10.55779
1565263672122000;10.79515
1565263672372000;10.97071
1565263672622000;11.13394
1565263672872000;11.23646
1565263673122000;11.28643
1565263673372000;11.29796
1565263673622000;11.29156
1565263673872000;11.26337
1565263674122000;11.21724
1565263674372000;11.14548
1565263674622000;11.07884
1565263674872000;11.00708
1565263675122000;10.94814
1565263675372000;10.87638
1565263675622000;10.81615
1565263675872000;10.77259
1565263676122000;10.77643
1565263676372000;10.78284
1565263676622000;10.80206
1565263676872000;10.81872
1565263677122000;10.8341
1565263677372000;10.83794
1565263677622000;10.84178
1565263677872000;10.82128
1565263678122000;10.80206
1565263678372000;10.77387
1565263678622000;10.74568
1565263678872000;10.72517
1565263679122000;10.7098
1565263679372000;10.7098
1565263679622000;10.70852
1565263679872000;10.7162
1565263680122000;10.72389
1565263680372000;10.72005
1565263680622000;10.72646
1565263680872000;10.72774
1565263681122000;10.73927
1565263681372000;10.76618
1565263681622000;10.79437
1565263681872000;10.82128
1565263682122000;10.82256
1565263682372000;10.83025
1565263682622000;10.83281
1565263682872000;10.81615
1565263683122000;10.81231
1565263683372000;10.7854
1565263683622000;10.76618
1565263683872000;10.74568
1565263684122000;10.74055
1565263684372000;10.74183
1565263684622000;10.7508
1565263684872000;10.76618
1565263685122000;10.79309
1565263685372000;10.81872
1565263685622000;10.82641
1565263685872000;10.84306
1565263686122000;10.8546
1565263686372000;10.8546
1565263686622000;10.84691
1565263686872000;10.83922
1565263687122000;10.81872
1565263687372000;10.80847
1565263687622000;10.8059
1565263687872000;10.79821
1565263688122000;10.79437
1565263688372000;10.8059
1565263688622000;10.7995
1565263688872000;10.79693
1565263689122000;10.80975
1565263689372000;10.82897
1565263689622000;10.8546
1565263689872000;10.88279
1565263690122000;10.8892
1565263690372000;10.91354
1565263690622000;10.89816
1565263690872000;10.90201
1565263691122000;10.89688
1565263691372000;10.88279
1565263691622000;10.87382
1565263691872000;10.86741
1565263692122000;10.84819
1565263692372000;10.83538
1565263692622000;10.81872
1565263692872000;10.80847
1565263693122000;10.79693
1565263693372000;10.78925
1565263693622000;10.77899
1565263693872000;10.78796
1565263694122000;10.77387
1565263694372000;10.77131
1565263694622000;10.78412
1565263694872000;10.79821
1565263695122000;10.87638
1565263695372000;10.87766
1565263695622000;10.96095
1565263695872000;10.93533
1565263696122000;10.95967
1565263696372000;11.00837
1565263696622000;11.15445
1565263696872000;11.30565
1565263697122000;11.58116
1565263697372000;11.64048
1565263697622000;11.61229
1565263697872000;11.66483
1565263698122000;11.76606
1565263698372000;12.03644
1565263698622000;12.03682
1565263698872000;11.8587
1565263699122000;11.72159
1565263699372000;11.56141
1565263699622000;11.37048
1565263699872000;11.22274
1565263700122000;11.10485
1565263700372000;10.99081
1565263700622000;10.88189
1565263700872000;10.77131
1565263701122000;10.67007
1565263701372000;10.58935
1565263701622000;10.50477
1565263701872000;10.44583
1565263702122000;10.38638
1565263702372000;10.33513
1565263702622000;10.28515
1565263702872000;10.24799
1565263703122000;10.1993
1565263703372000;10.19417
1565263703622000;10.1647
1565263703872000;10.14804
1565263704122000;10.15829
1565263704372000;10.16086
1565263704622000;10.17111
1565263704872000;10.1788
1565263705122000;10.19033
1565263705372000;10.19417
1565263705622000;10.20699
1565263705872000;10.23262
1565263706122000;10.28644
1565263706372000;10.36076
1565263706622000;10.51709
1565263706872000;10.72724
1565263707122000;10.86051
1565263707372000;10.78106
1565263707622000;10.71314
1565263707872000;10.6401
1565263708122000;10.62857
1565263708372000;10.69905
1565263708622000;10.76696
1565263708872000;10.81309
1565263709122000;10.81181
1565263709372000;10.74646
1565263709622000;10.6337
1565263709872000;10.46583
1565263710122000;10.30181
1565263710372000;10.14035
1565263710622000;9.953269
1565263710872000;9.787663
1565263711122000;9.610829
1565263711372000;9.485251
1565263711622000;9.419899
1565263711872000;9.345585
1565263712122000;9.162344
1565263712372000;9.217444
1565263712622000;9.146967
1565263712872000;9.121339
1565263713122000;9.13159
1565263713372000;9.221289
1565263713622000;9.314832
1565263713872000;9.453223
1565263714122000;9.628777
1565263714372000;9.687721
1565263714622000;9.749228
1565263714872000;9.712068
1565263715122000;9.65953
1565263715372000;9.612118
1565263715622000;9.542922
1565263715872000;9.472445
1565263716122000;9.423751
1565263716372000;9.375057
1565263716622000;9.328927
1565263716872000;9.296891
1565263717122000;9.262294
1565263717372000;9.217444
1565263717622000;9.173877
1565263717872000;9.132872
1565263718122000;9.10468
1565263718372000;9.070083
1565263718622000;9.030358
1565263718872000;9.021389
1565263719122000;9.063675
1565263719372000;9.13159
1565263719622000;9.208474
1565263719872000;9.290484
1565263720122000;9.33149
1565263720372000;9.336616
1565263720622000;9.31355
1565263720872000;9.287922
1565263721122000;9.222569
1565263721372000;9.102118
1565263721622000;9.047017
1565263721872000;9.026514
1565263722122000;8.97654
1565263722372000;8.935534
1565263722622000;8.914428
1565263722872000;8.884955
1565263723122000;8.86189
1565263723372000;8.838825
1565263723622000;8.808071
1565263723872000;8.78885
1565263724122000;8.795257
1565263724372000;8.792694
1565263724622000;8.778599
1565263724872000;8.774755
1565263725122000;8.778599
1565263725372000;8.781161
1565263725622000;8.787568
1565263725872000;8.799101
1565263726122000;8.837543
1565263726372000;8.913146
1565263726622000;9.015659
1565263726872000;9.11689
1565263727122000;9.184805
1565263727372000;9.221966
1565263727622000;9.236061
1565263727872000;9.238625
1565263728122000;9.212996
1565263728372000;9.165584
1565263728622000;9.11689
1565263728872000;9.086137
1565263729122000;9.048976
1565263729372000;9.013096
1565263729622000;8.986187
1565263729872000;8.96184
1565263730122000;8.938775
1565263730372000;8.924679
1565263730622000;8.91699
1565263730872000;8.918272
1565263731122000;8.920835
1565263731372000;8.924679
1565263731622000;8.923398
1565263731872000;8.925961
1565263732122000;8.924679
1565263732372000;9.069478
1565263732622000;8.983624
1565263732872000;8.840106
1565263733122000;8.936212
1565263733372000;8.750407
1565263733622000;8.6338
1565263733872000;8.792694
1565263734122000;9.209152
1565263734372000;9.397519
1565263734622000;9.579479
1565263734872000;10.02986
1565263735122000;10.03369
1565263735372000;10.02472
1565263735622000;9.714623
1565263735872000;9.558291
1565263736122000;9.499347
1565263736372000;9.37505
1565263736622000;9.198223
1565263736872000;9.157218
1565263737122000;9.017545
1565263737372000;8.857368
1565263737622000;8.66199
1565263737872000;8.503096
1565263738122000;8.387769
1565263738372000;8.203345
1565263738622000;8.048295
1565263738872000;7.990632
1565263739122000;8.06111
1565263739372000;7.991913
1565263739622000;7.93425
1565263739872000;7.895808
1565263740122000;7.916511
1565263740372000;8.012616
1565263740622000;7.874224
1565263740872000;8.209953
1565263741122000;8.341938
1565263741372000;8.359878
1565263741622000;8.220204
1565263741872000;8.171511
1565263742122000;8.263772
1565263742372000;8.340656
1565263742622000;8.39832
1565263742872000;8.291964
1565263743122000;8.056184
1565263743372000;7.913948
1565263743622000;7.851159
1565263743872000;7.738395
1565263744122000;7.638445
1565263744372000;7.532088
1565263744622000;7.443671
1565263744872000;7.361661
1565263745122000;7.287475
1565263745372000;7.178555
1565263745622000;7.113203
1565263745872000;7.047851
1565263746122000;7.005565
1565263746372000;6.951746
1565263746622000;6.905615
1565263746872000;6.876609
1565263747122000;6.852263
1565263747372000;6.822791
1565263747622000;6.808695
1565263747872000;6.804851
1565263748122000;6.76769
1565263748372000;6.75872
1565263748622000;6.760001
1565263748872000;6.762564
1565263749122000;6.762564
1565263749372000;6.756157
1565263749622000;6.757439
1565263749872000;6.753594
1565263750122000;6.756157
1565263750372000;6.75872
1565263750622000;6.75872
1565263750872000;6.760001
1565263751122000;6.765127
1565263751372000;6.789474
1565263751622000;6.848419
1565263751872000;6.930429
1565263752122000;7.025253
1565263752372000;7.09573
1565263752622000;7.14058
1565263752872000;7.171333
1565263753122000;7.161082
1565263753372000;7.136735
1565263753622000;7.359701
1565263753872000;7.31357
1565263754122000;7.278972
1565263754372000;7.27769
1565263754622000;7.264876
1565263754872000;7.364826
1565263755122000;7.481434
1565263755372000;7.666771
1565263755622000;7.768003
1565263755872000;7.887174
1565263756122000;7.725716
1565263756372000;7.643706
1565263756622000;7.580917
1565263756872000;7.502751
1565263757122000;7.428429
1565263757372000;7.345138
1565263757622000;7.259284
1565263757872000;7.182399
1565263758122000;7.111921
1565263758372000;7.063228
1565263758622000;7.038881
1565263758872000;7.060665
1565263759122000;7.054258
1565263759372000;7.050414
1565263759622000;7.036318
1565263759872000;7.01966
1565263760122000;7.003002
1565263760372000;6.979937
1565263760622000;6.965841
1565263760872000;6.949183
1565263761122000;6.940213
1565263761372000;6.92868
1565263761622000;6.92274
1565263761872000;6.92274
1565263762122000;6.917614
1565263762372000;6.92274
1565263762622000;6.921459
1565263762872000;6.94068
1565263763122000;6.943243
1565263763372000;6.95862
1565263763622000;6.961183
1565263763872000;6.988092
1565263764122000;7.063695
1565263764372000;7.191836
1565263764622000;7.335354
1565263764872000;7.448118
1565263765122000;7.521972
1565263765372000;7.53863
1565263765622000;7.518128
1565263765872000;7.468153
1565263766122000;7.416897
1565263766372000;7.368203
1565263766622000;7.314384
1565263766872000;7.26569
1565263767122000;7.197776
1565263767372000;7.151645
1565263767622000;7.11064
1565263767872000;7.076042
1565263768122000;7.051695
1565263768372000;7.027349
1565263768622000;7.011971
1565263768872000;7.009409
1565263769122000;6.995313
1565263769372000;7.006846
1565263769622000;7.003002
1565263769872000;7.005565
1565263770122000;7.011971
1565263770372000;7.018379
1565263770622000;7.022223
1565263770872000;7.0376
1565263771122000;7.117047
1565263771372000;7.266972
1565263771622000;7.442525
1565263771872000;7.570666
1565263772122000;7.633455
1565263772372000;7.643706
1565263772622000;7.611671
1565263772872000;7.554008
1565263773122000;7.4925
1565263773372000;7.429711
1565263773622000;7.37461
1565263773872000;7.342575
1565263774122000;7.316947
1565263774372000;7.272098
1565263774622000;7.211871
1565263774872000;7.167022
1565263775122000;7.113203
1565263775372000;7.067072
1565263775622000;7.018379
1565263775872000;6.978655
1565263776122000;6.931243
1565263776372000;6.897926
1565263776622000;6.890705
1565263776872000;6.857388
1565263777122000;6.850981
1565263777372000;6.836886
1565263777622000;6.866358
1565263777872000;6.891986
1565263778122000;6.962464
1565263778372000;7.068821
1565263778622000;7.189273
1565263778872000;7.278972
1565263779122000;7.32254
1565263779372000;7.330228
1565263779622000;7.296911
1565263779872000;7.250781
1565263780122000;7.196961
1565263780372000;7.13161
1565263780622000;7.067539
1565263780872000;7.017564
1565263781122000;6.981685
1565263781372000;6.993217
1565263781622000;7.009876
1565263781872000;7.025253
1565263782122000;7.03166
1565263782372000;7.03166
1565263782622000;7.048318
1565263782872000;7.036786
1565263783122000;7.016283
1565263783372000;6.982966
1565263783622000;6.950931
1565263783872000;6.926584
1565263784122000;6.916333
1565263784372000;6.893268
1565263784622000;6.889424
1565263784872000;6.911208
1565263785122000;6.979122
1565263785372000;7.072665
1565263785622000;7.167489
1565263785872000;7.235404
1565263786122000;7.255907
1565263786372000;7.253344
1565263786622000;7.22259
1565263786872000;7.181585
1565263787122000;7.130328
1565263787372000;7.076509
1565263787622000;7.045755
1565263787872000;6.999625
1565263788122000;6.956057
1565263788372000;6.92274
1565263788622000;6.902238
1565263788872000;6.894549
1565263789122000;6.889424
1565263789372000;6.888142
1565263789622000;6.899675
1565263789872000;6.921459
1565263790122000;6.935555
1565263790372000;6.947087
1565263790622000;6.962464
1565263790872000;7.023972
1565263791122000;7.121358
1565263791372000;7.226434
1565263791622000;7.305882
1565263791872000;7.354575
1565263792122000;7.364826
1565263792372000;7.352012
1565263792622000;7.314851
1565263792872000;7.257188
1565263793122000;7.191836
1565263793372000;7.1047
1565263793622000;7.029097
1565263793872000;6.954775
1565263794122000;6.899675
1565263794372000;6.863795
1565263794622000;6.845856
1565263794872000;6.836886
1565263795122000;6.84073
1565263795372000;6.836886
1565263795622000;6.822791
1565263795872000;6.815102
1565263796122000;6.804851
1565263796372000;6.797162
1565263796622000;6.776659
1565263796872000;6.772816
1565263797122000;6.763845
1565263797372000;6.763845
1565263797622000;6.777941
1565263797872000;6.81382
1565263798122000;6.848419
1565263798372000;6.877891
1565263798622000;6.886861
1565263798872000;6.895831
1565263799122000;6.902238
1565263799372000;6.907363
1565263799622000;6.972715
1565263799872000;7.071383
1565263800122000;7.154675
1565263800372000;7.209775
1565263800622000;7.135454
1565263800872000;7.141861
1565263801122000;7.030378
1565263801372000;6.961183
1565263801622000;6.903519
1565263801872000;6.889424
1565263802122000;6.877891
1565263802372000;6.884298
1565263802622000;6.866358
1565263802872000;6.845856
1565263803122000;6.842011
1565263803372000;6.779222
1565263803622000;6.713871
1565263803872000;6.662614
1565263804122000;6.607514
1565263804372000;6.566509
1565263804622000;6.565228
1565263804872000;6.626735
1565263805122000;6.712589
1565263805372000;6.777941
1565263805622000;6.784348
1565263805872000;6.771534
1565263806122000;6.74078
1565263806372000;6.68568
1565263806622000;6.621609
1565263806872000;6.548569
1565263807122000;6.481936
1565263807372000;6.408895
1565263807622000;6.345394
1565263807872000;6.310796
1565263808122000;6.269791
1565263808372000;6.23263
1565263808622000;6.207002
1565263808872000;6.183937
1565263809122000;6.218535
1565263809372000;6.239038
1565263809622000;6.207002
1565263809872000;6.199314
1565263810122000;6.230068
1565263810372000;6.271073
1565263810622000;6.413309
1565263810872000;6.561953
1565263811122000;6.61449
1565263811372000;6.649088
1565263811622000;6.647807
1565263811872000;6.633711
1565263812122000;6.636274
1565263812372000;6.599113
1565263812622000;6.55939
1565263812872000;6.55939
1565263813122000;6.595269
1565263813372000;6.642681
1565263813622000;6.658058
1565263813872000;6.654214
1565263814122000;6.628586
1565263814372000;6.595269
1565263814622000;6.545294
1565263814872000;6.496601
1565263815122000;6.437656
1565263815372000;6.428686
1565263815622000;6.35949
1565263815872000;6.297982
1565263816122000;6.117304
1565263816372000;6.028886
1565263816622000;6.014791
1565263816872000;5.971223
1565263817122000;6.032731
1565263817372000;6.144213
1565263817622000;6.256977
1565263817872000;6.420998
1565263818122000;6.561953
1565263818372000;6.63243
1565263818622000;6.672153
1565263818872000;6.609365
1565263819122000;6.518384
1565263819372000;6.449188
1565263819622000;6.458158
1565263819872000;6.431249
1565263820122000;6.374867
1565263820372000;6.363334
1565263820622000;6.165997
1565263820872000;6.13268
1565263821122000;6.191626
1565263821372000;6.164716
1565263821622000;6.133962
1565263821872000;6.119866
1565263822122000;6.117304
1565263822372000;6.122429
1565263822622000;6.118585
1565263822872000;6.128836
1565263823122000;6.157027
1565263823372000;6.207002
1565263823622000;6.26851
1565263823872000;6.315922
1565263824122000;6.347957
1565263824372000;6.349238
1565263824622000;6.371023
1565263824872000;6.377429
1565263825122000;6.373585
1565263825372000;6.358209
1565263825622000;6.344113
1565263825872000;6.318485
1565263826122000;6.306952
1565263826372000;6.296701
1565263826622000;6.289012
1565263826872000;6.318485
1565263827122000;6.364615
1565263827372000;6.418435
1565263827622000;6.427404
1565263827872000;6.433812
1565263828122000;6.435093
1565263828372000;6.431249
1565263828622000;6.426123
1565263828872000;6.42356
1565263829122000;6.413309
1565263829372000;6.412027
1565263829622000;6.413309
1565263829872000;6.433812
1565263830122000;6.449188
1565263830372000;6.462003
1565263830622000;6.472254
1565263830872000;6.485068
1565263831122000;6.503007
1565263831372000;6.509415
1565263831622000;6.513259
1565263831872000;6.518384
1565263832122000;6.515821
1565263832372000;6.515821
1565263832622000;6.524792
1565263832872000;6.55042
1565263833122000;6.581173
1565263833372000;6.622179
1565263833622000;6.675998
1565263833872000;6.719565
1565263834122000;6.750319
