1562922377999000;0.179408
1562922378249000;0.171719
1562922378499000;0.1755635
1562922378749000;0.176845
1562922378999000;0.176845
1562922379249000;0.1781265
1562922379499000;0.176845
1562922379749000;0.179408
1562922379999000;0.1781265
1562922380249000;0.1999117
1562922380499000;0.1755635
1562922380749000;0.1755635
1562922380999000;0.1730005
1562922381249000;0.1755635
1562922381499000;0.1730005
1562922381749000;0.1755635
1562922381999000;0.176845
1562922382249000;0.1755635
1562922382499000;0.1730005
1562922382749000;0.1730005
1562922382999000;0.1730005
1562922383249000;0.1730005
1562922383499000;0.1755635
1562922383749000;0.174282
1562922383999000;0.176845
1562922384249000;0.176845
1562922384499000;0.176845
1562922384749000;0.174282
1562922384999000;0.174282
1562922385249000;0.174282
1562922385499000;0.1730005
1562922385749000;0.1755635
1562922385999000;0.1755635
1562922386249000;0.174282
1562922386499000;0.1704376
1562922386749000;0.1755635
1562922386999000;0.1730005
1562922387249000;0.1730005
1562922387499000;0.1730005
1562922387749000;0.174282
1562922387999000;0.1730005
1562922388249000;0.1730005
1562922388499000;0.174282
1562922388749000;0.171719
1562922388999000;0.1730005
1562922389249000;0.1665931
1562922389499000;0.1691561
1562922389749000;0.1691561
1562922389999000;0.1704376
1562922390249000;0.1691561
1562922390499000;0.1691561
1562922390749000;0.171719
1562922390999000;0.1704376
1562922391249000;0.171719
1562922391499000;0.1704376
1562922391749000;0.1704376
1562922391999000;0.1691561
1562922392249000;0.174282
1562922392499000;0.174282
1562922392749000;0.174282
1562922392999000;0.174282
1562922393249000;0.1730005
1562922393499000;0.1704376
1562922393749000;0.1704376
1562922393999000;0.171719
1562922394249000;0.171719
1562922394499000;0.174282
1562922394749000;0.1704376
1562922394999000;0.174282
1562922395249000;0.174282
1562922395499000;0.1755635
1562922395749000;0.171719
1562922395999000;0.174282
1562922396249000;0.171719
1562922396499000;0.1730005
1562922396749000;0.1730005
1562922396999000;0.1730005
1562922397249000;0.171719
1562922397499000;0.1704376
1562922397749000;0.1691561
1562922397999000;0.1678746
1562922398249000;0.1691561
1562922398499000;0.1678746
1562922398749000;0.1704376
1562922398999000;0.1704376
1562922399249000;0.1704376
1562922399499000;0.1691561
1562922399749000;0.1704376
1562922399999000;0.1678746
1562922400249000;0.1653116
1562922400499000;0.1691561
1562922400749000;0.1704376
1562922400999000;0.174282
1562922401249000;0.174282
1562922401499000;0.174282
1562922401749000;0.174282
1562922401999000;0.1755635
1562922402249000;0.176845
1562922402499000;0.1755635
1562922402749000;0.1755635
1562922402999000;0.1730005
1562922403249000;0.176845
1562922403499000;0.176845
1562922403749000;0.1755635
1562922403999000;0.174282
1562922404249000;0.174282
1562922404499000;0.174282
1562922404749000;0.1704376
1562922404999000;0.1704376
1562922405249000;0.171719
1562922405499000;0.1730005
1562922405749000;0.171719
1562922405999000;0.174282
1562922406249000;0.1755635
1562922406499000;0.174282
1562922406749000;0.1755635
1562922406999000;0.1730005
1562922407249000;0.171719
1562922407499000;0.1704376
1562922407749000;0.1730005
1562922407999000;0.171719
1562922408249000;0.171719
1562922408499000;0.1704376
1562922408749000;0.1730005
1562922408999000;0.1730005
1562922409249000;0.1704376
1562922409499000;0.1691561
1562922409749000;0.1691561
1562922409999000;0.171719
1562922410249000;0.1704376
1562922410499000;0.1691561
1562922410749000;0.1678746
1562922410999000;0.171719
1562922411249000;0.1640301
1562922411499000;0.1678746
1562922411749000;0.1665931
1562922411999000;0.1691561
1562922412249000;0.1691561
1562922412499000;0.1704376
1562922412749000;0.1678746
1562922412999000;0.1678746
1562922413249000;0.1653116
1562922413499000;0.1653116
1562922413749000;0.1665931
1562922413999000;0.1640301
1562922414249000;0.1678746
1562922414499000;0.1691561
1562922414749000;0.1665931
1562922414999000;0.1665931
1562922415249000;0.1678746
1562922415499000;0.1640301
1562922415749000;0.1653116
1562922415999000;0.1653116
1562922416249000;0.1678746
1562922416499000;0.1678746
1562922416749000;0.1653116
1562922416999000;0.171719
1562922417249000;0.176845
1562922417499000;0.1691561
1562922417749000;0.1653116
1562922417999000;0.1665931
1562922418249000;0.1691561
1562922418499000;0.174282
1562922418749000;0.1755635
1562922418999000;0.1781265
1562922419249000;0.1806894
1562922419499000;0.1755635
1562922419749000;0.179408
1562922419999000;0.1819709
1562922420249000;0.179408
1562922420499000;0.1781265
1562922420749000;0.1755635
1562922420999000;0.174282
1562922421249000;0.1730005
1562922421499000;0.1730005
1562922421749000;0.1730005
1562922421999000;0.1691561
1562922422249000;0.1678746
1562922422499000;0.1691561
1562922422749000;0.1691561
1562922422999000;0.1704376
1562922423249000;0.1691561
1562922423499000;0.1691561
1562922423749000;0.1665931
1562922423999000;0.1704376
1562922424249000;0.1665931
1562922424499000;0.1665931
1562922424749000;0.1665931
1562922424999000;0.1653116
1562922425249000;0.1678746
1562922425499000;0.1678746
1562922425749000;0.1691561
1562922425999000;0.1691561
1562922426249000;0.1678746
1562922426499000;0.1665931
1562922426749000;0.1665931
1562922426999000;0.1678746
1562922427249000;0.1678746
1562922427499000;0.1704376
1562922427749000;0.1691561
1562922427999000;0.1730005
1562922428249000;0.1730005
1562922428499000;0.171719
1562922428749000;0.171719
1562922428999000;0.1678746
1562922429249000;0.1678746
1562922429499000;0.1678746
1562922429749000;0.1691561
1562922429999000;0.1691561
1562922430249000;0.1691561
1562922430499000;0.1653116
1562922430749000;0.1691561
1562922430999000;0.1704376
1562922431249000;0.1678746
1562922431499000;0.1678746
1562922431749000;0.1704376
1562922431999000;0.1704376
1562922432249000;0.171719
1562922432499000;0.171719
1562922432749000;0.171719
1562922432999000;0.171719
1562922433249000;0.1678746
1562922433499000;0.1704376
1562922433749000;0.1678746
1562922433999000;0.1678746
1562922434249000;0.1665931
1562922434499000;0.1678746
1562922434749000;0.1678746
1562922434999000;0.1678746
1562922435249000;0.1704376
1562922435499000;0.1704376
1562922435749000;0.171719
1562922435999000;0.1665931
1562922436249000;0.1678746
1562922436499000;0.1691561
1562922436749000;0.1678746
1562922436999000;0.1704376
1562922437249000;0.1704376
1562922437499000;0.1704376
1562922437749000;0.1704376
1562922437999000;0.1691561
1562922438249000;0.1691561
1562922438499000;0.1653116
1562922438749000;0.1653116
1562922438999000;0.1653116
1562922439249000;0.1640301
1562922439499000;0.1665931
1562922439749000;0.1665931
1562922439999000;0.1678746
1562922440249000;0.1665931
1562922440499000;0.1665931
1562922440749000;0.1678746
1562922440999000;0.1640301
1562922441249000;0.1640301
1562922441499000;0.1614671
1562922441749000;0.1640301
1562922441999000;0.1665931
1562922442249000;0.1653116
1562922442499000;0.1640301
1562922442749000;0.1653116
1562922442999000;0.1653116
1562922443249000;0.1653116
1562922443499000;0.1627486
1562922443749000;0.1640301
1562922443999000;0.1640301
1562922444249000;0.1614671
1562922444499000;0.1653116
1562922444749000;0.1665931
1562922444999000;0.1665931
1562922445249000;0.1665931
1562922445499000;0.1665931
1562922445749000;0.1678746
1562922445999000;0.1653116
1562922446249000;0.1665931
1562922446499000;0.1665931
1562922446749000;0.1665931
1562922446999000;0.1665931
1562922447249000;0.1678746
1562922447499000;0.1691561
1562922447749000;0.1665931
1562922447999000;0.1704376
1562922448249000;0.1678746
1562922448499000;0.1691561
1562922448749000;0.1704376
1562922448999000;0.1704376
1562922449249000;0.171719
1562922449499000;0.1704376
1562922449749000;0.1691561
1562922449999000;0.1704376
1562922450249000;0.1704376
1562922450499000;0.1704376
1562922450749000;0.1653116
1562922450999000;0.1653116
1562922451249000;0.1665931
1562922451499000;0.1653116
1562922451749000;0.1665931
1562922451999000;0.1678746
1562922452249000;0.1678746
1562922452499000;0.1627486
1562922452749000;0.1665931
1562922452999000;0.1678746
1562922453249000;0.1640301
1562922453499000;0.1653116
1562922453749000;0.1653116
1562922453999000;0.1653116
1562922454249000;0.1665931
1562922454499000;0.1665931
1562922454749000;0.1678746
1562922454999000;0.1665931
1562922455249000;0.1640301
1562922455499000;0.1665931
1562922455749000;0.1614671
1562922455999000;0.1627486
1562922456249000;0.1627486
1562922456499000;0.1640301
1562922456749000;0.1640301
1562922456999000;0.1653116
1562922457249000;0.1640301
1562922457499000;0.1653116
1562922457749000;0.1678746
1562922457999000;0.1665931
1562922458249000;0.1678746
1562922458499000;0.1691561
1562922458749000;0.1691561
1562922458999000;0.1691561
1562922459249000;0.171719
1562922459499000;0.1704376
1562922459749000;0.1704376
1562922459999000;0.1704376
1562922460249000;0.1691561
1562922460499000;0.1691561
1562922460749000;0.1653116
1562922460999000;0.1665931
1562922461249000;0.1665931
1562922461499000;0.1665931
1562922461749000;0.1691561
1562922461999000;0.1704376
1562922462249000;0.171719
1562922462499000;0.1704376
1562922462749000;0.1704376
1562922462999000;0.171719
1562922463249000;0.1678746
1562922463499000;0.1653116
1562922463749000;0.1678746
1562922463999000;0.1678746
1562922464249000;0.171719
1562922464499000;0.1704376
1562922464749000;0.171719
1562922464999000;0.1704376
1562922465249000;0.1704376
1562922465499000;0.171719
1562922465749000;0.1678746
1562922465999000;0.1678746
1562922466249000;0.1640301
1562922466499000;0.1691561
1562922466749000;0.1678746
1562922466999000;0.1691561
1562922467249000;0.1678746
1562922467499000;0.1691561
1562922467749000;0.1691561
1562922467999000;0.171719
1562922468249000;0.1704376
1562922468499000;0.1704376
1562922468749000;0.171719
1562922468999000;0.1704376
1562922469249000;0.1730005
1562922469499000;0.1730005
1562922469749000;0.174282
1562922469999000;0.1704376
1562922470249000;0.171719
1562922470499000;0.1691561
1562922470749000;0.1704376
1562922470999000;0.171719
1562922471249000;0.1730005
1562922471499000;0.174282
1562922471749000;0.1730005
1562922471999000;0.1755635
1562922472249000;0.1755635
1562922472499000;0.174282
1562922472749000;0.176845
1562922472999000;0.1781265
1562922473249000;0.1819709
1562922473499000;0.1845339
1562922473749000;0.1858154
1562922473999000;0.1883783
1562922474249000;0.1883783
1562922474499000;0.1858154
1562922474749000;0.1845339
1562922474999000;0.1858154
1562922475249000;0.1806894
1562922475499000;0.1806894
1562922475749000;0.179408
1562922475999000;0.179408
1562922476249000;0.1806894
1562922476499000;0.179408
1562922476749000;0.1819709
1562922476999000;0.179408
1562922477249000;0.1781265
1562922477499000;0.1806894
1562922477749000;0.1781265
1562922477999000;0.176845
1562922478249000;0.176845
1562922478499000;0.176845
1562922478749000;0.1781265
1562922478999000;0.176845
1562922479249000;0.176845
1562922479499000;0.176845
1562922479749000;0.176845
1562922479999000;0.1704376
1562922480249000;0.1730005
1562922480499000;0.174282
1562922480749000;0.174282
1562922480999000;0.1730005
1562922481249000;0.1678746
1562922481499000;0.1665931
1562922481749000;0.1460893
1562922481999000;0.1422449
1562922482249000;0.1601857
1562922482499000;0.1537782
1562922482749000;0.1499338
1562922482999000;0.1576227
1562922483249000;0.1640301
1562922483499000;0.1704376
1562922483749000;0.176845
1562922483999000;0.1806894
1562922484249000;0.1845339
1562922484499000;0.1858154
1562922484749000;0.1883783
1562922484999000;0.1896598
1562922485249000;0.1896598
1562922485499000;0.1896598
1562922485749000;0.1909413
1562922485999000;0.1909413
1562922486249000;0.1896598
1562922486499000;0.1883783
1562922486749000;0.1883783
1562922486999000;0.1858154
1562922487249000;0.1858154
1562922487499000;0.1858154
1562922487749000;0.1883783
1562922487999000;0.1870969
1562922488249000;0.1845339
1562922488499000;0.1883783
1562922488749000;0.1845339
1562922488999000;0.1858154
1562922489249000;0.1832524
1562922489499000;0.1832524
1562922489749000;0.1832524
1562922489999000;0.1858154
1562922490249000;0.1845339
1562922490499000;0.1832524
1562922490749000;0.1832524
1562922490999000;0.1806894
1562922491249000;0.1806894
1562922491499000;0.1806894
1562922491749000;0.1819709
1562922491999000;0.1806894
1562922492249000;0.1832524
1562922492499000;0.1832524
1562922492749000;0.1832524
1562922492999000;0.1806894
1562922493249000;0.1819709
1562922493499000;0.1781265
1562922493749000;0.176845
1562922493999000;0.1781265
1562922494249000;0.1806894
1562922494499000;0.1806894
1562922494749000;0.1819709
1562922494999000;0.179408
1562922495249000;0.179408
1562922495499000;0.1819709
1562922495749000;0.1781265
1562922495999000;0.1781265
1562922496249000;0.1781265
1562922496499000;0.174282
1562922496749000;0.1806894
1562922496999000;0.1819709
1562922497249000;0.1845339
1562922497499000;0.1870969
1562922497749000;0.1909413
1562922497999000;0.1883783
1562922498249000;0.1883783
1562922498499000;0.1896598
1562922498749000;0.1896598
1562922498999000;0.1922228
1562922499249000;0.1883783
1562922499499000;0.1896598
1562922499749000;0.1896598
1562922499999000;0.1883783
1562922500249000;0.1858154
1562922500499000;0.1858154
1562922500749000;0.1858154
1562922500999000;0.1845339
1562922501249000;0.1845339
1562922501499000;0.1858154
1562922501749000;0.1845339
1562922501999000;0.1819709
1562922502249000;0.1845339
1562922502499000;0.1845339
1562922502749000;0.1806894
1562922502999000;0.1806894
1562922503249000;0.1806894
1562922503499000;0.179408
1562922503749000;0.1819709
1562922503999000;0.1806894
1562922504249000;0.179408
1562922504499000;0.1806894
1562922504749000;0.1781265
1562922504999000;0.1806894
1562922505249000;0.1755635
1562922505499000;0.1781265
1562922505749000;0.1755635
1562922505999000;0.1781265
1562922506249000;0.176845
1562922506499000;0.176845
1562922506749000;0.1781265
1562922506999000;0.176845
1562922507249000;0.176845
1562922507499000;0.1730005
1562922507749000;0.174282
1562922507999000;0.174282
1562922508249000;0.174282
1562922508499000;0.174282
1562922508749000;0.174282
1562922508999000;0.174282
1562922509249000;0.1755635
1562922509499000;0.1755635
1562922509749000;0.171719
1562922509999000;0.171719
1562922510249000;0.1704376
1562922510499000;0.171719
1562922510749000;0.174282
1562922510999000;0.174282
1562922511249000;0.174282
1562922511499000;0.171719
1562922511749000;0.174282
1562922511999000;0.1704376
1562922512249000;0.1704376
1562922512499000;0.1704376
1562922512749000;0.1691561
1562922512999000;0.1691561
1562922513249000;0.1704376
1562922513499000;0.171719
1562922513749000;0.171719
1562922513999000;0.1704376
1562922514249000;0.1704376
1562922514499000;0.1678746
1562922514749000;0.1678746
1562922514999000;0.1678746
1562922515249000;0.1691561
1562922515499000;0.1704376
1562922515749000;0.1665931
1562922515999000;0.1704376
1562922516249000;0.1704376
1562922516499000;0.171719
1562922516749000;0.1678746
1562922516999000;0.1678746
1562922517249000;0.1691561
1562922517499000;0.1730005
1562922517749000;0.174282
1562922517999000;0.176845
1562922518249000;0.1781265
1562922518499000;0.1755635
1562922518749000;0.1781265
1562922518999000;0.1755635
1562922519249000;0.1755635
1562922519499000;0.174282
1562922519749000;0.1755635
1562922519999000;0.174282
1562922520249000;0.1730005
1562922520499000;0.174282
1562922520749000;0.174282
1562922520999000;0.174282
1562922521249000;0.1704376
1562922521499000;0.1730005
1562922521749000;0.1755635
1562922521999000;0.174282
1562922522249000;0.176845
1562922522499000;0.176845
1562922522749000;0.1755635
1562922522999000;0.1730005
1562922523249000;0.1973487
1562922523499000;0.171719
1562922523749000;0.171719
1562922523999000;0.1691561
1562922524249000;0.1704376
1562922524499000;0.1730005
1562922524749000;0.171719
1562922524999000;0.171719
1562922525249000;0.1704376
1562922525499000;0.171719
1562922525749000;0.1678746
1562922525999000;0.1678746
1562922526249000;0.1678746
1562922526499000;0.1704376
1562922526749000;0.1665931
1562922526999000;0.1704376
1562922527249000;0.1704376
1562922527499000;0.1691561
1562922527749000;0.171719
1562922527999000;0.1678746
1562922528249000;0.1678746
1562922528499000;0.1665931
1562922528749000;0.1691561
1562922528999000;0.1691561
1562922529249000;0.1691561
1562922529499000;0.1653116
1562922529749000;0.1704376
1562922529999000;0.1653116
1562922530249000;0.1665931
1562922530499000;0.1665931
1562922530749000;0.1665931
1562922530999000;0.1691561
1562922531249000;0.1691561
1562922531499000;0.1704376
1562922531749000;0.1691561
1562922531999000;0.1704376
1562922532249000;0.1640301
1562922532499000;0.1678746
1562922532749000;0.1678746
1562922532999000;0.1691561
1562922533249000;0.1691561
1562922533499000;0.1678746
1562922533749000;0.1704376
1562922533999000;0.1691561
1562922534249000;0.1704376
1562922534499000;0.1678746
1562922534749000;0.1691561
1562922534999000;0.1653116
1562922535249000;0.1704376
1562922535499000;0.1691561
1562922535749000;0.1704376
1562922535999000;0.1730005
1562922536249000;0.1730005
1562922536499000;0.1730005
1562922536749000;0.171719
1562922536999000;0.171719
1562922537249000;0.171719
1562922537499000;0.1730005
1562922537749000;0.1691561
1562922537999000;0.171719
1562922538249000;0.171719
1562922538499000;0.171719
1562922538749000;0.1691561
1562922538999000;0.1691561
1562922539249000;0.1678746
1562922539499000;0.1691561
1562922539749000;0.1691561
1562922539999000;0.1691561
1562922540249000;0.1704376
1562922540499000;0.1678746
1562922540749000;0.1704376
1562922540999000;0.1678746
1562922541249000;0.1678746
1562922541499000;0.1678746
1562922541749000;0.1678746
1562922541999000;0.1691561
1562922542249000;0.1691561
1562922542499000;0.1704376
1562922542749000;0.1704376
1562922542999000;0.1691561
1562922543249000;0.1678746
1562922543499000;0.1653116
1562922543749000;0.1665931
1562922543999000;0.1665931
1562922544249000;0.1665931
1562922544499000;0.1665931
1562922544749000;0.1691561
1562922544999000;0.1691561
1562922545249000;0.1678746
1562922545499000;0.1678746
1562922545749000;0.1653116
1562922545999000;0.1614671
1562922546249000;0.1678746
1562922546499000;0.1640301
1562922546749000;0.1678746
1562922546999000;0.1704376
1562922547249000;0.1691561
1562922547499000;0.171719
1562922547749000;0.1730005
1562922547999000;0.1730005
1562922548249000;0.1704376
1562922548499000;0.1704376
1562922548749000;0.1653116
1562922548999000;0.1691561
1562922549249000;0.171719
1562922549499000;0.1691561
1562922549749000;0.1704376
1562922549999000;0.1691561
1562922550249000;0.1691561
1562922550499000;0.1691561
1562922550749000;0.1665931
1562922550999000;0.1665931
1562922551249000;0.1665931
1562922551499000;0.1640301
1562922551749000;0.1665931
1562922551999000;0.1678746
1562922552249000;0.1665931
1562922552499000;0.1678746
1562922552749000;0.1665931
1562922552999000;0.1665931
1562922553249000;0.1640301
1562922553499000;0.1640301
1562922553749000;0.1653116
1562922553999000;0.1640301
1562922554249000;0.1640301
1562922554499000;0.1665931
1562922554749000;0.1653116
1562922554999000;0.1665931
1562922555249000;0.1640301
1562922555499000;0.1627486
1562922555749000;0.1614671
1562922555999000;0.1614671
1562922556249000;0.1627486
1562922556499000;0.1640301
1562922556749000;0.1640301
1562922556999000;0.1614671
1562922557249000;0.1640301
1562922557499000;0.1640301
1562922557749000;0.1640301
1562922557999000;0.1601857
1562922558249000;0.1614671
1562922558499000;0.1614671
1562922558749000;0.1614671
1562922558999000;0.1640301
1562922559249000;0.1640301
1562922559499000;0.1640301
1562922559749000;0.1614671
1562922559999000;0.1640301
1562922560249000;0.1640301
1562922560499000;0.1601857
1562922560749000;0.1627486
1562922560999000;0.1601857
1562922561249000;0.1627486
1562922561499000;0.1614671
1562922561749000;0.1627486
1562922561999000;0.1627486
1562922562249000;0.1627486
1562922562499000;0.1601857
1562922562749000;0.1589042
1562922562999000;0.1601857
1562922563249000;0.1601857
1562922563499000;0.1601857
1562922563749000;0.1627486
1562922563999000;0.1627486
1562922564249000;0.1614671
1562922564499000;0.1627486
1562922564749000;0.1614671
1562922564999000;0.1614671
1562922565249000;0.1563412
1562922565499000;0.1589042
1562922565749000;0.1601857
1562922565999000;0.1589042
1562922566249000;0.1614671
1562922566499000;0.1614671
1562922566749000;0.1614671
1562922566999000;0.1614671
1562922567249000;0.1627486
1562922567499000;0.1614671
1562922567749000;0.1589042
1562922567999000;0.1550597
1562922568249000;0.1589042
1562922568499000;0.1589042
1562922568749000;0.1614671
1562922568999000;0.1601857
1562922569249000;0.1601857
1562922569499000;0.1614671
1562922569749000;0.1614671
1562922569999000;0.1614671
1562922570249000;0.1576227
1562922570499000;0.1589042
1562922570749000;0.1563412
1562922570999000;0.1589042
1562922571249000;0.1601857
1562922571499000;0.1601857
1562922571749000;0.1614671
1562922571999000;0.1601857
1562922572249000;0.1589042
1562922572499000;0.1614671
1562922572749000;0.1576227
1562922572999000;0.1601857
1562922573249000;0.1576227
1562922573499000;0.1563412
1562922573749000;0.1601857
1562922573999000;0.1576227
1562922574249000;0.1601857
1562922574499000;0.1601857
1562922574749000;0.1614671
1562922574999000;0.1576227
1562922575249000;0.1576227
1562922575499000;0.1576227
1562922575749000;0.1576227
1562922575999000;0.1601857
1562922576249000;0.1576227
1562922576499000;0.1589042
1562922576749000;0.1601857
1562922576999000;0.1589042
1562922577249000;0.1601857
1562922577499000;0.1563412
1562922577749000;0.1563412
1562922577999000;0.1563412
1562922578249000;0.1819709
1562922578499000;0.1589042
1562922578749000;0.1589042
1562922578999000;0.1550597
1562922579249000;0.1563412
1562922579499000;0.1601857
1562922579749000;0.1576227
1562922579999000;0.1563412
1562922580249000;0.1563412
1562922580499000;0.1563412
1562922580749000;0.1589042
1562922580999000;0.1589042
1562922581249000;0.1589042
1562922581499000;0.1589042
1562922581749000;0.1576227
1562922581999000;0.1563412
1562922582249000;0.1563412
1562922582499000;0.1563412
1562922582749000;0.1563412
1562922582999000;0.1576227
1562922583249000;0.1589042
1562922583499000;0.1601857
1562922583749000;0.1563412
1562922583999000;0.1589042
1562922584249000;0.1550597
1562922584499000;0.1537782
1562922584749000;0.1563412
1562922584999000;0.1563412
1562922585249000;0.1563412
1562922585499000;0.1576227
1562922585749000;0.1589042
1562922585999000;0.1576227
1562922586249000;0.1576227
1562922586499000;0.1589042
1562922586749000;0.1550597
1562922586999000;0.1550597
1562922587249000;0.1524968
1562922587499000;0.1576227
1562922587749000;0.1589042
1562922587999000;0.1589042
1562922588249000;0.1589042
1562922588499000;0.1576227
1562922588749000;0.1576227
1562922588999000;0.1550597
1562922589249000;0.1550597
1562922589499000;0.1550597
1562922589749000;0.1550597
1562922589999000;0.1550597
1562922590249000;0.1576227
1562922590499000;0.1576227
1562922590749000;0.1576227
1562922590999000;0.1576227
1562922591249000;0.1563412
1562922591499000;0.1537782
1562922591749000;0.1537782
1562922591999000;0.1550597
1562922592249000;0.1550597
1562922592499000;0.1550597
1562922592749000;0.1550597
1562922592999000;0.1576227
1562922593249000;0.1576227
1562922593499000;0.1576227
1562922593749000;0.1563412
1562922593999000;0.1563412
1562922594249000;0.1537782
1562922594499000;0.1537782
1562922594749000;0.1550597
1562922594999000;0.1537782
1562922595249000;0.1563412
1562922595499000;0.1550597
1562922595749000;0.1563412
1562922595999000;0.1537782
1562922596249000;0.1576227
1562922596499000;0.1537782
1562922596749000;0.1550597
1562922596999000;0.1550597
1562922597249000;0.1563412
1562922597499000;0.1576227
1562922597749000;0.1576227
1562922597999000;0.1576227
1562922598249000;0.1563412
1562922598499000;0.1563412
1562922598749000;0.1589042
1562922598999000;0.1550597
1562922599249000;0.1550597
1562922599499000;0.1550597
1562922599749000;0.1550597
1562922599999000;0.1563412
1562922600249000;0.1563412
1562922600499000;0.1576227
1562922600749000;0.1563412
1562922600999000;0.1550597
1562922601249000;0.1563412
1562922601499000;0.1576227
1562922601749000;0.1576227
1562922601999000;0.1537782
1562922602249000;0.1550597
1562922602499000;0.1550597
1562922602749000;0.1550597
1562922602999000;0.1563412
1562922603249000;0.1563412
1562922603499000;0.1576227
1562922603749000;0.1550597
1562922603999000;0.1563412
1562922604249000;0.1563412
1562922604499000;0.1563412
1562922604749000;0.1524968
1562922604999000;0.1524968
1562922605249000;0.1537782
1562922605499000;0.1537782
1562922605749000;0.1537782
1562922605999000;0.1550597
1562922606249000;0.1550597
1562922606499000;0.1499338
1562922606749000;0.1550597
1562922606999000;0.1563412
1562922607249000;0.1550597
1562922607499000;0.1524968
1562922607749000;0.1524968
1562922607999000;0.1524968
1562922608249000;0.1524968
1562922608499000;0.1550597
1562922608749000;0.1550597
1562922608999000;0.1537782
1562922609249000;0.1512153
1562922609499000;0.1550597
1562922609749000;0.1550597
1562922609999000;0.1550597
1562922610249000;0.1512153
1562922610499000;0.1524968
1562922610749000;0.1537782
1562922610999000;0.1524968
1562922611249000;0.1512153
1562922611499000;0.1422449
1562922611749000;0.1204596
1562922611999000;0.1409634
1562922612249000;0.1486523
1562922612499000;0.1448078
1562922612749000;0.1499338
1562922612999000;0.1524968
1562922613249000;0.1499338
1562922613499000;0.1512153
1562922613749000;0.1512153
1562922613999000;0.1512153
1562922614249000;0.1537782
1562922614499000;0.1537782
1562922614749000;0.1512153
1562922614999000;0.1550597
1562922615249000;0.1550597
1562922615499000;0.1537782
1562922615749000;0.1537782
1562922615999000;0.1537782
1562922616249000;0.1512153
1562922616499000;0.1512153
1562922616749000;0.1512153
1562922616999000;0.1512153
1562922617249000;0.1512153
1562922617499000;0.1524968
1562922617749000;0.1537782
1562922617999000;0.1537782
1562922618249000;0.1524968
1562922618499000;0.1537782
1562922618749000;0.1524968
1562922618999000;0.1537782
1562922619249000;0.1499338
1562922619499000;0.1499338
1562922619749000;0.1499338
1562922619999000;0.1499338
1562922620249000;0.1486523
1562922620499000;0.1524968
1562922620749000;0.1512153
1562922620999000;0.1550597
1562922621249000;0.1537782
1562922621499000;0.1537782
1562922621749000;0.1550597
1562922621999000;0.1512153
1562922622249000;0.1512153
1562922622499000;0.1537782
1562922622749000;0.1512153
1562922622999000;0.1524968
1562922623249000;0.1537782
1562922623499000;0.1537782
1562922623749000;0.1537782
1562922623999000;0.1537782
1562922624249000;0.1537782
1562922624499000;0.1550597
1562922624749000;0.1512153
1562922624999000;0.1512153
1562922625249000;0.1499338
1562922625499000;0.1512153
1562922625749000;0.1486523
1562922625999000;0.1524968
1562922626249000;0.1537782
1562922626499000;0.1537782
1562922626749000;0.1537782
1562922626999000;0.1537782
1562922627249000;0.1524968
1562922627499000;0.1537782
1562922627749000;0.1499338
1562922627999000;0.1499338
1562922628249000;0.1512153
1562922628499000;0.1499338
1562922628749000;0.1524968
1562922628999000;0.1537782
1562922629249000;0.1537782
1562922629499000;0.1537782
1562922629749000;0.1524968
1562922629999000;0.1524968
1562922630249000;0.1486523
1562922630499000;0.1499338
1562922630749000;0.1499338
1562922630999000;0.1499338
1562922631249000;0.1486523
1562922631499000;0.1512153
1562922631749000;0.1524968
1562922631999000;0.1524968
1562922632249000;0.1524968
1562922632499000;0.1512153
1562922632749000;0.1524968
1562922632999000;0.1524968
1562922633249000;0.1486523
1562922633499000;0.1499338
1562922633749000;0.1499338
1562922633999000;0.1460893
1562922634249000;0.1524968
1562922634499000;0.1524968
1562922634749000;0.1512153
1562922634999000;0.1512153
1562922635249000;0.1512153
1562922635499000;0.1512153
1562922635749000;0.1524968
1562922635999000;0.1486523
1562922636249000;0.1486523
1562922636499000;0.1486523
1562922636749000;0.1460893
1562922636999000;0.1486523
1562922637249000;0.1512153
1562922637499000;0.1512153
1562922637749000;0.1499338
1562922637999000;0.1512153
1562922638249000;0.1499338
1562922638499000;0.1512153
1562922638749000;0.1486523
1562922638999000;0.1473708
1562922639249000;0.1499338
1562922639499000;0.1460893
1562922639749000;0.1473708
1562922639999000;0.1499338
1562922640249000;0.1499338
1562922640499000;0.1499338
1562922640749000;0.1499338
1562922640999000;0.1499338
1562922641249000;0.1486523
1562922641499000;0.1512153
1562922641749000;0.1473708
1562922641999000;0.1473708
1562922642249000;0.1448078
1562922642499000;0.1473708
1562922642749000;0.1499338
1562922642999000;0.1486523
1562922643249000;0.1486523
1562922643499000;0.1486523
1562922643749000;0.1486523
1562922643999000;0.1486523
1562922644249000;0.1499338
1562922644499000;0.1460893
1562922644749000;0.1460893
1562922644999000;0.1435264
1562922645249000;0.1460893
1562922645499000;0.1499338
1562922645749000;0.1486523
1562922645999000;0.1486523
1562922646249000;0.1486523
1562922646499000;0.1486523
1562922646749000;0.1486523
1562922646999000;0.1448078
1562922647249000;0.1460893
1562922647499000;0.1460893
1562922647749000;0.1435264
1562922647999000;0.1473708
1562922648249000;0.1473708
1562922648499000;0.1460893
1562922648749000;0.1486523
1562922648999000;0.1460893
1562922649249000;0.1473708
1562922649499000;0.1448078
1562922649749000;0.1448078
1562922649999000;0.1448078
1562922650249000;0.1448078
1562922650499000;0.1435264
1562922650749000;0.1473708
1562922650999000;0.1473708
1562922651249000;0.1460893
1562922651499000;0.1473708
1562922651749000;0.1460893
1562922651999000;0.1473708
1562922652249000;0.1435264
1562922652499000;0.1640301
1562922652749000;0.1435264
1562922652999000;0.1435264
1562922653249000;0.1422449
1562922653499000;0.1448078
1562922653749000;0.1448078
1562922653999000;0.1460893
1562922654249000;0.1435264
1562922654499000;0.1460893
1562922654749000;0.1422449
1562922654999000;0.1422449
1562922655249000;0.1448078
1562922655499000;0.1422449
1562922655749000;0.1422449
1562922655999000;0.1422449
1562922656249000;0.1448078
1562922656499000;0.1448078
1562922656749000;0.1435264
1562922656999000;0.1435264
1562922657249000;0.1448078
1562922657499000;0.1422449
1562922657749000;0.1409634
1562922657999000;0.1422449
1562922658249000;0.1422449
1562922658499000;0.1435264
1562922658749000;0.1422449
1562922658999000;0.1435264
1562922659249000;0.1448078
1562922659499000;0.1435264
1562922659749000;0.1435264
1562922659999000;0.1396819
1562922660249000;0.1409634
1562922660499000;0.1409634
1562922660749000;0.1409634
1562922660999000;0.1422449
1562922661249000;0.1422449
1562922661499000;0.1396819
1562922661749000;0.1435264
1562922661999000;0.1448078
1562922662249000;0.1422449
1562922662499000;0.1396819
1562922662749000;0.1396819
1562922662999000;0.1396819
1562922663249000;0.1396819
1562922663499000;0.1409634
1562922663749000;0.1422449
1562922663999000;0.1422449
1562922664249000;0.1422449
1562922664499000;0.1409634
1562922664749000;0.1422449
1562922664999000;0.1422449
1562922665249000;0.1384004
1562922665499000;0.1384004
1562922665749000;0.1396819
1562922665999000;0.1409634
1562922666249000;0.1409634
1562922666499000;0.1422449
1562922666749000;0.1409634
1562922666999000;0.1396819
1562922667249000;0.1409634
1562922667499000;0.1422449
1562922667749000;0.1384004
1562922667999000;0.1384004
1562922668249000;0.1384004
1562922668499000;0.1409634
1562922668749000;0.1409634
1562922668999000;0.1396819
1562922669249000;0.1409634
1562922669499000;0.1409634
1562922669749000;0.1358375
1562922669999000;0.1409634
1562922670249000;0.1384004
1562922670499000;0.1384004
1562922670749000;0.1384004
1562922670999000;0.1384004
1562922671249000;0.1384004
1562922671499000;0.1396819
1562922671749000;0.1396819
1562922671999000;0.1396819
1562922672249000;0.1396819
1562922672499000;0.1371189
1562922672749000;0.1371189
1562922672999000;0.1371189
1562922673249000;0.1371189
1562922673499000;0.1371189
1562922673749000;0.1396819
1562922673999000;0.1396819
1562922674249000;0.1396819
1562922674499000;0.1396819
1562922674749000;0.1396819
1562922674999000;0.1396819
1562922675249000;0.134556
1562922675499000;0.1371189
1562922675749000;0.1371189
1562922675999000;0.1371189
1562922676249000;0.1371189
1562922676499000;0.1384004
1562922676749000;0.1396819
1562922676999000;0.1396819
1562922677249000;0.1396819
1562922677499000;0.1396819
1562922677749000;0.1396819
1562922677999000;0.134556
1562922678249000;0.1358375
1562922678499000;0.1371189
1562922678749000;0.1358375
1562922678999000;0.1358375
1562922679249000;0.1384004
1562922679499000;0.1384004
1562922679749000;0.1371189
1562922679999000;0.1384004
1562922680249000;0.1384004
1562922680499000;0.1384004
1562922680749000;0.1371189
1562922680999000;0.1358375
1562922681249000;0.1358375
1562922681499000;0.1358375
1562922681749000;0.1358375
1562922681999000;0.1358375
1562922682249000;0.1371189
1562922682499000;0.1371189
1562922682749000;0.1384004
1562922682999000;0.1384004
1562922683249000;0.134556
1562922683499000;0.1358375
1562922683749000;0.1384004
1562922683999000;0.134556
1562922684249000;0.134556
1562922684499000;0.134556
1562922684749000;0.134556
1562922684999000;0.1371189
1562922685249000;0.1371189
1562922685499000;0.1358375
1562922685749000;0.1384004
1562922685999000;0.1371189
1562922686249000;0.131993
1562922686499000;0.1371189
1562922686749000;0.1384004
1562922686999000;0.1332745
1562922687249000;0.1332745
1562922687499000;0.1307115
1562922687749000;0.1332745
1562922687999000;0.1358375
1562922688249000;0.1358375
1562922688499000;0.1358375
1562922688749000;0.1371189
1562922688999000;0.1332745
1562922689249000;0.1358375
1562922689499000;0.1384004
1562922689749000;0.134556
1562922689999000;0.1332745
1562922690249000;0.1332745
1562922690499000;0.134556
1562922690749000;0.134556
1562922690999000;0.134556
1562922691249000;0.1358375
1562922691499000;0.1358375
1562922691749000;0.134556
1562922691999000;0.1371189
1562922692249000;0.1371189
1562922692499000;0.1358375
1562922692749000;0.1358375
1562922692999000;0.1332745
1562922693249000;0.1332745
1562922693499000;0.1332745
1562922693749000;0.1332745
1562922693999000;0.1332745
1562922694249000;0.134556
1562922694499000;0.1307115
1562922694749000;0.1358375
1562922694999000;0.1358375
1562922695249000;0.134556
1562922695499000;0.1358375
1562922695749000;0.131993
1562922695999000;0.131993
1562922696249000;0.131993
1562922696499000;0.131993
1562922696749000;0.131993
1562922696999000;0.134556
1562922697249000;0.1332745
1562922697499000;0.134556
1562922697749000;0.134556
1562922697999000;0.1358375
1562922698249000;0.134556
1562922698499000;0.134556
1562922698749000;0.131993
1562922698999000;0.131993
1562922699249000;0.1550597
1562922699499000;0.131993
1562922699749000;0.1332745
1562922699999000;0.131993
1562922700249000;0.1332745
1562922700499000;0.134556
1562922700749000;0.1332745
1562922700999000;0.1332745
1562922701249000;0.1332745
1562922701499000;0.1332745
1562922701749000;0.1307115
1562922701999000;0.1307115
1562922702249000;0.1307115
1562922702499000;0.1307115
1562922702749000;0.12943
1562922702999000;0.1332745
1562922703249000;0.1332745
1562922703499000;0.1332745
1562922703749000;0.1332745
1562922703999000;0.1332745
1562922704249000;0.1332745
1562922704499000;0.12943
1562922704749000;0.12943
1562922704999000;0.12943
1562922705249000;0.12943
1562922705499000;0.12943
1562922705749000;0.1307115
1562922705999000;0.131993
1562922706249000;0.131993
1562922706499000;0.1307115
1562922706749000;0.1307115
1562922706999000;0.1307115
1562922707249000;0.131993
1562922707499000;0.1281485
1562922707749000;0.1281485
1562922707999000;0.1281485
1562922708249000;0.1255856
1562922708499000;0.1307115
1562922708749000;0.1307115
1562922708999000;0.1281485
1562922709249000;0.12943
1562922709499000;0.1307115
1562922709749000;0.12943
1562922709999000;0.12943
1562922710249000;0.1307115
1562922710499000;0.1268671
1562922710749000;0.1268671
1562922710999000;0.1230226
1562922711249000;0.1268671
1562922711499000;0.1268671
1562922711749000;0.1281485
1562922711999000;0.1281485
1562922712249000;0.1281485
1562922712499000;0.1281485
1562922712749000;0.1281485
1562922712999000;0.1281485
1562922713249000;0.1281485
1562922713499000;0.1255856
1562922713749000;0.1230226
1562922713999000;0.1255856
1562922714249000;0.1255856
1562922714499000;0.1255856
1562922714749000;0.1268671
1562922714999000;0.1255856
1562922715249000;0.1281485
1562922715499000;0.1281485
1562922715749000;0.1281485
1562922715999000;0.1268671
1562922716249000;0.1281485
1562922716499000;0.1217411
1562922716749000;0.1243041
1562922716999000;0.1230226
1562922717249000;0.1243041
1562922717499000;0.1243041
1562922717749000;0.1268671
1562922717999000;0.1255856
1562922718249000;0.1268671
1562922718499000;0.1268671
1562922718749000;0.1268671
1562922718999000;0.1255856
1562922719249000;0.1230226
1562922719499000;0.1230226
1562922719749000;0.1243041
1562922719999000;0.1243041
1562922720249000;0.1230226
1562922720499000;0.1255856
1562922720749000;0.1255856
1562922720999000;0.1255856
1562922721249000;0.1268671
1562922721499000;0.1255856
1562922721749000;0.1243041
1562922721999000;0.1230226
1562922722249000;0.1217411
1562922722499000;0.1230226
1562922722749000;0.1217411
1562922722999000;0.1217411
1562922723249000;0.1217411
1562922723499000;0.1243041
1562922723749000;0.1243041
1562922723999000;0.1243041
1562922724249000;0.1243041
1562922724499000;0.1217411
1562922724749000;0.1217411
1562922724999000;0.1255856
1562922725249000;0.1217411
1562922725499000;0.1217411
1562922725749000;0.1217411
1562922725999000;0.1217411
1562922726249000;0.1230226
1562922726499000;0.1243041
1562922726749000;0.1230226
1562922726999000;0.1230226
1562922727249000;0.1230226
1562922727499000;0.1191781
1562922727749000;0.1230226
1562922727999000;0.1191781
1562922728249000;0.1204596
1562922728499000;0.1204596
1562922728749000;0.1204596
1562922728999000;0.1230226
1562922729249000;0.1217411
1562922729499000;0.1230226
1562922729749000;0.1230226
1562922729999000;0.1243041
1562922730249000;0.1178967
1562922730499000;0.1230226
1562922730749000;0.1204596
1562922730999000;0.1204596
1562922731249000;0.1204596
1562922731499000;0.1204596
1562922731749000;0.1204596
1562922731999000;0.1217411
1562922732249000;0.1217411
1562922732499000;0.1230226
1562922732749000;0.1217411
1562922732999000;0.1204596
1562922733249000;0.1230226
1562922733499000;0.1230226
1562922733749000;0.1230226
1562922733999000;0.1191781
1562922734249000;0.1191781
1562922734499000;0.1191781
1562922734749000;0.1191781
1562922734999000;0.1217411
1562922735249000;0.1217411
1562922735499000;0.1217411
1562922735749000;0.1204596
1562922735999000;0.1230226
1562922736249000;0.1204596
1562922736499000;0.1230226
1562922736749000;0.1178967
1562922736999000;0.1191781
1562922737249000;0.1191781
1562922737499000;0.1191781
1562922737749000;0.1191781
1562922737999000;0.1217411
1562922738249000;0.1217411
1562922738499000;0.1178967
1562922738749000;0.1204596
1562922738999000;0.1230226
1562922739249000;0.1217411
1562922739499000;0.1217411
1562922739749000;0.1204596
1562922739999000;0.1178967
1562922740249000;0.1178967
1562922740499000;0.1217411
1562922740749000;0.1178967
1562922740999000;0.1204596
1562922741249000;0.1178967
1562922741499000;0.1204596
1562922741749000;0.1204596
1562922741999000;0.1204596
1562922742249000;0.1204596
1562922742499000;0.1217411
1562922742749000;0.1178967
1562922742999000;0.1178967
1562922743249000;0.1178967
1562922743499000;0.1178967
1562922743749000;0.1178967
1562922743999000;0.1153337
1562922744249000;0.1191781
1562922744499000;0.1217411
1562922744749000;0.1204596
1562922744999000;0.1204596
1562922745249000;0.1191781
1562922745499000;0.1204596
1562922745749000;0.1178967
1562922745999000;0.1178967
1562922746249000;0.1178967
1562922746499000;0.1166152
1562922746749000;0.1153337
1562922746999000;0.1191781
1562922747249000;0.1204596
1562922747499000;0.1204596
1562922747749000;0.1191781
1562922747999000;0.1204596
1562922748249000;0.1191781
1562922748499000;0.1191781
1562922748749000;0.1153337
1562922748999000;0.1166152
1562922749249000;0.1166152
1562922749499000;0.1140522
1562922749749000;0.1178967
1562922749999000;0.1178967
1562922750249000;0.1178967
1562922750499000;0.1191781
1562922750749000;0.1191781
1562922750999000;0.1178967
1562922751249000;0.1191781
1562922751499000;0.1153337
1562922751749000;0.1153337
1562922751999000;0.1153337
1562922752249000;0.1114892
1562922752499000;0.1178967
1562922752749000;0.1191781
1562922752999000;0.1178967
1562922753249000;0.1166152
1562922753499000;0.1178967
1562922753749000;0.1178967
1562922753999000;0.1178967
1562922754249000;0.1153337
1562922754499000;0.1153337
1562922754749000;0.1178967
1562922754999000;0.1114892
1562922755249000;0.1166152
1562922755499000;0.1178967
1562922755749000;0.1166152
1562922755999000;0.1166152
1562922756249000;0.1178967
1562922756499000;0.1166152
1562922756749000;0.1178967
1562922756999000;0.1140522
1562922757249000;0.1140522
1562922757499000;0.1153337
1562922757749000;0.1114892
1562922757999000;0.1140522
1562922758249000;0.1178967
1562922758499000;0.1166152
1562922758749000;0.1166152
1562922758999000;0.1166152
1562922759249000;0.1140522
1562922759499000;0.1166152
1562922759749000;0.1178967
1562922759999000;0.1140522
1562922760249000;0.1140522
1562922760499000;0.1114892
1562922760749000;0.1140522
1562922760999000;0.1166152
1562922761249000;0.1153337
1562922761499000;0.1166152
1562922761749000;0.1178967
1562922761999000;0.1153337
1562922762249000;0.1166152
1562922762499000;0.1166152
1562922762749000;0.1166152
1562922762999000;0.1127707
1562922763249000;0.1114892
1562922763499000;0.1140522
1562922763749000;0.1140522
1562922763999000;0.1140522
1562922764249000;0.1153337
1562922764499000;0.1153337
1562922764749000;0.1166152
1562922764999000;0.1166152
1562922765249000;0.1127707
1562922765499000;0.1166152
1562922765749000;0.1153337
1562922765999000;0.1102077
1562922766249000;0.1127707
1562922766499000;0.1050818
1562922766749000;0.07817061
1562922766999000;0.07432615
1562922767249000;0.08842249
1562922767499000;0.1025188
1562922767749000;0.1063633
1562922767999000;0.1089263
1562922768249000;0.1089263
1562922768499000;0.1089263
1562922768749000;0.1063633
1562922768999000;0.1076448
1562922769249000;0.1102077
1562922769499000;0.1102077
1562922769749000;0.1102077
1562922769999000;0.1127707
1562922770249000;0.1127707
1562922770499000;0.1140522
1562922770749000;0.1127707
1562922770999000;0.1140522
1562922771249000;0.1127707
1562922771499000;0.1114892
1562922771749000;0.1140522
1562922771999000;0.1102077
1562922772249000;0.1114892
1562922772499000;0.1114892
1562922772749000;0.1114892
1562922772999000;0.1127707
1562922773249000;0.1140522
1562922773499000;0.1140522
1562922773749000;0.1166152
1562922773999000;0.1153337
1562922774249000;0.1102077
1562922774499000;0.1153337
1562922774749000;0.1153337
1562922774999000;0.1127707
1562922775249000;0.1127707
1562922775499000;0.1140522
1562922775749000;0.1140522
1562922775999000;0.1153337
1562922776249000;0.1153337
1562922776499000;0.1166152
1562922776749000;0.1166152
1562922776999000;0.1140522
1562922777249000;0.1166152
1562922777499000;0.1178967
1562922777749000;0.1140522
1562922777999000;0.1140522
1562922778249000;0.1140522
1562922778499000;0.1140522
1562922778749000;0.1140522
1562922778999000;0.1153337
1562922779249000;0.1166152
1562922779499000;0.1166152
1562922779749000;0.1127707
1562922779999000;0.1166152
1562922780249000;0.1166152
1562922780499000;0.1178967
1562922780749000;0.1127707
1562922780999000;0.1127707
1562922781249000;0.1140522
1562922781499000;0.1140522
1562922781749000;0.1140522
1562922781999000;0.1153337
1562922782249000;0.1153337
1562922782499000;0.1140522
1562922782749000;0.1166152
1562922782999000;0.1166152
1562922783249000;0.1153337
1562922783499000;0.1153337
1562922783749000;0.1127707
1562922783999000;0.1140522
1562922784249000;0.1127707
1562922784499000;0.1127707
1562922784749000;0.1153337
1562922784999000;0.1140522
1562922785249000;0.1114892
1562922785499000;0.1153337
1562922785749000;0.1153337
1562922785999000;0.1153337
1562922786249000;0.1153337
1562922786499000;0.1127707
1562922786749000;0.1127707
1562922786999000;0.1127707
1562922787249000;0.1127707
1562922787499000;0.1127707
1562922787749000;0.1153337
1562922787999000;0.1127707
1562922788249000;0.1140522
1562922788499000;0.1153337
1562922788749000;0.1153337
1562922788999000;0.1153337
1562922789249000;0.1166152
1562922789499000;0.1153337
1562922789749000;0.1127707
1562922789999000;0.1127707
1562922790249000;0.1127707
1562922790499000;0.1114892
1562922790749000;0.1102077
1562922790999000;0.1140522
1562922791249000;0.1140522
1562922791499000;0.1140522
1562922791749000;0.1153337
1562922791999000;0.1153337
1562922792249000;0.1140522
1562922792499000;0.1166152
1562922792749000;0.1114892
1562922792999000;0.1114892
1562922793249000;0.1114892
1562922793499000;0.1102077
1562922793749000;0.1114892
1562922793999000;0.1153337
1562922794249000;0.1127707
1562922794499000;0.1140522
1562922794749000;0.1140522
1562922794999000;0.1140522
1562922795249000;0.1153337
1562922795499000;0.1140522
1562922795749000;0.1140522
1562922795999000;0.1153337
1562922796249000;0.1089263
1562922796499000;0.1114892
1562922796749000;0.1114892
1562922796999000;0.1114892
1562922797249000;0.1114892
1562922797499000;0.1140522
1562922797749000;0.1140522
1562922797999000;0.1140522
1562922798249000;0.1127707
1562922798499000;0.1140522
1562922798749000;0.1140522
1562922798999000;0.1114892
1562922799249000;0.1140522
1562922799499000;0.1114892
1562922799749000;0.1114892
1562922799999000;0.1114892
1562922800249000;0.1114892
1562922800499000;0.1140522
1562922800749000;0.1140522
1562922800999000;0.1127707
1562922801249000;0.1140522
1562922801499000;0.1140522
1562922801749000;0.1089263
1562922801999000;0.1140522
1562922802249000;0.1153337
1562922802499000;0.1102077
1562922802749000;0.1102077
1562922802999000;0.1114892
1562922803249000;0.1114892
1562922803499000;0.1127707
1562922803749000;0.1140522
1562922803999000;0.1140522
1562922804249000;0.1140522
1562922804499000;0.1076448
1562922804749000;0.1127707
1562922804999000;0.1140522
1562922805249000;0.1140522
1562922805499000;0.1102077
1562922805749000;0.1114892
1562922805999000;0.1102077
1562922806249000;0.1102077
1562922806499000;0.1102077
1562922806749000;0.1140522
1562922806999000;0.1114892
1562922807249000;0.1114892
1562922807499000;0.1140522
1562922807749000;0.1140522
1562922807999000;0.1127707
1562922808249000;0.1127707
1562922808499000;0.1089263
1562922808749000;0.1089263
1562922808999000;0.1102077
1562922809249000;0.1102077
1562922809499000;0.1102077
1562922809749000;0.1102077
1562922809999000;0.1063633
1562922810249000;0.1102077
1562922810499000;0.1127707
1562922810749000;0.1114892
1562922810999000;0.1114892
1562922811249000;0.1114892
1562922811499000;0.1127707
1562922811749000;0.1127707
1562922811999000;0.1089263
1562922812249000;0.1089263
1562922812499000;0.1089263
1562922812749000;0.1063633
1562922812999000;0.1089263
1562922813249000;0.1114892
1562922813499000;0.1102077
1562922813749000;0.1127707
1562922813999000;0.1114892
1562922814249000;0.1127707
1562922814499000;0.1127707
1562922814749000;0.1127707
1562922814999000;0.1127707
1562922815249000;0.1089263
1562922815499000;0.1063633
1562922815749000;0.1089263
1562922815999000;0.1102077
1562922816249000;0.1114892
1562922816499000;0.1102077
1562922816749000;0.1114892
1562922816999000;0.1114892
1562922817249000;0.1114892
1562922817499000;0.1127707
1562922817749000;0.1102077
1562922817999000;0.1127707
1562922818249000;0.1063633
1562922818499000;0.1076448
1562922818749000;0.1063633
1562922818999000;0.1089263
1562922819249000;0.1089263
1562922819499000;0.1114892
1562922819749000;0.1114892
1562922819999000;0.1127707
1562922820249000;0.1127707
1562922820499000;0.1127707
1562922820749000;0.1127707
1562922820999000;0.1102077
1562922821249000;0.1140522
1562922821499000;0.1166152
1562922821749000;0.1127707
1562922821999000;0.1140522
1562922822249000;0.1153337
1562922822499000;0.1178967
1562922822749000;0.1191781
1562922822999000;0.1255856
1562922823249000;0.1268671
1562922823499000;0.1255856
1562922823749000;0.1243041
1562922823999000;0.1281485
1562922824249000;0.1281485
1562922824499000;0.12943
1562922824749000;0.1307115
1562922824999000;0.1268671
1562922825249000;0.1268671
1562922825499000;0.1268671
1562922825749000;0.1268671
1562922825999000;0.1268671
1562922826249000;0.12943
1562922826499000;0.1255856
1562922826749000;0.1281485
1562922826999000;0.1307115
1562922827249000;0.1307115
1562922827499000;0.1332745
1562922827749000;0.1332745
1562922827999000;0.134556
1562922828249000;0.134556
1562922828499000;0.1332745
1562922828749000;0.1332745
1562922828999000;0.134556
1562922829249000;0.131993
1562922829499000;0.134556
1562922829749000;0.1384004
1562922829999000;0.1384004
1562922830249000;0.1384004
1562922830499000;0.1384004
1562922830749000;0.1384004
1562922830999000;0.1384004
1562922831249000;0.1384004
1562922831499000;0.1409634
1562922831749000;0.1371189
1562922831999000;0.134556
1562922832249000;0.1384004
1562922832499000;0.1384004
1562922832749000;0.1384004
1562922832999000;0.1409634
1562922833249000;0.1396819
1562922833499000;0.1409634
1562922833749000;0.1409634
1562922833999000;0.1409634
1562922834249000;0.1409634
1562922834499000;0.1409634
1562922834749000;0.1384004
1562922834999000;0.1396819
1562922835249000;0.1409634
1562922835499000;0.1422449
1562922835749000;0.1435264
1562922835999000;0.1448078
1562922836249000;0.1473708
1562922836499000;0.1486523
1562922836749000;0.1524968
1562922836999000;0.1550597
1562922837249000;0.1563412
1562922837499000;0.1563412
1562922837749000;0.1576227
1562922837999000;0.1576227
1562922838249000;0.1563412
1562922838499000;0.1563412
1562922838749000;0.1563412
1562922838999000;0.1576227
1562922839249000;0.1576227
1562922839499000;0.1601857
1562922839749000;0.1614671
1562922839999000;0.1601857
1562922840249000;0.1576227
1562922840499000;0.1601857
1562922840749000;0.1614671
1562922840999000;0.1614671
1562922841249000;0.1614671
1562922841499000;0.1576227
1562922841749000;0.1576227
1562922841999000;0.1589042
1562922842249000;0.1576227
1562922842499000;0.1601857
1562922842749000;0.1601857
1562922842999000;0.1576227
1562922843249000;0.1601857
1562922843499000;0.1614671
1562922843749000;0.1601857
1562922843999000;0.1601857
1562922844249000;0.1614671
1562922844499000;0.1576227
1562922844749000;0.1576227
1562922844999000;0.1576227
1562922845249000;0.1576227
1562922845499000;0.1576227
1562922845749000;0.1563412
1562922845999000;0.1601857
1562922846249000;0.1614671
1562922846499000;0.1627486
1562922846749000;0.1640301
1562922846999000;0.1627486
1562922847249000;0.1627486
1562922847499000;0.1627486
1562922847749000;0.1601857
1562922847999000;0.1601857
1562922848249000;0.1601857
1562922848499000;0.1576227
1562922848749000;0.1601857
1562922848999000;0.1627486
1562922849249000;0.1614671
1562922849499000;0.1627486
1562922849749000;0.1627486
1562922849999000;0.1627486
1562922850249000;0.1601857
1562922850499000;0.1627486
1562922850749000;0.1627486
1562922850999000;0.1601857
1562922851249000;0.1563412
1562922851499000;0.1601857
1562922851749000;0.1589042
1562922851999000;0.1601857
1562922852249000;0.1627486
1562922852499000;0.1627486
1562922852749000;0.1627486
1562922852999000;0.1627486
1562922853249000;0.1614671
1562922853499000;0.1627486
1562922853749000;0.1640301
1562922853999000;0.1563412
1562922854249000;0.1589042
1562922854499000;0.1601857
1562922854749000;0.1601857
1562922854999000;0.1601857
1562922855249000;0.1627486
1562922855499000;0.1614671
1562922855749000;0.1627486
1562922855999000;0.1614671
1562922856249000;0.1614671
1562922856499000;0.1614671
1562922856749000;0.1601857
1562922856999000;0.1601857
1562922857249000;0.1601857
1562922857499000;0.1601857
1562922857749000;0.1601857
1562922857999000;0.1627486
1562922858249000;0.1614671
1562922858499000;0.1627486
1562922858749000;0.1614671
1562922858999000;0.1627486
1562922859249000;0.1627486
1562922859499000;0.1614671
1562922859749000;0.1601857
1562922859999000;0.1614671
1562922860249000;0.1614671
1562922860499000;0.1627486
1562922860749000;0.1627486
1562922860999000;0.1653116
1562922861249000;0.1601857
1562922861499000;0.1332745
1562922861749000;0.1281485
1562922861999000;0.1307115
1562922862249000;0.1499338
1562922862499000;0.1550597
1562922862749000;0.1589042
1562922862999000;0.1653116
1562922863249000;0.1640301
1562922863499000;0.1653116
1562922863749000;0.171719
1562922863999000;0.179408
1562922864249000;0.1845339
1562922864499000;0.1870969
1562922864749000;0.1870969
1562922864999000;0.1858154
1562922865249000;0.1883783
1562922865499000;0.1883783
1562922865749000;0.1883783
1562922865999000;0.1870969
1562922866249000;0.1845339
1562922866499000;0.1845339
1562922866749000;0.1832524
1562922866999000;0.1832524
1562922867249000;0.1819709
1562922867499000;0.1832524
1562922867749000;0.1819709
1562922867999000;0.1819709
1562922868249000;0.1832524
1562922868499000;0.1832524
1562922868749000;0.1819709
1562922868999000;0.1832524
1562922869249000;0.1806894
1562922869499000;0.1781265
1562922869749000;0.179408
1562922869999000;0.179408
1562922870249000;0.1806894
1562922870499000;0.1806894
1562922870749000;0.1832524
1562922870999000;0.1845339
1562922871249000;0.1845339
1562922871499000;0.1845339
1562922871749000;0.1845339
1562922871999000;0.1845339
1562922872249000;0.1806894
1562922872499000;0.1806894
1562922872749000;0.1806894
1562922872999000;0.179408
1562922873249000;0.1781265
1562922873499000;0.1806894
1562922873749000;0.1806894
1562922873999000;0.179408
1562922874249000;0.179408
1562922874499000;0.1806894
1562922874749000;0.179408
1562922874999000;0.179408
1562922875249000;0.174282
1562922875499000;0.1755635
1562922875749000;0.1755635
1562922875999000;0.1704376
1562922876249000;0.176845
1562922876499000;0.1755635
1562922876749000;0.176845
1562922876999000;0.176845
1562922877249000;0.176845
1562922877499000;0.176845
1562922877749000;0.179408
1562922877999000;0.1755635
1562922878249000;0.1755635
1562922878499000;0.1755635
1562922878749000;0.1730005
1562922878999000;0.176845
1562922879249000;0.176845
1562922879499000;0.176845
1562922879749000;0.1755635
1562922879999000;0.176845
1562922880249000;0.1755635
1562922880499000;0.1755635
1562922880749000;0.1755635
1562922880999000;0.1730005
1562922881249000;0.1730005
1562922881499000;0.174282
1562922881749000;0.1730005
1562922881999000;0.1730005
1562922882249000;0.174282
1562922882499000;0.1730005
1562922882749000;0.174282
1562922882999000;0.174282
1562922883249000;0.1730005
1562922883499000;0.1730005
1562922883749000;0.174282
1562922883999000;0.1704376
1562922884249000;0.1678746
1562922884499000;0.171719
1562922884749000;0.171719
1562922884999000;0.1730005
1562922885249000;0.1730005
1562922885499000;0.1730005
1562922885749000;0.171719
1562922885999000;0.171719
1562922886249000;0.1730005
1562922886499000;0.1704376
1562922886749000;0.1704376
1562922886999000;0.1691561
1562922887249000;0.1704376
1562922887499000;0.171719
1562922887749000;0.1730005
1562922887999000;0.1730005
1562922888249000;0.1730005
1562922888499000;0.1730005
1562922888749000;0.1730005
1562922888999000;0.174282
1562922889249000;0.1704376
1562922889499000;0.1704376
1562922889749000;0.1678746
1562922889999000;0.1704376
1562922890249000;0.1730005
1562922890499000;0.171719
1562922890749000;0.1730005
1562922890999000;0.1730005
1562922891249000;0.171719
1562922891499000;0.174282
1562922891749000;0.1704376
1562922891999000;0.1704376
1562922892249000;0.1704376
1562922892499000;0.1678746
1562922892749000;0.1730005
1562922892999000;0.1730005
1562922893249000;0.171719
1562922893499000;0.171719
1562922893749000;0.171719
1562922893999000;0.171719
1562922894249000;0.171719
1562922894499000;0.1691561
1562922894749000;0.1691561
1562922894999000;0.1691561
1562922895249000;0.1691561
1562922895499000;0.1704376
1562922895749000;0.171719
1562922895999000;0.1730005
1562922896249000;0.1704376
1562922896499000;0.171719
1562922896749000;0.171719
1562922896999000;0.1678746
1562922897249000;0.1691561
1562922897499000;0.1691561
1562922897749000;0.1691561
1562922897999000;0.1665931
1562922898249000;0.1704376
1562922898499000;0.171719
1562922898749000;0.171719
1562922898999000;0.171719
1562922899249000;0.171719
1562922899499000;0.1704376
1562922899749000;0.171719
1562922899999000;0.1678746
1562922900249000;0.1678746
1562922900499000;0.1678746
1562922900749000;0.1678746
1562922900999000;0.1704376
1562922901249000;0.1704376
1562922901499000;0.1704376
1562922901749000;0.1704376
1562922901999000;0.171719
1562922902249000;0.1704376
1562922902499000;0.1678746
1562922902749000;0.1678746
1562922902999000;0.1678746
1562922903249000;0.1678746
1562922903499000;0.1691561
1562922903749000;0.171719
1562922903999000;0.174282
1562922904249000;0.174282
1562922904499000;0.171719
1562922904749000;0.1755635
1562922904999000;0.176845
1562922905249000;0.1730005
1562922905499000;0.174282
1562922905749000;0.174282
1562922905999000;0.174282
1562922906249000;0.1755635
1562922906499000;0.176845
1562922906749000;0.1755635
1562922906999000;0.1755635
1562922907249000;0.174282
1562922907499000;0.176845
1562922907749000;0.1730005
1562922907999000;0.1730005
1562922908249000;0.1730005
1562922908499000;0.1730005
1562922908749000;0.1755635
1562922908999000;0.1730005
1562922909249000;0.174282
1562922909499000;0.1730005
1562922909749000;0.1755635
1562922909999000;0.1730005
1562922910249000;0.1730005
1562922910499000;0.1730005
1562922910749000;0.174282
1562922910999000;0.176845
1562922911249000;0.1755635
1562922911499000;0.176845
1562922911749000;0.1730005
1562922911999000;0.176845
1562922912249000;0.176845
1562922912499000;0.174282
1562922912749000;0.1730005
1562922912999000;0.174282
1562922913249000;0.174282
1562922913499000;0.176845
1562922913749000;0.176845
1562922913999000;0.176845
1562922914249000;0.176845
1562922914499000;0.1730005
1562922914749000;0.1755635
1562922914999000;0.1730005
1562922915249000;0.1730005
1562922915499000;0.174282
1562922915749000;0.174282
1562922915999000;0.1755635
1562922916249000;0.1755635
1562922916499000;0.174282
1562922916749000;0.1755635
1562922916999000;0.1755635
1562922917249000;0.1691561
1562922917499000;0.1730005
1562922917749000;0.171719
1562922917999000;0.1730005
1562922918249000;0.1755635
1562922918499000;0.174282
1562922918749000;0.1755635
1562922918999000;0.1755635
1562922919249000;0.174282
1562922919499000;0.1755635
1562922919749000;0.1704376
1562922919999000;0.1704376
1562922920249000;0.171719
1562922920499000;0.1730005
1562922920749000;0.174282
1562922920999000;0.1755635
1562922921249000;0.1755635
1562922921499000;0.176845
1562922921749000;0.1755635
1562922921999000;0.1755635
1562922922249000;0.1730005
1562922922499000;0.174282
1562922922749000;0.1704376
1562922922999000;0.1755635
1562922923249000;0.174282
1562922923499000;0.1755635
1562922923749000;0.1755635
1562922923999000;0.174282
1562922924249000;0.174282
1562922924499000;0.174282
1562922924749000;0.171719
1562922924999000;0.171719
1562922925249000;0.171719
1562922925499000;0.1691561
1562922925749000;0.1730005
1562922925999000;0.174282
1562922926249000;0.174282
1562922926499000;0.174282
1562922926749000;0.1730005
1562922926999000;0.174282
1562922927249000;0.1704376
1562922927499000;0.1704376
1562922927749000;0.171719
1562922927999000;0.171719
1562922928249000;0.171719
1562922928499000;0.1730005
1562922928749000;0.174282
1562922928999000;0.1730005
1562922929249000;0.1730005
1562922929499000;0.1730005
1562922929749000;0.1730005
1562922929999000;0.1704376
1562922930249000;0.1704376
1562922930499000;0.1704376
1562922930749000;0.171719
1562922930999000;0.1704376
1562922931249000;0.174282
1562922931499000;0.1730005
1562922931749000;0.174282
1562922931999000;0.1730005
1562922932249000;0.174282
1562922932499000;0.171719
1562922932749000;0.1704376
1562922932999000;0.1704376
1562922933249000;0.1704376
1562922933499000;0.1730005
1562922933749000;0.1730005
1562922933999000;0.174282
1562922934249000;0.174282
1562922934499000;0.174282
1562922934749000;0.174282
1562922934999000;0.174282
1562922935249000;0.1704376
1562922935499000;0.171719
1562922935749000;0.171719
1562922935999000;0.1704376
1562922936249000;0.171719
1562922936499000;0.1627486
1562922936749000;0.1601857
1562922936999000;0.1601857
1562922937249000;0.1563412
1562922937499000;0.1563412
1562922937749000;0.1524968
1562922937999000;0.1576227
1562922938249000;0.1627486
1562922938499000;0.1678746
1562922938749000;0.1755635
1562922938999000;0.176845
1562922939249000;0.1755635
1562922939499000;0.1819709
1562922939749000;0.1858154
1562922939999000;0.1870969
1562922940249000;0.1883783
1562922940499000;0.1819709
1562922940749000;0.1870969
1562922940999000;0.1883783
1562922941249000;0.1896598
1562922941499000;0.1909413
1562922941749000;0.1896598
1562922941999000;0.1870969
1562922942249000;0.1883783
1562922942499000;0.1896598
1562922942749000;0.1883783
1562922942999000;0.1883783
1562922943249000;0.1870969
1562922943499000;0.1870969
1562922943749000;0.1870969
1562922943999000;0.1870969
1562922944249000;0.1883783
1562922944499000;0.1883783
1562922944749000;0.1858154
1562922944999000;0.1883783
1562922945249000;0.1883783
1562922945499000;0.1883783
1562922945749000;0.1845339
1562922945999000;0.1858154
1562922946249000;0.1858154
1562922946499000;0.1858154
1562922946749000;0.1883783
1562922946999000;0.1883783
1562922947249000;0.1883783
1562922947499000;0.1858154
1562922947749000;0.1896598
1562922947999000;0.1896598
1562922948249000;0.1909413
1562922948499000;0.1883783
1562922948749000;0.1870969
1562922948999000;0.1883783
1562922949249000;0.1883783
1562922949499000;0.1883783
1562922949749000;0.1883783
1562922949999000;0.1883783
1562922950249000;0.1870969
1562922950499000;0.1909413
1562922950749000;0.1909413
1562922950999000;0.1909413
1562922951249000;0.1883783
1562922951499000;0.1883783
1562922951749000;0.1883783
1562922951999000;0.1870969
1562922952249000;0.1883783
1562922952499000;0.1883783
1562922952749000;0.1896598
1562922952999000;0.1870969
1562922953249000;0.1896598
1562922953499000;0.1909413
1562922953749000;0.1896598
1562922953999000;0.1870969
1562922954249000;0.1870969
1562922954499000;0.1870969
1562922954749000;0.1870969
1562922954999000;0.1896598
1562922955249000;0.1896598
1562922955499000;0.1896598
1562922955749000;0.1858154
1562922955999000;0.1896598
1562922956249000;0.1883783
1562922956499000;0.1896598
1562922956749000;0.1870969
1562922956999000;0.1870969
1562922957249000;0.1870969
1562922957499000;0.1870969
1562922957749000;0.1883783
1562922957999000;0.1883783
1562922958249000;0.1883783
1562922958499000;0.1845339
1562922958749000;0.1883783
1562922958999000;0.1870969
1562922959249000;0.1883783
1562922959499000;0.1858154
1562922959749000;0.1858154
1562922959999000;0.1858154
1562922960249000;0.1858154
1562922960499000;0.1858154
1562922960749000;0.1870969
1562922960999000;0.1870969
1562922961249000;0.1858154
1562922961499000;0.1883783
1562922961749000;0.1883783
1562922961999000;0.1909413
1562922962249000;0.1883783
1562922962499000;0.1896598
1562922962749000;0.1870969
1562922962999000;0.1870969
1562922963249000;0.1870969
1562922963499000;0.1870969
1562922963749000;0.1870969
1562922963999000;0.1845339
1562922964249000;0.1883783
1562922964499000;0.1883783
1562922964749000;0.1896598
1562922964999000;0.1883783
1562922965249000;0.1883783
1562922965499000;0.1883783
1562922965749000;0.1896598
1562922965999000;0.1858154
1562922966249000;0.1870969
1562922966499000;0.1858154
1562922966749000;0.1819709
1562922966999000;0.1858154
1562922967249000;0.1883783
1562922967499000;0.1858154
1562922967749000;0.1870969
1562922967999000;0.1870969
1562922968249000;0.1870969
1562922968499000;0.1870969
1562922968749000;0.1883783
1562922968999000;0.1883783
1562922969249000;0.1858154
1562922969499000;0.1845339
1562922969749000;0.1858154
1562922969999000;0.1845339
1562922970249000;0.1858154
1562922970499000;0.1883783
1562922970749000;0.1883783
1562922970999000;0.1896598
1562922971249000;0.1883783
1562922971499000;0.1883783
1562922971749000;0.1883783
1562922971999000;0.1883783
1562922972249000;0.1845339
1562922972499000;0.1883783
1562922972749000;0.1870969
1562922972999000;0.1870969
1562922973249000;0.1870969
1562922973499000;0.1870969
1562922973749000;0.1870969
1562922973999000;0.1883783
1562922974249000;0.1883783
1562922974499000;0.1883783
1562922974749000;0.1883783
1562922974999000;0.1845339
1562922975249000;0.1870969
1562922975499000;0.1883783
1562922975749000;0.1883783
1562922975999000;0.1870969
1562922976249000;0.1858154
1562922976499000;0.1858154
1562922976749000;0.1858154
1562922976999000;0.1858154
1562922977249000;0.1883783
1562922977499000;0.1883783
1562922977749000;0.1858154
1562922977999000;0.1883783
1562922978249000;0.1883783
1562922978499000;0.1883783
1562922978749000;0.1883783
1562922978999000;0.1883783
1562922979249000;0.1858154
1562922979499000;0.1858154
1562922979749000;0.1858154
1562922979999000;0.1858154
1562922980249000;0.1858154
1562922980499000;0.1845339
1562922980749000;0.1870969
1562922980999000;0.1870969
1562922981249000;0.1870969
1562922981499000;0.1883783
1562922981749000;0.1883783
1562922981999000;0.1870969
1562922982249000;0.1883783
1562922982499000;0.1858154
1562922982749000;0.1858154
1562922982999000;0.1858154
1562922983249000;0.1819709
1562922983499000;0.1858154
1562922983749000;0.1870969
1562922983999000;0.1870969
1562922984249000;0.1870969
1562922984499000;0.1870969
1562922984749000;0.1870969
1562922984999000;0.1870969
1562922985249000;0.1883783
1562922985499000;0.1845339
1562922985749000;0.1858154
1562922985999000;0.1832524
1562922986249000;0.1858154
1562922986499000;0.1858154
1562922986749000;0.1870969
1562922986999000;0.1883783
1562922987249000;0.1870969
1562922987499000;0.1883783
1562922987749000;0.1870969
1562922987999000;0.1870969
1562922988249000;0.1870969
1562922988499000;0.1883783
1562922988749000;0.1858154
1562922988999000;0.1858154
1562922989249000;0.1858154
1562922989499000;0.1858154
1562922989749000;0.1858154
1562922989999000;0.1858154
1562922990249000;0.1858154
1562922990499000;0.1858154
1562922990749000;0.1858154
1562922990999000;0.1870969
1562922991249000;0.1870969
1562922991499000;0.1845339
1562922991749000;0.1870969
1562922991999000;0.1870969
1562922992249000;0.1832524
1562922992499000;0.1832524
1562922992749000;0.1845339
1562922992999000;0.1845339
1562922993249000;0.1845339
1562922993499000;0.1858154
1562922993749000;0.1858154
1562922993999000;0.1870969
1562922994249000;0.1832524
1562922994499000;0.1870969
1562922994749000;0.1870969
1562922994999000;0.1870969
1562922995249000;0.1870969
1562922995499000;0.1845339
1562922995749000;0.1845339
1562922995999000;0.1845339
1562922996249000;0.1845339
1562922996499000;0.1858154
1562922996749000;0.1858154
1562922996999000;0.1845339
1562922997249000;0.1858154
1562922997499000;0.1870969
1562922997749000;0.1870969
1562922997999000;0.1870969
1562922998249000;0.1870969
1562922998499000;0.1845339
1562922998749000;0.1832524
1562922998999000;0.1832524
1562922999249000;0.1832524
1562922999499000;0.1845339
1562922999749000;0.1819709
1562922999999000;0.1858154
1562923000249000;0.1870969
1562923000499000;0.1870969
1562923000749000;0.1858154
1562923000999000;0.1870969
1562923001249000;0.1858154
1562923001499000;0.1870969
1562923001749000;0.1832524
1562923001999000;0.1845339
1562923002249000;0.1845339
1562923002499000;0.1819709
1562923002749000;0.1858154
1562923002999000;0.1858154
1562923003249000;0.1870969
1562923003499000;0.1870969
1562923003749000;0.1883783
1562923003999000;0.1870969
1562923004249000;0.1870969
1562923004499000;0.1870969
1562923004749000;0.1883783
1562923004999000;0.1883783
1562923005249000;0.1858154
1562923005499000;0.1870969
1562923005749000;0.1870969
1562923005999000;0.1870969
1562923006249000;0.1870969
1562923006499000;0.1870969
1562923006749000;0.1896598
1562923006999000;0.1896598
1562923007249000;0.1883783
1562923007499000;0.1883783
1562923007749000;0.1870969
1562923007999000;0.1845339
1562923008249000;0.1858154
1562923008499000;0.1896598
1562923008749000;0.1896598
1562923008999000;0.1870969
1562923009249000;0.1870969
1562923009499000;0.1870969
1562923009749000;0.1870969
1562923009999000;0.1870969
1562923010249000;0.1883783
1562923010499000;0.1883783
1562923010749000;0.1845339
1562923010999000;0.1883783
1562923011249000;0.1883783
1562923011499000;0.1896598
1562923011749000;0.1883783
1562923011999000;0.1896598
1562923012249000;0.1883783
1562923012499000;0.1870969
1562923012749000;0.1870969
1562923012999000;0.1870969
1562923013249000;0.1870969
1562923013499000;0.1845339
1562923013749000;0.1883783
1562923013999000;0.1896598
1562923014249000;0.1883783
1562923014499000;0.1896598
1562923014749000;0.1870969
1562923014999000;0.1883783
1562923015249000;0.1870969
1562923015499000;0.1870969
1562923015749000;0.1870969
1562923015999000;0.1845339
1562923016249000;0.1819709
1562923016499000;0.1858154
1562923016749000;0.1858154
1562923016999000;0.1845339
1562923017249000;0.1870969
1562923017499000;0.1870969
1562923017749000;0.1870969
1562923017999000;0.1870969
1562923018249000;0.1870969
1562923018499000;0.1883783
1562923018749000;0.1858154
1562923018999000;0.1858154
1562923019249000;0.1858154
1562923019499000;0.1845339
1562923019749000;0.1845339
1562923019999000;0.1845339
1562923020249000;0.1845339
1562923020499000;0.1845339
1562923020749000;0.1870969
1562923020999000;0.1858154
1562923021249000;0.1858154
1562923021499000;0.1858154
1562923021749000;0.1832524
1562923021999000;0.1832524
1562923022249000;0.1858154
1562923022499000;0.1858154
1562923022749000;0.1832524
1562923022999000;0.1832524
1562923023249000;0.1819709
1562923023499000;0.1832524
1562923023749000;0.1832524
1562923023999000;0.1870969
1562923024249000;0.1870969
1562923024499000;0.1832524
1562923024749000;0.1870969
1562923024999000;0.1832524
1562923025249000;0.171719
1562923025499000;0.1563412
1562923025749000;0.1524968
1562923025999000;0.1755635
1562923026249000;0.179408
1562923026499000;0.1909413
1562923026749000;0.1883783
1562923026999000;0.1883783
1562923027249000;0.1845339
1562923027499000;0.1896598
1562923027749000;0.1922228
1562923027999000;0.1922228
1562923028249000;0.1947858
1562923028499000;0.1935043
1562923028749000;0.1922228
1562923028999000;0.1935043
1562923029249000;0.1935043
1562923029499000;0.1896598
1562923029749000;0.1883783
1562923029999000;0.1858154
1562923030249000;0.1883783
1562923030499000;0.1883783
1562923030749000;0.1896598
1562923030999000;0.1909413
1562923031249000;0.1896598
1562923031499000;0.1896598
1562923031749000;0.1896598
1562923031999000;0.1896598
1562923032249000;0.1896598
1562923032499000;0.1896598
1562923032749000;0.1870969
1562923032999000;0.1870969
1562923033249000;0.1870969
1562923033499000;0.1870969
1562923033749000;0.1870969
1562923033999000;0.1870969
1562923034249000;0.1870969
1562923034499000;0.1883783
1562923034749000;0.1896598
1562923034999000;0.1883783
1562923035249000;0.1883783
1562923035499000;0.1870969
1562923035749000;0.1896598
1562923035999000;0.1870969
1562923036249000;0.1896598
1562923036499000;0.1909413
1562923036749000;0.1883783
1562923036999000;0.1870969
1562923037249000;0.1870969
1562923037499000;0.1870969
1562923037749000;0.1870969
1562923037999000;0.1870969
1562923038249000;0.1858154
1562923038499000;0.1896598
1562923038749000;0.1883783
1562923038999000;0.1870969
1562923039249000;0.1883783
1562923039499000;0.1883783
1562923039749000;0.1858154
1562923039999000;0.1883783
1562923040249000;0.1870969
1562923040499000;0.1870969
1562923040749000;0.1845339
1562923040999000;0.1832524
1562923041249000;0.1845339
1562923041499000;0.1858154
1562923041749000;0.1845339
1562923041999000;0.1845339
1562923042249000;0.1870969
1562923042499000;0.1858154
1562923042749000;0.1858154
1562923042999000;0.1858154
1562923043249000;0.1870969
1562923043499000;0.1858154
1562923043749000;0.1832524
1562923043999000;0.1858154
1562923044249000;0.1858154
1562923044499000;0.1832524
1562923044749000;0.1819709
1562923044999000;0.1832524
1562923045249000;0.1832524
1562923045499000;0.1819709
1562923045749000;0.1819709
1562923045999000;0.1845339
1562923046249000;0.1832524
1562923046499000;0.1819709
1562923046749000;0.1845339
1562923046999000;0.1832524
1562923047249000;0.1845339
1562923047499000;0.1832524
1562923047749000;0.1845339
1562923047999000;0.1806894
1562923048249000;0.1806894
1562923048499000;0.1806894
1562923048749000;0.1806894
1562923048999000;0.1806894
1562923049249000;0.1819709
1562923049499000;0.1845339
1562923049749000;0.1845339
1562923049999000;0.1845339
1562923050249000;0.1832524
1562923050499000;0.1845339
1562923050749000;0.1845339
1562923050999000;0.1845339
1562923051249000;0.1806894
1562923051499000;0.1806894
1562923051749000;0.1832524
1562923051999000;0.1781265
1562923052249000;0.1806894
1562923052499000;0.1819709
1562923052749000;0.1832524
1562923052999000;0.1819709
1562923053249000;0.1832524
1562923053499000;0.1819709
1562923053749000;0.1806894
1562923053999000;0.1832524
1562923054249000;0.1806894
1562923054499000;0.179408
1562923054749000;0.176845
1562923054999000;0.1819709
1562923055249000;0.1806894
1562923055499000;0.179408
1562923055749000;0.1819709
1562923055999000;0.1806894
1562923056249000;0.1806894
1562923056499000;0.179408
1562923056749000;0.1806894
1562923056999000;0.1806894
1562923057249000;0.1819709
1562923057499000;0.174282
1562923057749000;0.1781265
1562923057999000;0.1781265
1562923058249000;0.1781265
1562923058499000;0.1781265
1562923058749000;0.179408
1562923058999000;0.179408
1562923059249000;0.179408
1562923059499000;0.1806894
1562923059749000;0.1806894
1562923059999000;0.179408
1562923060249000;0.1781265
1562923060499000;0.176845
1562923060749000;0.1781265
1562923060999000;0.176845
1562923061249000;0.176845
1562923061499000;0.1781265
1562923061749000;0.1781265
1562923061999000;0.1781265
1562923062249000;0.1781265
1562923062499000;0.179408
1562923062749000;0.1781265
1562923062999000;0.1755635
1562923063249000;0.1755635
1562923063499000;0.1755635
1562923063749000;0.176845
1562923063999000;0.1755635
1562923064249000;0.176845
1562923064499000;0.176845
1562923064749000;0.176845
1562923064999000;0.176845
1562923065249000;0.176845
1562923065499000;0.176845
1562923065749000;0.1755635
1562923065999000;0.174282
1562923066249000;0.174282
1562923066499000;0.174282
1562923066749000;0.174282
1562923066999000;0.1755635
1562923067249000;0.1755635
1562923067499000;0.1755635
1562923067749000;0.1755635
1562923067999000;0.1755635
1562923068249000;0.1755635
1562923068499000;0.1730005
1562923068749000;0.1730005
1562923068999000;0.1755635
1562923069249000;0.1730005
1562923069499000;0.1755635
1562923069749000;0.1755635
1562923069999000;0.1755635
1562923070249000;0.1755635
1562923070499000;0.176845
1562923070749000;0.176845
1562923070999000;0.1755635
1562923071249000;0.1691561
1562923071499000;0.1730005
1562923071749000;0.174282
1562923071999000;0.1730005
1562923072249000;0.1755635
1562923072499000;0.174282
1562923072749000;0.1755635
1562923072999000;0.174282
1562923073249000;0.1755635
1562923073499000;0.174282
1562923073749000;0.1755635
1562923073999000;0.1704376
1562923074249000;0.171719
1562923074499000;0.1730005
1562923074749000;0.171719
1562923074999000;0.174282
1562923075249000;0.1730005
1562923075499000;0.174282
1562923075749000;0.174282
1562923075999000;0.174282
1562923076249000;0.1730005
1562923076499000;0.1704376
1562923076749000;0.1665931
1562923076999000;0.1704376
1562923077249000;0.171719
1562923077499000;0.1730005
1562923077749000;0.1730005
1562923077999000;0.1730005
1562923078249000;0.1730005
1562923078499000;0.1704376
1562923078749000;0.1730005
1562923078999000;0.1730005
1562923079249000;0.1704376
1562923079499000;0.1678746
1562923079749000;0.1691561
1562923079999000;0.1704376
1562923080249000;0.1704376
1562923080499000;0.171719
1562923080749000;0.171719
1562923080999000;0.171719
1562923081249000;0.171719
1562923081499000;0.171719
1562923081749000;0.171719
1562923081999000;0.1678746
1562923082249000;0.1653116
1562923082499000;0.1678746
1562923082749000;0.1678746
1562923082999000;0.1691561
1562923083249000;0.1691561
1562923083499000;0.1704376
1562923083749000;0.1704376
1562923083999000;0.1691561
1562923084249000;0.1935043
1562923084499000;0.1704376
1562923084749000;0.1691561
1562923084999000;0.1653116
1562923085249000;0.1665931
1562923085499000;0.1678746
1562923085749000;0.1665931
1562923085999000;0.1665931
1562923086249000;0.1678746
1562923086499000;0.1678746
1562923086749000;0.1691561
1562923086999000;0.1691561
1562923087249000;0.1691561
1562923087499000;0.1691561
1562923087749000;0.1640301
1562923087999000;0.1653116
1562923088249000;0.1653116
1562923088499000;0.1653116
1562923088749000;0.1653116
1562923088999000;0.1678746
1562923089249000;0.1665931
1562923089499000;0.1678746
1562923089749000;0.1665931
1562923089999000;0.1678746
1562923090249000;0.1678746
1562923090499000;0.1653116
1562923090749000;0.1691561
1562923090999000;0.1653116
1562923091249000;0.1653116
1562923091499000;0.1653116
1562923091749000;0.1653116
1562923091999000;0.1653116
1562923092249000;0.1665931
1562923092499000;0.1678746
1562923092749000;0.1665931
1562923092999000;0.1665931
1562923093249000;0.1614671
1562923093499000;0.1665931
1562923093749000;0.1678746
1562923093999000;0.1640301
1562923094249000;0.1640301
1562923094499000;0.1640301
1562923094749000;0.1640301
1562923094999000;0.1653116
1562923095249000;0.1653116
1562923095499000;0.1665931
1562923095749000;0.1653116
1562923095999000;0.1640301
1562923096249000;0.1653116
1562923096499000;0.1653116
1562923096749000;0.1665931
1562923096999000;0.1627486
1562923097249000;0.1627486
1562923097499000;0.1627486
1562923097749000;0.1627486
1562923097999000;0.1653116
1562923098249000;0.1640301
1562923098499000;0.1640301
1562923098749000;0.1601857
1562923098999000;0.1640301
1562923099249000;0.1614671
1562923099499000;0.1653116
1562923099749000;0.1614671
1562923099999000;0.1614671
1562923100249000;0.1614671
1562923100499000;0.1614671
1562923100749000;0.1614671
1562923100999000;0.1627486
1562923101249000;0.1627486
1562923101499000;0.1576227
1562923101749000;0.1627486
1562923101999000;0.1640301
1562923102249000;0.1627486
1562923102499000;0.1640301
1562923102749000;0.1601857
1562923102999000;0.1601857
1562923103249000;0.1627486
1562923103499000;0.1601857
1562923103749000;0.1601857
1562923103999000;0.1627486
1562923104249000;0.1601857
1562923104499000;0.1627486
1562923104749000;0.1627486
1562923104999000;0.1627486
1562923105249000;0.1614671
1562923105499000;0.1627486
1562923105749000;0.1589042
1562923105999000;0.1589042
1562923106249000;0.1589042
1562923106499000;0.1601857
1562923106749000;0.1601857
1562923106999000;0.1601857
1562923107249000;0.1614671
1562923107499000;0.1614671
1562923107749000;0.1614671
1562923107999000;0.1550597
1562923108249000;0.1537782
1562923108499000;0.1537782
1562923108749000;0.1499338
1562923108999000;0.1499338
1562923109249000;0.1499338
1562923109499000;0.1499338
1562923109749000;0.1512153
1562923109999000;0.1524968
1562923110249000;0.1550597
1562923110499000;0.1589042
1562923110749000;0.1550597
1562923110999000;0.1563412
1562923111249000;0.1627486
1562923111499000;0.1665931
1562923111749000;0.1640301
1562923111999000;0.1665931
1562923112249000;0.1678746
1562923112499000;0.1653116
1562923112749000;0.1678746
1562923112999000;0.171719
1562923113249000;0.171719
1562923113499000;0.174282
1562923113749000;0.1755635
1562923113999000;0.176845
1562923114249000;0.176845
1562923114499000;0.1819709
1562923114749000;0.1858154
1562923114999000;0.1883783
1562923115249000;0.1870969
1562923115499000;0.1935043
1562923115749000;0.1883783
1562923115999000;0.1896598
1562923116249000;0.1909413
1562923116499000;0.1935043
1562923116749000;0.1947858
1562923116999000;0.1947858
1562923117249000;0.1935043
1562923117499000;0.1947858
1562923117749000;0.1973487
1562923117999000;0.1973487
1562923118249000;0.1986302
1562923118499000;0.2011932
1562923118749000;0.2011932
1562923118999000;0.2011932
1562923119249000;0.2037562
1562923119499000;0.2024747
1562923119749000;0.2011932
1562923119999000;0.1999117
1562923120249000;0.1986302
1562923120499000;0.1973487
1562923120749000;0.1960673
1562923120999000;0.1922228
1562923121249000;0.1922228
1562923121499000;0.1922228
1562923121749000;0.1909413
1562923121999000;0.1909413
1562923122249000;0.1922228
1562923122499000;0.1935043
1562923122749000;0.1922228
1562923122999000;0.1935043
1562923123249000;0.1922228
1562923123499000;0.1883783
1562923123749000;0.1935043
1562923123999000;0.1909413
1562923124249000;0.1909413
1562923124499000;0.1922228
1562923124749000;0.1935043
1562923124999000;0.1935043
1562923125249000;0.1947858
1562923125499000;0.1960673
1562923125749000;0.1960673
1562923125999000;0.1960673
1562923126249000;0.1947858
1562923126499000;0.1935043
1562923126749000;0.1947858
1562923126999000;0.1909413
1562923127249000;0.1896598
1562923127499000;0.1896598
1562923127749000;0.1896598
1562923127999000;0.1896598
1562923128249000;0.1909413
1562923128499000;0.1909413
1562923128749000;0.1909413
1562923128999000;0.1883783
1562923129249000;0.1896598
1562923129499000;0.1896598
1562923129749000;0.1909413
1562923129999000;0.1883783
1562923130249000;0.1870969
1562923130499000;0.1870969
1562923130749000;0.1870969
1562923130999000;0.1883783
1562923131249000;0.1883783
1562923131499000;0.1883783
1562923131749000;0.1858154
1562923131999000;0.1883783
1562923132249000;0.1883783
1562923132499000;0.1858154
1562923132749000;0.1845339
1562923132999000;0.1858154
1562923133249000;0.1858154
1562923133499000;0.1858154
1562923133749000;0.1870969
1562923133999000;0.1858154
1562923134249000;0.1858154
1562923134499000;0.1845339
1562923134749000;0.1870969
1562923134999000;0.1858154
1562923135249000;0.1858154
1562923135499000;0.1819709
1562923135749000;0.1819709
1562923135999000;0.1819709
1562923136249000;0.1819709
1562923136499000;0.1832524
1562923136749000;0.1845339
1562923136999000;0.1845339
1562923137249000;0.1806894
1562923137499000;0.1845339
1562923137749000;0.1845339
1562923137999000;0.1832524
1562923138249000;0.1845339
1562923138499000;0.1806894
1562923138749000;0.1806894
1562923138999000;0.1806894
1562923139249000;0.1806894
1562923139499000;0.1806894
1562923139749000;0.1819709
1562923139999000;0.179408
1562923140249000;0.1832524
1562923140499000;0.1819709
1562923140749000;0.1832524
1562923140999000;0.1832524
1562923141249000;0.179408
1562923141499000;0.179408
1562923141749000;0.179408
1562923141999000;0.179408
1562923142249000;0.1806894
1562923142499000;0.1806894
1562923142749000;0.1781265
1562923142999000;0.1806894
1562923143249000;0.1806894
1562923143499000;0.1806894
1562923143749000;0.1819709
1562923143999000;0.1781265
1562923144249000;0.1781265
1562923144499000;0.1781265
1562923144749000;0.1781265
1562923144999000;0.1806894
1562923145249000;0.1806894
1562923145499000;0.1781265
1562923145749000;0.1806894
1562923145999000;0.1781265
1562923146249000;0.179408
1562923146499000;0.1806894
1562923146749000;0.176845
1562923146999000;0.1781265
1562923147249000;0.1781265
1562923147499000;0.1781265
1562923147749000;0.179408
1562923147999000;0.179408
1562923148249000;0.179408
1562923148499000;0.179408
1562923148749000;0.179408
1562923148999000;0.1806894
1562923149249000;0.176845
1562923149499000;0.176845
1562923149749000;0.1781265
1562923149999000;0.1781265
1562923150249000;0.1806894
1562923150499000;0.1819709
1562923150749000;0.1832524
1562923150999000;0.1806894
1562923151249000;0.1832524
1562923151499000;0.179408
1562923151749000;0.1819709
1562923151999000;0.1806894
1562923152249000;0.1781265
1562923152499000;0.1781265
1562923152749000;0.1781265
1562923152999000;0.1781265
1562923153249000;0.1781265
1562923153499000;0.1806894
1562923153749000;0.176845
1562923153999000;0.179408
1562923154249000;0.1806894
1562923154499000;0.1806894
1562923154749000;0.179408
1562923154999000;0.179408
1562923155249000;0.179408
1562923155499000;0.1755635
1562923155749000;0.1755635
1562923155999000;0.1755635
1562923156249000;0.1755635
1562923156499000;0.1730005
1562923156749000;0.1781265
1562923156999000;0.176845
1562923157249000;0.1781265
1562923157499000;0.179408
1562923157749000;0.179408
1562923157999000;0.179408
1562923158249000;0.1781265
1562923158499000;0.1781265
1562923158749000;0.1755635
1562923158999000;0.1755635
1562923159249000;0.1730005
1562923159499000;0.1755635
1562923159749000;0.176845
1562923159999000;0.1781265
1562923160249000;0.176845
1562923160499000;0.176845
1562923160749000;0.1781265
1562923160999000;0.179408
1562923161249000;0.1781265
1562923161499000;0.179408
1562923161749000;0.1781265
1562923161999000;0.176845
1562923162249000;0.1781265
1562923162499000;0.1781265
1562923162749000;0.1781265
1562923162999000;0.1806894
1562923163249000;0.179408
1562923163499000;0.179408
1562923163749000;0.179408
1562923163999000;0.179408
1562923164249000;0.179408
1562923164499000;0.179408
1562923164749000;0.176845
1562923164999000;0.1755635
1562923165249000;0.174282
1562923165499000;0.1755635
1562923165749000;0.1755635
1562923165999000;0.1755635
1562923166249000;0.1781265
1562923166499000;0.1781265
1562923166749000;0.1781265
1562923166999000;0.179408
1562923167249000;0.1781265
1562923167499000;0.1755635
1562923167749000;0.1781265
1562923167999000;0.179408
1562923168249000;0.1755635
1562923168499000;0.1755635
1562923168749000;0.1755635
1562923168999000;0.1755635
1562923169249000;0.1755635
1562923169499000;0.1755635
1562923169749000;0.1781265
1562923169999000;0.1781265
1562923170249000;0.176845
1562923170499000;0.1806894
1562923170749000;0.1806894
1562923170999000;0.179408
1562923171249000;0.1781265
1562923171499000;0.1781265
1562923171749000;0.1755635
1562923171999000;0.1755635
1562923172249000;0.1755635
1562923172499000;0.1755635
1562923172749000;0.1755635
1562923172999000;0.174282
1562923173249000;0.176845
1562923173499000;0.1781265
1562923173749000;0.176845
1562923173999000;0.176845
1562923174249000;0.176845
1562923174499000;0.1781265
1562923174749000;0.176845
1562923174999000;0.174282
1562923175249000;0.1755635
1562923175499000;0.1755635
1562923175749000;0.1730005
1562923175999000;0.1755635
1562923176249000;0.1755635
1562923176499000;0.176845
1562923176749000;0.176845
1562923176999000;0.176845
1562923177249000;0.1755635
1562923177499000;0.176845
1562923177749000;0.176845
1562923177999000;0.174282
1562923178249000;0.174282
1562923178499000;0.171719
1562923178749000;0.1730005
1562923178999000;0.174282
1562923179249000;0.1755635
1562923179499000;0.1755635
1562923179749000;0.176845
1562923179999000;0.176845
1562923180249000;0.1755635
1562923180499000;0.1755635
1562923180749000;0.1755635
1562923180999000;0.174282
1562923181249000;0.171719
1562923181499000;0.1755635
1562923181749000;0.1755635
1562923181999000;0.176845
1562923182249000;0.1781265
1562923182499000;0.179408
1562923182749000;0.1806894
1562923182999000;0.1819709
1562923183249000;0.1819709
1562923183499000;0.1806894
1562923183749000;0.1845339
1562923183999000;0.1819709
1562923184249000;0.1832524
1562923184499000;0.1845339
1562923184749000;0.1858154
1562923184999000;0.1845339
1562923185249000;0.1845339
1562923185499000;0.1858154
1562923185749000;0.1845339
1562923185999000;0.1858154
1562923186249000;0.1858154
1562923186499000;0.1858154
1562923186749000;0.1832524
1562923186999000;0.1845339
1562923187249000;0.1858154
1562923187499000;0.1870969
1562923187749000;0.1858154
1562923187999000;0.1858154
1562923188249000;0.1858154
1562923188499000;0.1870969
1562923188749000;0.1909413
1562923188999000;0.1947858
1562923189249000;0.1960673
1562923189499000;0.1922228
1562923189749000;0.1947858
1562923189999000;0.1960673
1562923190249000;0.1935043
1562923190499000;0.1922228
1562923190749000;0.1935043
1562923190999000;0.1922228
1562923191249000;0.1883783
1562923191499000;0.1883783
1562923191749000;0.1883783
1562923191999000;0.1896598
1562923192249000;0.1896598
1562923192499000;0.1935043
1562923192749000;0.1960673
1562923192999000;0.1973487
1562923193249000;0.1960673
1562923193499000;0.1947858
1562923193749000;0.1947858
1562923193999000;0.1935043
1562923194249000;0.1935043
1562923194499000;0.1909413
1562923194749000;0.1922228
1562923194999000;0.1935043
1562923195249000;0.1947858
1562923195499000;0.1947858
1562923195749000;0.1960673
1562923195999000;0.1960673
1562923196249000;0.1947858
1562923196499000;0.1947858
1562923196749000;0.1960673
1562923196999000;0.1935043
1562923197249000;0.1935043
1562923197499000;0.1947858
1562923197749000;0.1870969
1562923197999000;0.1909413
1562923198249000;0.1909413
1562923198499000;0.1896598
1562923198749000;0.1896598
1562923198999000;0.1909413
1562923199249000;0.1909413
1562923199499000;0.1909413
1562923199749000;0.1922228
1562923199999000;0.1935043
1562923200249000;0.1922228
1562923200499000;0.1909413
1562923200749000;0.1935043
1562923200999000;0.1909413
1562923201249000;0.1896598
1562923201499000;0.1909413
1562923201749000;0.1909413
1562923201999000;0.1909413
1562923202249000;0.1909413
1562923202499000;0.1922228
1562923202749000;0.1935043
1562923202999000;0.1909413
1562923203249000;0.1883783
1562923203499000;0.1922228
1562923203749000;0.1909413
1562923203999000;0.1922228
1562923204249000;0.1896598
1562923204499000;0.1870969
1562923204749000;0.1870969
1562923204999000;0.1870969
1562923205249000;0.1870969
1562923205499000;0.1870969
1562923205749000;0.1883783
1562923205999000;0.1858154
1562923206249000;0.1858154
1562923206499000;0.1678746
1562923206749000;0.1550597
1562923206999000;0.1601857
1562923207249000;0.1870969
1562923207499000;0.1922228
1562923207749000;0.1909413
1562923207999000;0.1947858
1562923208249000;0.1960673
1562923208499000;0.1986302
1562923208749000;0.1973487
1562923208999000;0.2011932
1562923209249000;0.2063191
1562923209499000;0.2127266
1562923209749000;0.2152895
1562923209999000;0.2152895
1562923210249000;0.2140081
1562923210499000;0.2127266
1562923210749000;0.2114451
1562923210999000;0.2114451
1562923211249000;0.2088821
1562923211499000;0.2024747
1562923211749000;0.2063191
1562923211999000;0.2088821
1562923212249000;0.2101636
1562923212499000;0.2127266
1562923212749000;0.2140081
1562923212999000;0.2152895
1562923213249000;0.2140081
1562923213499000;0.2127266
1562923213749000;0.2127266
1562923213999000;0.2127266
1562923214249000;0.2088821
1562923214499000;0.2114451
1562923214749000;0.2088821
1562923214999000;0.2063191
1562923215249000;0.2050377
1562923215499000;0.2050377
1562923215749000;0.2037562
1562923215999000;0.2037562
1562923216249000;0.2037562
1562923216499000;0.2076006
1562923216749000;0.2088821
1562923216999000;0.2088821
1562923217249000;0.2204155
1562923217499000;0.2255414
1562923217749000;0.2268229
1562923217999000;0.2293859
1562923218249000;0.2293859
1562923218499000;0.2293859
1562923218749000;0.2268229
1562923218999000;0.2242599
1562923219249000;0.2229785
1562923219499000;0.221697
1562923219749000;0.2204155
1562923219999000;0.2229785
1562923220249000;0.2229785
1562923220499000;0.2242599
1562923220749000;0.2242599
1562923220999000;0.2242599
1562923221249000;0.2242599
1562923221499000;0.2242599
1562923221749000;0.221697
1562923221999000;0.2204155
1562923222249000;0.2229785
1562923222499000;0.221697
1562923222749000;0.2242599
1562923222999000;0.2306674
1562923223249000;0.2345118
1562923223499000;0.2357933
1562923223749000;0.2370748
1562923223999000;0.2370748
1562923224249000;0.2383563
1562923224499000;0.2357933
1562923224749000;0.2332303
1562923224999000;0.2319489
1562923225249000;0.2281044
1562923225499000;0.2293859
1562923225749000;0.2293859
1562923225999000;0.2281044
1562923226249000;0.2242599
1562923226499000;0.2242599
1562923226749000;0.2242599
1562923226999000;0.2242599
1562923227249000;0.2242599
1562923227499000;0.2255414
1562923227749000;0.2242599
1562923227999000;0.2229785
1562923228249000;0.2242599
