1545140519801510;0,7812862

1545140520489040;0,6875319

1545140521192200;0,7031574

1545140521879730;0,6875319

1545140522567260;0,6875317

1545140523254790;0,6875319

1545140523957950;0,7031577

1545140524661110;0,7031574

1545140525364260;0,7031577

1545140526083050;0,7187831

1545140526801830;0,7187833

1545140527504990;0,7031577

1545140528192520;0,6875317

1545140528895680;0,7031577

1545140529520710;0,6250288

1545140530176990;0,6562805

1545140530864520;0,6875317

1545140531552050;0,6875319

1545140532302080;0,7500346

1545140533020870;0,7187833

1545140533724030;0,7031577

1545140534474060;0,7500346

1545140577647930;0,8125377

1545140578397970;0,7500348

1545140579132380;0,7344089

1545140579804280;0,6719062

1545140580429310;0,6250288

1545140581085590;0,6562805

1545140581804380;0,7187831

1545140582460660;0,6562805

1545140583054440;0,5937774

1545140583741970;0,6875319

1545140584523250;0,781286

1545140585367040;0,843789

1545140586085830;0,7187833

1545140586851490;0,7656605

1545140587617150;0,7656602

1545140588304680;0,6875319

1545140588960960;0,6562803

1545140589726620;0,7656605

1545140590367270;0,6406548

1545140590992300;0,6250288

1545140591804840;0,8125377

1545140592429870;0,6250288

1545140593133030;0,7031577

1545140593820560;0,6875317

1545140594476840;0,6562805

1545140595148750;0,671906

1545140595805030;0,6562805

1545140596476930;0,671906

1545140597180090;0,7031577

1545140597820740;0,6406546

1545140598461400;0,6406548

1545140599117680;0,6562803

1545140599773960;0,6562805

1545140608711870;0,7031577

1545140609415030;0,7031577

1545140610227570;0,8125374

1545140610961980;0,7344091

1545140611727640;0,7656605

1545140612477670;0,7500348

1545140613180830;0,7031574

1545140613899610;0,7187833

1545140614571520;0,671906

1545140615243430;0,6719062

1545140615915330;0,671906

1545140616587240;0,6719062

1545140617321650;0,7344089

1545140617993550;0,6719062

1545140618727960;0,7344091

1545140619493620;0,7656602

1545140620290530;0,796912

1545140621024940;0,7344091

1545140621884360;0,8594148

1545140622556260;0,671906

1545140623353180;0,796912

1545140624071960;0,7187833

1545140624775120;0,7031574

1545140625447020;0,6719062

1545140626134560;0,6875317

1545140626837710;0,7031577

1545140627509620;0,671906

1545140628087770;0,5781519

1545140628759680;0,671906

1545140629509710;0,7500348

1545140639603930;0,7812862

1545140640416470;0,8125377

1545140641182130;0,7656602

1545140641963410;0,7812862

1545140642744700;0,7812862

1545140643494730;0,7500348

1545140644182270;0,6875317

1545140644901050;0,7187833

1545140645588580;0,6875317

1545140646276110;0,6875319

1545140646994900;0,7187831

1545140647760560;0,7656605

1545140656276580;0,7344089

1545140657042240;0,7656605

1545140657823520;0,7812862

1545140664073810;0,6562803

1545140664839470;0,7656605

1545140665542630;0,7031574

1545140666386420;0,843789

1545140667214580;0,8281634

1545140667870860;0,6562805

1545140668605270;0,7344089

1545140669308430;0,7031577

1545140669995960;0,6875317

1545140670683490;0,6875319

1545140671339770;0,6562803

1545140672058560;0,7187833

1545140672714840;0,6562805

1545140673449250;0,7344089

1545140677886950;0,7500346

1545140678543230;0,6562805

1545140679215140;0,671906

1545140679871420;0,6562805

1545140680512070;0,6406546

1545140681262110;0,7500348

1545140682027770;0,7656605

1545140682715300;0,6875317

1545140683449710;0,7344091

1545140684184120;0,7344089

1545140684981030;0,796912

1545140685824820;0,843789

1545140686496730;0,6719062

1545140687262390;0,7656602

1545140687996800;0,7344091

1545140688715580;0,7187833

1545140689356230;0,6406546

1545140690090640;0,7344091

1545140690793800;0,7031574

1545140691512580;0,7187833

1545140692215740;0,7031577

1545140692981400;0,7656602

1545140693762690;0,7812862

1545140694481470;0,7187833

1545140695200250;0,7187831

1545140695887790;0,6875319

1545140696575320;0,6875317

1545140697262850;0,6875319

1545140698012880;0,7500348

1545140698622290;0,6094031

1545140699262940;0,6406548

1545140711529140;0,6875317

1545140712232290;0,7031577

1545140713013580;0,7812862

1545140713701110;0,6875317

1545140714404270;0,7031577

1545140715107430;0,7031574

1545140715794960;0,6875319

1545140716466860;0,671906

1545140717138770;0,6719062

1545140717826300;0,6875317

1545140718545090;0,7187833

1545140719232620;0,6875319

1545140719935770;0,7031574

1545140720638930;0,7031577

1545140721388970;0,7500348

1545140722045250;0,6562803

1545140722732780;0,6875319

1545140723420310;0,6875317

1545140724107840;0,6875319

1545140724842250;0,7344089

1545140725592290;0,7500348

1545140726311070;0,7187833

1545140727029850;0,7187831

1545140727733010;0,7031577

1545140728483050;0,7500348

1545140729201830;0,7187831

1545140729936240;0,7344091

1545140730764400;0,8281634

1545140731545690;0,781286

1545140732342600;0,796912

1545140733061380;0,7187833

1545140733780170;0,7187833

1545140734483320;0,7031574

1545140735217730;0,7344091

1545140735952140;0,7344089

1545140741171130;0,8125377

1545140741936790;0,7656605

1545140742655580;0,7187833

1545140743343110;0,6875317

1545140744061890;0,7187833

1545140744843180;0,7812862

1545140745499460;0,6562803

1545140746140110;0,6406546

1545140746827650;0,6875319

1545140747515180;0,6875319

1545140748218330;0,7031574

1545140748952740;0,7344091

1545140749671530;0,7187831

1545140750359060;0,6875319

1545140751062220;0,7031577

1545140751765370;0,7031574

1545140752499780;0,7344091

1545140753249820;0,7500346

1545140753999850;0,7500348

1545140754687380;0,6875319

1545140755374920;0,6875317

1545140756062450;0,6875319

1545140756765610;0,7031574

1545140757484390;0,7187833

1545140782141780;0,6875319

1545140782813690;0,671906

1545140783469970;0,6562805

1545140784188750;0,7187831

1545140784860660;0,6719062

1545140785595070;0,7344091

1545140786313850;0,7187831

1545140787001380;0,6875319

1545140787704540;0,7031574

1545140788392070;0,6875319

1545140789063980;0,671906

1545140789751510;0,6875319

1545140790470290;0,7187833

1545140791173450;0,7031574

1545140791876610;0,7031577

1545140792579760;0,7031574

1545140793282920;0,7031577

1545140794001700;0,7187833

1545140794751740;0,7500346

1545140795501770;0,7500348

1545140796236180;0,7344091

1545140796939340;0,7031574

1545140797642500;0,7031577

1545140798376910;0,7344089

1545140799158190;0,7812862

1545140799908230;0,7500348

1545140800611390;0,7031574

1545140801314540;0,7031577

1545140802017700;0,7031577

1545140802720860;0,7031574

1545140803470890;0,7500348

1545140804174050;0,7031577

1545140804877210;0,7031574

1545140805627240;0,7500348

1545140806346030;0,7187831

1545140807096060;0,7500348

1545140807814840;0,7187833

1545140808502380;0,6875317

1545140809174280;0,6719062

1545140809877440;0,7031574

1545140810580600;0,7031577

1545140811299380;0,7187833

1545140812033790;0,7344089

1545140812721320;0,6875319

1545140813455730;0,7344089

1545140814174510;0,7187833

1545140814924550;0,7500348

1545140815690210;0,7656605

1545140816393370;0,7031574

1545140817080900;0,6875319

1545140817784060;0,7031574

1545140818502840;0,7187833

1545140819268500;0,7656605

1545140820018530;0,7500346

1545140820737320;0,7187833

1545140821456100;0,7187833

1545140822174880;0,7187831

1545140822924920;0,7500348

1545140823643700;0,7187833

1545140831815960;0,7500348

1545140832612870;0,796912

1545140838925660;0,6875319

1545140839628820;0,7031577

1545140840347600;0,7187831

1545140841066380;0,7187833

1545140841785170;0,7187831

1545140842503950;0,7187833

1545140843222730;0,7187833

1545140843941520;0,7187831

1545140844629050;0,6875319

1545140845347830;0,7187833

1545140846019740;0,671906

1545140846722900;0,7031577

1545140847410430;0,6875317

1545140848129210;0,7187833

1545140848894870;0,7656605

1545140849644910;0,7500346

1545140850363690;0,7187833

1545140851066850;0,7031574

1545140