1545140516416050;34,57

1545140516666060;34,57

1545140516916070;34,57

1545140517166080;34,57

1545140517416100;34,53

1545140517666110;34,53

1545140517916120;34,53

1545140518166130;34,53

1545140518416140;34,55

1545140518666150;34,55

1545140518916160;34,55

1545140519166180;34,55

1545140519416190;34,55

1545140519666200;34,55

1545140519916210;34,55

1545140520166220;34,55

1545140520416230;34,57

1545140520666250;34,57

1545140520916260;34,57

1545140521166270;34,57

1545140521416280;34,57

1545140521666290;34,57

1545140521916300;34,57

1545140522166320;34,57

1545140522416330;34,59

1545140522666340;34,59

1545140522916350;34,59

1545140523166360;34,59

1545140523416370;34,59

1545140523666380;34,59

1545140523916400;34,59

1545140524166410;34,59

1545140524416420;34,59

1545140524666430;34,59

1545140524916440;34,59

1545140525166450;34,59

1545140525416470;34,59

1545140525666480;34,59

1545140525916490;34,59

1545140526166500;34,59

1545140526416510;34,61

1545140526666520;34,61

1545140526916530;34,61

1545140527166550;34,61

1545140527416560;34,61

1545140527666570;34,61

1545140527916580;34,61

1545140528166590;34,61

1545140528416600;34,59

1545140528666620;34,59

1545140528916630;34,59

1545140529166640;34,59

1545140529416650;34,57

1545140529666660;34,57

1545140529916670;34,57

1545140530166690;34,57

1545140530416700;34,63

1545140530666710;34,63

1545140530916720;34,63

1545140531166730;34,63

1545140531416740;34,61

1545140531666750;34,61

1545140531916770;34,61

1545140532166780;34,61

1545140532416790;34,61

1545140532666800;34,61

1545140532916810;34,61

1545140533166820;34,61

1545140533416840;34,63

1545140533666850;34,63

1545140533916860;34,63

1545140534166870;34,63

1545140534416880;34,61

1545140534666890;34,61

1545140534916910;34,61

1545140535166920;34,61

1545140535416930;34,61

1545140535666940;34,61

1545140535916950;34,61

1545140536166960;34,61

1545140536416970;34,61

1545140536666990;34,61

1545140536917000;34,61

1545140537167010;34,61

1545140537417020;34,59

1545140537667030;34,59

1545140537917040;34,59

1545140538167060;34,59

1545140538417070;34,61

1545140538667080;34,61

1545140538917090;34,61

1545140539167100;34,61

1545140539417110;34,59

1545140539667130;34,59

1545140539917140;34,59

1545140540167150;34,59

1545140540417160;34,61

1545140540667170;34,61

1545140540917180;34,61

1545140541167190;34,61

1545140541417210;34,63

1545140541667220;34,63

1545140541917230;34,63

1545140542167240;34,63

1545140542417250;34,63

1545140542667260;34,63

1545140542917280;34,63

1545140543167290;34,63

1545140543417300;34,65

1545140543667310;34,65

1545140543917320;34,65

1545140544167330;34,65

1545140544417350;34,63

1545140544667360;34,63

1545140544917370;34,63

1545140545167380;34,63

1545140545417390;34,65

1545140545667400;34,65

1545140545917410;34,65

1545140546167430;34,65

1545140546417440;34,63

1545140546667450;34,63

1545140546917460;34,63

1545140547167470;34,63

1545140547417480;34,63

1545140547667500;34,63

1545140547917510;34,63

1545140548167520;34,63

1545140548417530;34,63

1545140548667540;34,63

1545140548917550;34,63

1545140549167570;34,63

1545140549417580;34,61

1545140549667590;34,61

1545140549917600;34,61

1545140550167610;34,61

1545140550417620;34,63

1545140550667630;34,63

1545140550917650;34,63

1545140551167660;34,63

1545140551417670;34,65

1545140551667680;34,65

1545140551917690;34,65

1545140552167700;34,65

1545140552417720;34,65

1545140552667730;34,65

1545140552917740;34,65

1545140553167750;34,65

1545140553417760;34,65

1545140553667770;34,65

1545140553917790;34,65

1545140554167800;34,65

1545140554417810;34,63

1545140554667820;34,63

1545140554917830;34,63

1545140555167840;34,63

1545140555417850;34,65

1545140555667870;34,65

1545140555917880;34,65

1545140556167890;34,65

1545140556417900;34,65

1545140556667910;34,65

1545140556917920;34,65

1545140557167940;34,65

1545140557417950;34,67

1545140557667960;34,67

1545140557917970;34,67

1545140558167980;34,67

1545140558417990;34,63

1545140558668000;34,63

1545140558918020;34,63

1545140559168030;34,63

1545140559418040;34,65

1545140559668050;34,65

1545140559918060;34,65

1545140560168070;34,65

1545140560418090;34,67

1545140560668100;34,67

1545140560918110;34,67

1545140561168120;34,67

1545140561418130;34,65

1545140561668140;34,65

1545140561918160;34,65

1545140562168170;34,65

1545140562418180;34,65

1545140562668190;34,65

1545140562918200;34,65

1545140563168210;34,65

1545140563418220;34,63

1545140563668240;34,63

1545140563918250;34,63

1545140564168260;34,63

1545140564418270;34,67

1545140564668280;34,67

1545140564918290;34,67

1545140565168310;34,67

1545140565418320;34,63

1545140565668330;34,63

1545140565918340;34,63

1545140566168350;34,63

1545140566418360;34,65

1545140566668380;34,65

1545140566918390;34,65

1545140567168400;34,65

1545140567418410;34,63

1545140567668420;34,63

1545140567918430;34,63

1545140568168440;34,63

1545140568418460;34,63

1545140568668470;34,63

1545140568918480;34,63

1545140569168490;34,63

1545140569418500;34,65

1545140569668510;34,65

1545140569918530;34,65

1545140570168540;34,65

1545140570418550;34,65

1545140570668560;34,65

1545140570918570;34,65

1545140571168580;34,65

1545140571418600;34,61

1545140571668610;34,61

1545140571918620;34,61

1545140572168630;34,61

1545140572418640;34,63

1545140572668650;34,63

1545140572918660;34,63

1545140573168680;34,63

1545140573418690;34,65

1545140573668700;34,65

1545140573918710;34,65

1545140574168720;34,65

1545140574418730;34,65

1545140574668750;34,65

1545140574918760;34,65

1545140575168770;34,65

1545140575418780;34,65

1545140575668790;34,65

1545140575918800;34,65

1545140576168820;34,65

1545140576418830;34,63

1545140576668840;34,63

1545140576918850;34,63

1545140577168860;34,63

1545140577418870;34,65

1545140577668880;34,65

1545140577918900;34,65

1545140578168910;34,65

1545140578418920;34,65

1545140578668930;34,65

1545140578918940;34,65

1545140579168950;34,65

1545140579418970;34,65

1545140579668980;34,65

1545140579918990;34,65

1545140580169000;34,65

1545140580419010;34,65

1545140580669020;34,65

1545140580919040;34,65

1545140581169050;34,65

1545140581419060;34,63

1545140581669070;34,63

1545140581919080;34,63

1545140582169090;34,63

1545140582419100;34,61

1545140582669120;34,61

1545140582919130;34,61

1545140583169140;34,61

1545140583419150;34,63

1545140583669160;34,63

1545140583919170;34,63

1545140584169190;34,63

1545140584419200;34,63

1545140584669210;34,63

1545140584919220;34,63

1545140585169230;34,63

1545140585419240;34,65

1545140585669260;34,65

1545140585919270;34,65

1545140586169280;34,65

1545140586419290;34,63

1545140586669300;34,63

1545140586919310;34,63

1545140587169320;34,63

1545140587419340;34,63

1545140587669350;34,63

1545140587919360;34,63

1545140588169370;34,63

1545140588419380;34,65

1545140588669390;34,65

1545140588919410;34,65

1545140589169420;34,65

1545140589419430;34,63

1545140589669440;34,63

1545140589919450;34,63

1545140590169460;34,63

1545140590419480;34,65

1545140590669490;34,65

1545140590919500;34,65

1545140591169510;34,65

1545140591419520;34,65

1545140591669530;34,65

1545140591919540;34,65

1545140592169560;34,65

1545140592419570;34,65

1545140592669580;34,65

1545140592919590;34,65

1545140593169600;34,65

1545140593419610;34,65

1545140593669630;34,65

1545140593919640;34,65

1545140594169650;34,65

1545140594419660;34,63

1545140594669670;34,63

1545140594919680;34,63

1545140595169690;34,63

1545140595419710;34,63

1545140595669720;34,63

1545140595919730;34,63

1545140596169740;34,63

1545140596419750;34,63

1545140596669760;34,63

1545140596919780;34,63

1545140597169790;34,63

1545140597419800;34,63

1545140597669810;34,63

1545140597919820;34,63

1545140598169830;34,63

1545140598419850;34,63

1545140598669860;34,63

1545140598919870;34,63

1545140599169880;34,63

1545140599419890;34,63

1545140599669900;34,63

1545140599919910;34,63

1545140600169930;34,63

1545140600419940;34,63

1545140600669950;34,63

1545140600919960;34,63

1545140601169970;34,63

1545140601419980;34,63

1545140601670000;34,63

1545140601920010;34,63

1545140602170020;34,63

1545140602420030;34,61

1545140602670040;34,61

1545140602920050;34,61

1545140603170070;34,61

1545140603420080;34,61

1545140603670090;34,61

1545140603920100;34,61

1545140604170110;34,61

1545140604420120;34,61

1545140604670130;34,61

1545140604920150;34,61

1545140605170160;34,61

1545140605420170;34,63

1545140605670180;34,63

1545140605920190;34,63

1545140606170200;34,63

1545140606420220;34,63

1545140606670230;34,63

1545140606920240;34,63

1545140607170250;34,63

1545140607420260;34,61

1545140607670270;34,61

1545140607920290;34,61

1545140608170300;34,61

1545140608420310;34,61

1545140608670320;34,61

1545140608920330;34,61

1545140609170340;34,61

1545140609420350;34,63

1545140609670370;34,63

1545140609920380;34,63

1545140610170390;34,63

1545140610420400;34,63

1545140610670410;34,63

1545140610920420;34,63

1545140611170440;34,63

1545140611420450;34,63

1545140611670460;34,63

1545140611920470;34,63

1545140612170480;34,63

1545140612420490;34,63

1545140612670510;34,63

1545140612920520;34,63

1545140613170530;34,63

1545140613420540;34,59

1545140613670550;34,59

1545140613920560;34,59

1545140614170570;34,59

1545140614420590;34,63

1545140614670600;34,63

1545140614920610;34,63

1545140615170620;34,63

1545140615420630;34,61

1545140615670640;34,61

1545140615920660;34,61

1545140616170670;34,61

1545140616420680;34,59

1545140616670690;34,59

1545140616920700;34,59

1545140617170710;34,59

1545140617420730;34,61

1545140617670740;34,61

1545140617920750;34,61

1545140618170760;34,61

1545140618420770;34,61

1545140618670780;34,61

1545140618920790;34,61

1545140619170810;34,61

1545140619420820;34,61

1545140619670830;34,61

1545140619920840;34,61

1545140620170850;34,61

1545140620420860;34,61

1545140620670880;34,61

1545140620920890;34,61

1545140621170900;34,61

1545140621420910;34,63

1545140621670920;34,63

1545140621920930;34,63

1545140622170940;34,63

1545140622420960;34,61

1545140622670970;34,61

1545140622920980;34,61

1545140623170990;34,61

1545140623421000;34,61

1545140623671010;34,61

1545140623921030;34,61

1545140624171040;34,61

1545140624421050;34,63

1545140624671060;34,63

1545140624921070;34,63

1545140625171080;34,63

1545140625421100;34,63

1545140625671110;34,63

1545140625921120;34,63

1545140626171130;34,63

1545140626421140;34,61

1545140626671150;34,61

1545140626921160;34,61

1545140627171180;34,61

1545140627421190;34,63

1545140627671200;34,63

1545140627921210;34,63

1545140628171220;34,63

1545140628421230;34,63

1545140628671250;34,63

1545140628921260;34,63

1545140629171270;34,63

1545140629421280;34,63

1545140629671290;34,63

1545140629921300;34,63

1545140630171320;34,63

1545140630421330;34,63

1545140630671340;34,63

1545140630921350;34,63

1545140631171360;34,63

1545140631421370;34,61

1545140631671380;34,61

1545140631921400;34,61

1545140632171410;34,61

1545140632421420;34,61

1545140632671430;34,61

1545140632921440;34,61

1545140633171450;34,61

1545140633421470;34,59

1545140633671480;34,59

1545140633921490;34,59

1545140634171500;34,59

1545140634421510;34,61

1545140634671520;34,61

1545140634921540;34,61

1545140635171550;34,61

1545140635421560;34,61

1545140635671570;34,61

1545140635921580;34,61

1545140636171590;34,61

1545140636421600;34,61

1545140636671620;34,61

1545140636921630;34,61

1545140637171640;34,61

1545140637421650;34,59

1545140637671660;34,59

1545140637921670;34,59

1545140638171690;34,59

1545140638421700;34,61

1545140638671710;34,61

1545140638921720;34,61

1545140639171730;34,61

1545140639421740;34,61

1545140639671760;34,61

1545140639921770;34,61

1545140640171780;34,61

1545140640421790;34,59

1545140640671800;34,59

1545140640921810;34,59

1545140641171820;34,59

1545140641421840;34,59

1545140641671850;34,59

1545140641921860;34,59

1545140642171870;34,59

1545140642421880;34,61

1545140642671890;34,61

1545140642921910;34,61

1545140643171920;34,61

1545140643421930;34,61

1545140643671940;34,61

1545140643921950;34,61

1545140644171960;34,61

1545140644421980;34,57

1545140644671990;34,57

1545140644922000;34,57

1545140645172010;34,57

1545140645422020;34,59

1545140645672030;34,59

1545140645922040;34,59

1545140646172060;34,59

1545140646422070;34,59

1545140646672080;34,59

1545140646922090;34,59

1545140647172100;34,59

1545140647422110;34,59

1545140647672130;34,59

1545140647922140;34,59

1545140648172150;34,59

1545140648422160;34,59

1545140648672170;34,59

1545140648922180;34,59

1545140649172190;34,59

1545140649422210;34,59

1545140649672220;34,59

1545140649922230;34,59

1545140650172240;34,59

1545140650422250;34,59

1545140650672260;34,59

1545140650922280;34,59

1545140651172290;34,59

1545140651422300;34,57

1545140651672310;34,57

1545140651922320;34,57

1545140652172330;34,57

1545140652422350;34,59

1545140652672360;34,59

1545140652922370;34,59

1545140653172380;34,59

1545140653422390;34,57

1545140653672400;34,57

1545140653922420;34,57

1545140654172430;34,57

1545140654422440;34,59

1545140654672450;34,59

1545140654922460;34,59

1545140655172470;34,59

1545140655422480;34,57

1545140655672500;34,57

1545140655922510;34,57

1545140656172520;34,57

1545140656422530;34,57

1545140656672540;34,57

1545140656922550;34,57

1545140657172570;34,57

1545140657422580;34,57

1545140657672590;34,57

1545140657922600;34,57

1545140658172610;34,57

1545140658422620;34,59

1545140658672630;34,59

1545140658922650;34,59

1545140659172660;34,59

1545140659422670;34,57

1545140659672680;34,57

1545140659922690;34,57

1545140660172700;34,57

1545140660422720;34,55

1545140660672730;34,55

1545140660922740;34,55

1545140661172750;34,55

1545140661422760;34,57

1545140661672770;34,57

1545140661922790;34,57

1545140662172800;34,57

1545140662422810;34,59

1545140662672820;34,59

1545140662922830;34,59

1545140663172840;34,59

1545140663422850;34,55

1545140663672870;34,55

1545140663922880;34,55

1545140664172890;34,55

1545140664422900;34,57

1545140664672910;34,57

1545140664922920;34,57

1545140665172940;34,57

1545140665422950;34,57

1545140665672960;34,57

1545140665922970;34,57

1545140666172980;34,57

1545140666422990;34,55

1545140666673010;34,55

1545140666923020;34,55

1545140667173030;34,55

1545140667423040;34,59

1545140667673050;34,59

1545140667923060;34,59

1545140668173070;34,59

1545140668423090;34,59

1545140668673100;34,59

1545140668923110;34,59

1545140669173120;34,59

1545140669423130;34,59

1545140669673140;34,59

1545140669923160;34,59

1545140670173170;34,59

1545140670423180;34,55

1545140670673190;34,55

1545140670923200;34,55

1545140671173210;34,55

1545140671423230;34,57

1545140671673240;34,57

1545140671923250;34,57

1545140672173260;34,57

1545140672423270;34,55

1545140672673280;34,55

1545140672923290;34,55

1545140673173310;34,55

1545140673423320;34,57

1545140673673330;34,57

1545140673923340;34,57

1545140674173350;34,57

1545140674423360;34,59

1545140674673380;34,59

1545140674923390;34,59

1545140675173400;34,59

1545140675423410;34,59

1545140675673420;34,59

1545140675923430;34,59

1545140676173450;34,59

1545140676423460;34,57

1545140676673470;34,57

1545140676923480;34,57

1545140677173490;34,57

1545140677423500;34,57

1545140677673510;34,57

1545140677923530;34,57

1545140678173540;34,57

1545140678423550;34,57

1545140678673560;34,57

1545140678923570;34,57

1545140679173580;34,57

1545140679423600;34,55

1545140679673610;34,55

1545140679923620;34,55

1545140680173630;34,55

1545140680423640;34,53

1545140680673650;34,53

1545140680923670;34,53

1545140681173680;34,53

1545140681423690;34,55

1545140681673700;34,55

1545140681923710;34,55

1545140682173720;34,55

1545140682423730;34,55

1545140682673750;34,55

1545140682923760;34,55

1545140683173770;34,55

1545140683423780;34,55

1545140683673790;34,55

1545140683923800;34,55

1545140684173820;34,55

1545140684423830;34,55

1545140684673840;34,55

1545140684923850;34,55

1545140685173860;34,55

1545140685423870;34,53

1545140685673880;34,53

1545140685923900;34,53

1545140686173910;34,53

1545140686423920;34,55

1545140686673930;34,55

1545140686923940;34,55

1545140687173950;34,55

1545140687423970;34,53

1545140687673980;34,53

1545140687923990;34,53

1545140688174000;34,53

1545140688424010;34,55

1545140688674020;34,55

1545140688924040;34,55

1545140689174050;34,55

1545140689424060;34,55

1545140689674070;34,55

1545140689924080;34,55

1545140690174090;34,55

1545140690424100;34,51

1545140690674120;34,51

1545140690924130;34,51

1545140691174140;34,51

1545140691424150;34,55

1545140691674160;34,55

1545140691924170;34,55

1545140692174190;34,55

1545140692424200;34,55

1545140692674210;34,55

1545140692924220;34,55

1545140693174230;34,55

1545140693424240;34,51

1545140693674260;34,51

1545140693924270;34,51

1545140694174280;34,51

1545140694424290;34,55

1545140694674300;34,55

1545140694924310;34,55

1545140695174320;34,55

1545140695424340;34,53

1545140695674350;34,53

1545140695924360;34,53

1545140696174370;34,53

1545140696424380;34,53

1545140696674390;34,53

1545140696924410;34,53

1545140697174420;34,53

1545140697424430;34,53

1545140697674440;34,53

1545140697924450;34,53

1545140698174460;34,53

1545140698424480;34,53

1545140698674490;34,53

1545140698924500;34,53

1545140699174510;34,53

1545140699424520;34,57

1545140699674530;34,57

1545140699924540;34,57

1545140700174560;34,57

1545140700424570;34,53

1545140700674580;34,53

1545140700924590;34,53

1545140701174600;34,53

1545140701424610;34,53

1545140701674630;34,53

1545140701924640;34,53

1545140702174650;34,53

1545140702424660;34,53

1545140702674670;34,53

1545140702924680;34,53

1545140703174700;34,53

1545140703424710;34,53

1545140703674720;34,53

1545140703924730;34,53

1545140704174740;34,53

1545140704424750;34,53

1545140704674760;34,53

1545140704924780;34,53

1545140705174790;34,53

1545140705424800;34,53

1545140705674810;34,53

1545140705924820;34,53

1545140706174830;34,53

1545140706424850;34,53

1545140706674860;34,53

1545140706924870;34,53

1545140707174880;34,53

1545140707424890;34,55

1545140707674900;34,55

1545140707924920;34,55

1545140708174930;34,55

1545140708424940;34,53

1545140708674950;34,53

1545140708924960;34,53

1545140709174970;34,53

1545140709424980;34,51

1545140709675000;34,51

1545140709925010;34,51

1545140710175020;34,51

1545140710425030;34,53

1545140710675040;34,53

1545140710925050;34,53

1545140711175070;34,53

1545140711425080;34,51

1545140711675090;34,51

1545140711925100;34,51

1545140712175110;34,51

1545140712425120;34,51

1545140712675140;34,51

1545140712925150;34,51

1545140713175160;34,51

1545140713425170;34,51

1545140713675180;34,51

1545140713925190;34,51

1545140714175200;34,51

1545140714425220;34,51

1545140714675230;34,51

1545140714925240;34,51

1545140715175250;34,51

1545140715425260;34,51

1545140715675270;34,51

1545140715925290;34,51

1545140716175300;34,51

1545140716425310;34,53

1545140716675320;34,53

1545140716925330;34,53

1545140717175340;34,53

1545140717425350;34,53

1545140717675370;34,53

1545140717925380;34,53

1545140718175390;34,53

1545140718425400;34,53

1545140718675410;34,53

1545140718925420;34,53

1545140719175440;34,53

1545140719425450;34,51

1545140719675460;34,51

1545140719925470;34,51

1545140720175480;34,51

1545140720425490;34,53

1545140720675510;34,53

1545140720925520;34,53

1545140721175530;34,53

1545140721425540;34,49

1545140721675550;34,49

1545140721925560;34,49

1545140722175570;34,49

1545140722425590;34,51

1545140722675600;34,51

1545140722925610;34,51

1545140723175620;34,51

1545140723425630;34,51

1545140723675640;34,51

1545140723925660;34,51

1545140724175670;34,51

1545140724425680;34,51

1545140724675690;34,51

1545140724925700;34,51

1545140725175710;34,51

1545140725425730;34,51

1545140725675740;34,51

1545140725925750;34,51

1545140726175760;34,51

1545140726425770;34,51

1545140726675780;34,51

1545140726925790;34,51

1545140727175810;34,51

1545140727425820;34,49

1545140727675830;34,49

1545140727925840;34,49

1545140728175850;34,49

1545140728425860;34,51

1545140728675880;34,51

1545140728925890;34,51

1545140729175900;34,51

1545140729425910;34,53

1545140729675920;34,53

1545140729925930;34,53

1545140730175950;34,53

1545140730425960;34,51

1545140730675970;34,51

1545140730925980;34,51

1545140731175990;34,51

1545140731426000;34,55

1545140731676010;34,55

1545140731926030;34,55

1545140732176040;34,55

1545140732426050;34,49

1545140732676060;34,49

1545140732926070;34,49

1545140733176080;34,49

1545140733426100;34,53

1545140733676110;34,53

1545140733926120;34,53

1545140734176130;34,53

1545140734426140;34,51

1545140734676150;34,51

1545140734926170;34,51

1545140735176180;34,51

1545140735426190;34,51

1545140735676200;34,51

1545140735926210;34,51

1545140736176220;34,51

1545140736426230;34,49

1545140736676250;34,49

1545140736926260;34,49

1545140737176270;34,49

1545140737426280;34,49

1545140737676290;34,49

1545140737926300;34,49

1545140738176320;34,49

1545140738426330;34,49

1545140738676340;34,49

1545140738926350;34,49

1545140739176360;34,49

1545140739426370;34,49

1545140739676390;34,49

1545140739926400;34,49

1545140740176410;34,49

1545140740426420;34,53

1545140740676430;34,53

1545140740926440;34,53

1545140741176450;34,53

1545140741426470;34,51

1545140741676480;34,51

1545140741926490;34,51

1545140742176500;34,51

1545140742426510;34,49

1545140742676520;34,49

1545140742926540;34,49

1545140743176550;34,49

1545140743426560;34,49

1545140743676570;34,49

1545140743926580;34,49

1545140744176590;34,49

1545140744426600;34,51

1545140744676620;34,51

1545140744926630;34,51

1545140745176640;34,51

1545140745426650;34,51

1545140745676660;34,51

1545140745926670;34,51

1545140746176690;34,51

1545140746426700;34,49

1545140746676710;34,49

1545140746926720;34,49

1545140747176730;34,49

1545140747426740;34,49

1545140747676760;34,49

1545140747926770;34,49

1545140748176780;34,49

1545140748426790;34,47

1545140748676800;34,47

1545140748926810;34,47

1545140749176830;34,47

1545140749426840;34,45

1545140749676850;34,45

1545140749926860;34,45

1545140750176870;34,45

1545140750426880;34,49

1545140750676890;34,49

1545140750926910;34,49

1545140751176920;34,49

1545140751426930;34,49

1545140751676940;34,49

1545140751926950;34,49

1545140752176960;34,49

1545140752426980;34,47

1545140752676990;34,47

1545140752927000;34,47

1545140753177010;34,47

1545140753427020;34,45

1545140753677030;34,45

1545140753927040;34,45

1545140754177060;34,45

1545140754427070;34,45

1545140754677080;34,45

1545140754927090;34,45

1545140755177100;34,45

1545140755427110;34,45

1545140755677130;34,45

1545140755927140;34,45

1545140756177150;34,45

1545140756427160;34,45

1545140756677170;34,45

1545140756927180;34,45

1545140757177200;34,45

1545140757427210;34,45

1545140757677220;34,45

1545140757927230;34,45

1545140758177240;34,45

1545140758427250;34,45

1545140758677260;34,45

1545140758927280;34,45

1545140759177290;34,45

1545140759427300;34,47

1545140759677310;34,47

1545140759927320;34,47

1545140760177330;34,47

1545140760427350;34,45

1545140760677360;34,45

1545140760927370;34,45

1545140761177380;34,45

1545140761427390;34,45

1545140761677400;34,45

1545140761927420;34,45

1545140762177430;34,45

1545140762427440;34,43

1545140762677450;34,43

1545140762927460;34,43

1545140763177470;34,43

1545140763427480;34,43

1545140763677500;34,43

1545140763927510;34,43

1545140764177520;34,43

1545140764427530;34,45

1545140764677540;34,45

1545140764927550;34,45

1545140765177570;34,45

1545140765427580;34,43

1545140765677590;34,43

1545140765927600;34,43

1545140766177610;34,43

1545140766427620;34,43

1545140766677640;34,43

1545140766927650;34,43

1545140767177660;34,43

1545140767427670;34,45

1545140767677680;34,45

1545140767927690;34,45

1545140768177700;34,45

1545140768427720;34,45

1545140768677730;34,45

1545140768927740;34,45

1545140769177750;34,45

1545140769427760;34,45

1545140769677770;34,45

1545140769927790;34,45

1545140770177800;34,45

1545140770427810;34,45

1545140770677820;34,45

1545140770927830;34,45

1545140771177840;34,45

1545140771427860;34,45

1545140771677870;34,45

1545140771927880;34,45

1545140772177890;34,45

1545140772427900;34,45

1545140772677910;34,45

1545140772927920;34,45

1545140773177940;34,45

1545140773427950;34,45

1545140773677960;34,45

1545140773927970;34,45

1545140774177980;34,45

1545140774427990;34,45

1545140774678010;34,45

1545140774928020;34,45

1545140775178030;34,45

1545140775428040;34,43

1545140775678050;34,43

1545140775928060;34,43

1545140776178080;34,43

1545140776428090;34,43

1545140776678100;34,43

1545140776928110;34,43

1545140777178120;34,43

1545140777428130;34,43

1545140777678140;34,43

1545140777928160;34,43

1545140778178170;34,43

1545140778428180;34,43

1545140778678190;34,43

1545140778928200;34,43

1545140779178210;34,43

1545140779428230;34,43

1545140779678240;34,43

1545140779928250;34,43

1545140780178260;34,43

1545140780428270;34,45

1545140780678280;34,45

1545140780928290;34,45

1545140781178310;34,45

1545140781428320;34,43

1545140781678330;34,43

1545140781928340;34,43

1545140782178350;34,43

1545140782428360;34,43

1545140782678380;34,43

1545140782928390;34,43

1545140783178400;34,43

1545140783428410;34,45

1545140783678420;34,45

1545140783928430;34,45

1545140784178450;34,45

1545140784428460;34,45

1545140784678470;34,45

1545140784928480;34,45

1545140785178490;34,45

1545140785428500;34,41

1545140785678510;34,41

1545140785928530;34,41

1545140786178540;34,41

1545140786428550;34,41

1545140786678560;34,41

1545140786928570;34,41

1545140787178580;34,41

1545140787428600;34,41

1545140787678610;34,41

1545140787928620;34,41

1545140788178630;34,41

1545140788428640;34,39

1545140788678650;34,39

1545140788928670;34,39

1545140789178680;34,39

1545140789428690;34,41

1545140789678700;34,41

1545140789928710;34,41

1545140790178720;34,41

1545140790428730;34,39

1545140790678750;34,39

1545140790928760;34,39

1545140791178770;34,39

1545140791428780;34,39

1545140791678790;34,39

1545140791928800;34,39

1545140792178820;34,39

1545140792428830;34,39

1545140792678840;34,39

1545140792928850;34,39

1545140793178860;34,39

1545140793428870;34,39

1545140793678890;34,39

1545140793928900;34,39

1545140794178910;34,39

1545140794428920;34,41

1545140794678930;34,41

1545140794928940;34,41

1545140795178950;34,41

1545140795428970;34,39

1545140795678980;34,39

1545140795928990;34,39

1545140796179000;34,39

1545140796429010;34,41

1545140796679020;34,41

1545140796929040;34,41

1545140797179050;34,41

1545140797429060;34,37

1545140797679070;34,37

1545140797929080;34,37

1545140798179090;34,37

1545140798429110;34,37

1545140798679120;34,37

1545140798929130;34,37

1545140799179140;34,37

1545140799429150;34,37

1545140799679160;34,37

1545140799929170;34,37

1545140800179190;34,37

1545140800429200;34,39

1545140800679210;34,39

1545140800929220;34,39

1545140801179230;34,39

1545140801429240;34,39

1545140801679260;34,39

1545140801929270;34,39

1545140802179280;34,39

1545140802429290;34,35

1545140802679300;34,35

1545140802929310;34,35

1545140803179330;34,35

1545140803429340;34,37

1545140803679350;34,37

1545140803929360;34,37

1545140804179370;34,37

1545140804429380;34,37

1545140804679390;34,37

1545140804929410;34,37

1545140805179420;34,37

1545140805429430;34,35

1545140805679440;34,35

1545140805929450;34,35

1545140806179460;34,35

1545140806429480;34,39

1545140806679490;34,39

1545140806929500;34,39

1545140807179510;34,39

1545140807429520;34,39

1545140807679530;34,39

1545140807929540;34,39

1545140808179560;34,39

1545140808429570;34,39

1545140808679580;34,39

1545140808929590;34,39

1545140809179600;34,39

1545140809429610;34,35

1545140809679630;34,35

1545140809929640;34,35

1545140810179650;34,35

1545140810429660;34,37

1545140810679670;34,37

1545140810929680;34,37

1545140811179700;34,37

1545140811429710;34,35

1545140811679720;34,35

1545140811929730;34,35

1545140812179740;34,35

1545140812429750;34,35

1545140812679760;34,35

1545140812929780;34,35

1545140813179790;34,35

1545140813429800;34,35

1545140813679810;34,35

1545140813929820;34,35

1545140814179830;34,35

1545140814429850;34,37

1545140814679860;34,37

1545140814929870;34,37

1545140815179880;34,37

1545140815429890;34,37

1545140815679900;34,37

1545140815929920;34,37

1545140816179930;34,37

1545140816429940;34,35

1545140816679950;34,35

1545140816929960;34,35

1545140817179970;34,35

1545140817429980;34,37

1545140817680000;34,37

1545140817930010;34,37

1545140818180020;34,37

1545140818430030;34,35

1545140818680040;34,35

1545140818930050;34,35

1545140819180070;34,35

1545140819430080;34,35

1545140819680090;34,35

1545140819930100;34,35

1545140820180110;34,35

1545140820430120;34,35

1545140820680140;34,35

1545140820930150;34,35

1545140821180160;34,35

1545140821430170;34,35

1545140821680180;34,35

1545140821930190;34,35

1545140822180200;34,35

1545140822430220;34,35

1545140822680230;34,35

1545140822930240;34,35

1545140823180250;34,35

1545140823430260;34,35

1545140823680270;34,35

1545140823930290;34,35

1545140824180300;34,35

1545140824430310;34,35

1545140824680320;34,35

1545140824930330;34,35

1545140825180340;34,35

1545140825430360;34,37

1545140825680370;34,37

1545140825930380;34,37

1545140826180390;34,37

1545140826430400;34,37

1545140826680410;34,37

1545140826930420;34,37

1545140827180440;34,37

1545140827430450;34,35

1545140827680460;34,35

1545140827930470;34,35

1545140828180480;34,35

1545140828430490;34,37

1545140828680510;34,37

1545140828930520;34,37

1545140829180530;34,37

1545140829430540;34,37

1545140829680550;34,37

1545140829930560;34,37

1545140830180580;34,37

1545140830430590;34,35

1545140830680600;34,35

1545140830930610;34,35

1545140831180620;34,35

1545140831430630;34,35

1545140831680640;34,35

1545140831930660;34,35

1545140832180670;34,35

1545140832430680;34,37

1545140832680690;34,37

1545140832930700;34,37

1545140833180710;34,37

1545140833430730;34,35

1545140833680740;34,35

1545140833930750;34,35

1545140834180760;34,35

1545140834430770;34,33

1545140834680780;34,33

1545140834930800;34,33

1545140835180810;34,33

1545140835430820;34,37

1545140835680830;34,37

1545140835930840;34,37

1545140836180850;34,37

1545140836430860;34,35

1545140836680880;34,35

1545140836930890;34,35

1545140837180900;34,35

1545140837430910;34,37

1545140837680920;34,37

1545140837930930;34,37

1545140838180950;34,37

1545140838430960;34,35

1545140838680970;34,35

1545140838930980;34,35

1545140839180990;34,35

1545140839431000;34,33

1545140839681020;34,33

1545140839931030;34,33

1545140840181040;34,33

1545140840431050;34,33

1545140840681060;34,33

1545140840931070;34,33

1545140841181080;34,33

1545140841431100;34,33

1545140841681110;34,33

1545140841931120;34,33

1545140842181130;34,33

1545140842431140;34,35

1545140842681150;34,35

1545140842931170;34,35

1545140843181180;34,35

1545140843431190;34,33

1545140843681200;34,33

1545140843931210;3